fill -32 65 83 -32 65 87 minecraft:iron_bars[north=true,south=true] keep
# particle minecraft:explosion -32 72.1 85 0 0 1.5 0.01 200
scoreboard players set fakeDoors doorHamGbRvOpen 0

# Last door level, so we play the explosion particles as well