# On enregistre les données dans le storage
function tdh:dialogue/answers/boire/eau_de_vie_baies
data modify storage tdh:dialogue transaction.objet set value {nombre:"huit ",unite:"eaux-de-vie de baies"}
data modify storage tdh:dialogue transaction.item.Count set value 8b

# On enregistre le prix dans le score
scoreboard players set #transaction fer 5

# On enregistre le fait qu'on va faire une transaction
tag @s add Transaction