scoreboard players operation #temps dateMois -= #temps dateMoisMax
scoreboard players add #temps dateAnnee 1

# On recalcule le statut bissextile de cette nouvelle année
function tdh:time/storage/annee