## TICK DES QUAIS DES STATIONS
# Cette fonction est exécutée par une "NumLigne" à sa position, si des joueurs se trouvent à moins de 25 blocs de distance

# On vérifie s'il y a quelqu'un sur la voie ; si oui, on le tp
function tch:station/quai/tp_voie