# Cette fonction est exécutée par l'aubergiste lançant le dialogue,
# à la position du joueur participant au dialogue.

# On enregistre le fait qu'on a émis un greeting
tag @s add GreetingsDone


# On choisit une phrase au hasard pour le PNJ
scoreboard players set #random min 0
scoreboard players set #random max 100
function tdh:random

execute if score #random temp matches 0..24 run data modify storage tdh:dialogue reponse set value {basique:'[{"text":"Bienvenue à l\'auberge "},{"nbt":"Item.tag.auberge.prefixe","entity":"@e[tag=Auberge,sort=nearest,limit=1]"},{"nbt":"Item.tag.auberge.nom","entity":"@e[tag=Auberge,sort=nearest,limit=1]"},{"text":", "},{"selector":"@p[tag=SpeakingToNPC]"},{"text":" ! Vous voulez quelque chose à manger ? À boire ?"}]',cliquable:'[{"text":"Bienvenue à l\'auberge "},{"nbt":"Item.tag.auberge.prefixe","entity":"@e[tag=Auberge,sort=nearest,limit=1]"},{"nbt":"Item.tag.auberge.nom","entity":"@e[tag=Auberge,sort=nearest,limit=1]"},{"text":", "},{"selector":"@p[tag=SpeakingToNPC]"},{"text":" ! Vous voulez quelque chose à "},{"text":"manger","color":"gold","clickEvent":{"action":"run_command","value":"/trigger topic set 380"},"hoverEvent":{"action":"show_text","value":{"text":"Demander de la nourriture"}}},{"text":" ? À "},{"text":"boire","color":"gold","clickEvent":{"action":"run_command","value":"/trigger topic set 381"},"hoverEvent":{"action":"show_text","value":{"text":"Demander de la boisson"}}},{"text":" ?"}]'}

execute if score #random temp matches 25..49 run data modify storage tdh:dialogue reponse set value {basique:'[{"text":"Soyez le bienvenu, "},{"selector":"@p[tag=SpeakingToNPC]"},{"text":" ! Vous voulez quelque chose à manger ? À boire ?"}]',cliquable:'[{"text":"Soyez le bienvenu, "},{"selector":"@p[tag=SpeakingToNPC]"},{"text":" ! Vous voulez quelque chose à "},{"text":"manger","color":"gold","clickEvent":{"action":"run_command","value":"/trigger topic set 380"},"hoverEvent":{"action":"show_text","value":{"text":"Demander de la nourriture"}}},{"text":" ? À "},{"text":"boire","color":"gold","clickEvent":{"action":"run_command","value":"/trigger topic set 381"},"hoverEvent":{"action":"show_text","value":{"text":"Demander de la boisson"}}},{"text":" ?"}]'}

execute if score #random temp matches 50..99 run data modify storage tdh:dialogue reponse set value {basique:'[{"text":"Je suis heureux de vous accueillir à l\'auberge "},{"nbt":"Item.tag.auberge.prefixe","entity":"@e[tag=Auberge,sort=nearest,limit=1]"},{"nbt":"Item.tag.auberge.nom","entity":"@e[tag=Auberge,sort=nearest,limit=1]"},{"text":", "},{"selector":"@p[tag=SpeakingToNPC]"},{"text":" ! Vous faut-il quelque chose à manger, ou éventuellement à boire ?"}]',cliquable:'[{"text":"Je suis heureux de vous accueillir à l\'auberge "},{"nbt":"Item.tag.auberge.prefixe","entity":"@e[tag=Auberge,sort=nearest,limit=1]"},{"nbt":"Item.tag.auberge.nom","entity":"@e[tag=Auberge,sort=nearest,limit=1]"},{"text":", "},{"selector":"@p[tag=SpeakingToNPC]"},{"text":" ! Vous faut-il quelque chose à "},{"text":"manger","color":"gold","clickEvent":{"action":"run_command","value":"/trigger topic set 380"},"hoverEvent":{"action":"show_text","value":{"text":"Demander de la nourriture"}}},{"text":", ou éventuellement à "},{"text":"boire","color":"gold","clickEvent":{"action":"run_command","value":"/trigger topic set 381"},"hoverEvent":{"action":"show_text","value":{"text":"Demander de la boisson"}}},{"text":" ?"}]'}