scoreboard players set #orage_1 probaChgmt 0
scoreboard players set #orage_2 probaChgmt 2
scoreboard players set #orage_3 probaChgmt 8
scoreboard players set #orage_4 probaChgmt 32

function tdh:meteo/effects/orage/intensite_changee
function tdh:meteo/config/eclairs