{
	"display": {
		"hidden": true,
		"title": "CombatCheck",
		"description": "Un détecteur de combat.",
		"icon": {
			"item": "minecraft:air"
		}
	},
	"criteria": {
		"disable_success": {
			"trigger": "impossible"
		},
		"player_hurt": {
			"trigger": "entity_hurt_player"
		},
		"player_killed": {
			"trigger": "entity_killed_player"
		},
		"player_attack": {
			"trigger": "player_hurt_entity"
		},
		"player_kill": {
			"trigger": "player_killed_entity"
		}
	}
}