{
	"values": [
		"minecraft:cat",
		"minecraft:chicken",
		"minecraft:cod",
		"minecraft:cow",
		"minecraft:donkey",
		"minecraft:fox",
		"minecraft:horse",
		"minecraft:mooshroom",
		"minecraft:mule",
		"minecraft:ocelot",
		"minecraft:parrot",
		"minecraft:pig",
		"minecraft:rabbit",
		"minecraft:salmon",
		"minecraft:sheep",
		"minecraft:snow_golem",
		"minecraft:squid",
		"minecraft:strider",
		"minecraft:tropical_fish",
		"minecraft:turtle",
		"minecraft:villager",
		"minecraft:wandering_trader"
	]
}