{
	"values": [
		"minecraft:bricks",
		"minecraft:brick_stairs",
		"minecraft:brick_slab",
		"minecraft:chiseled_nether_bricks",
		"minecraft:cracked_nether_bricks",
		"minecraft:nether_bricks",
		"minecraft:nether_brick_stairs",
		"minecraft:nether_brick_slab",
		"minecraft:red_nether_bricks",
		"minecraft:red_nether_brick_stairs",
		"minecraft:red_nether_brick_slab"
	]
}