# Selon notre type de panneau choisi, on définit un score temporaire qui nous servira à calculer le CustomModelData
# La valeur de départ est l'idLine correspondant à cette direction
tellraw @s [{"text":"\u1a20","color":"gray"},{"text":"\u1a28","color":"#fa9aba"},{"text":" → "},{"text":"Toutes directions","color":"#fa9aba"}]
scoreboard players set @s idPanneau 70
# On ajoute la valeur correspondant à notre type de panneau
function tch:give/acces_quais/_choix_type/_id_panneau

# On affiche ensuite l'écran de sélection de la direction
function tch:give/acces_quais/_choix_fleche