# Message actionbar en pré-station
# 16-20: "Nous arrivons bientôt à XX"

# On récupère d'abord notre PC quai
function tch:tag/prochain_quai_pc

# On affiche ensuite le nom de la station
execute if score @p[tag=SISVEPassager] lightLevel matches ..7 as @e[type=item_frame,tag=ourQuaiPC,limit=1] run title @a[tag=SISVEPassager] actionbar [{"text":"Nous arriverons bientôt ","color":"#f1ede3"},{"nbt":"Item.tag.display.station.alAu","entity":"@s"},{"nbt":"Item.tag.display.station.nom","entity":"@s","color":"red"},{"text":"."}]
execute if score @p[tag=SISVEPassager] lightLevel matches 8.. as @e[type=item_frame,tag=ourQuaiPC,limit=1] run title @a[tag=SISVEPassager] actionbar [{"text":"Nous arriverons bientôt ","color":"#1c0000"},{"nbt":"Item.tag.display.station.alAu","entity":"@s"},{"nbt":"Item.tag.display.station.nom","entity":"@s","color":"dark_red"},{"text":"."}]

# On réinitialise les variables et tags temporaires
tag @e[type=item_frame,tag=ourQuaiPC] remove ourQuaiPC