{
	"values": [
		"#tdh:passable",
		"#tdh:tree",
		"#minecraft:beds",
		"#minecraft:beehives",
		"#minecraft:campfires",
		"#minecraft:doors",
		"#minecraft:fence_gates",
		"#minecraft:fences",
		"#minecraft:fire",
		"#minecraft:flower_pots",
		"#minecraft:trapdoors",
		"#minecraft:walls",
		"minecraft:iron_bars"
	]
}