particle minecraft:cloud ~2 ~1.45 ~ .01 .1 .01 .02 50
particle minecraft:cloud ~3 ~1.45 ~ .01 .1 .01 .02 50
particle minecraft:cloud ~4 ~1.45 ~ .01 .1 .01 .02 50
fill ~2 ~1 ~ ~4 ~1 ~ minecraft:iron_bars[east=true,west=true]
playsound minecraft:block.iron_trapdoor.close block @a[distance=..15] ~3 ~1.5 ~