{
	"values": [
		"minecraft:warped_hyphae",
		"minecraft:warped_planks",
		"minecraft:warped_stairs",
		"minecraft:warped_slab",
		"minecraft:warped_stem",
		"minecraft:stripped_warped_hyphae",
		"minecraft:stripped_warped_stem",
		"minecraft:warped_pressure_plate",
		"minecraft:warped_button"
	]
}