# On génère une bonne manière de se vanter avec l'aubergiste
# On stocke une variable aléatoire entre 0 et 99
scoreboard players set #random min 0
scoreboard players set #random max 100
function tdh:random

# On stocke une phrase différente selon la valeur de cette variable
execute if score #random temp matches 0..19 run data modify storage tdh:dialogue question set value '"Je ne sais pas si on peut s\'arroger soi-même du droit de porter ce titre, mais j\'ai l\'outrecuidance de croire être un aventurier, oui. Je mets ma vie au service des plus faibles et je ne compte plus le nombre d\'inconnus que j\'ai tirés du pétrin !"'
execute if score #random temp matches 20..39 run data modify storage tdh:dialogue question set value '"Vous savez, l\'aventure, je dirais que c\'est d\'abord des rencontres. Des gens à qui j\'ai tendu la main, peut-être à un moment où ils ne pouvaient pas, où ils étaient seuls chez eux avec des morts-vivants. Et c\'est assez curieux de se dire que les hasards, les rencontres forgent une destinée, voire une légende. Parce que quand on a le goût de la chose bien faite, du quidam bien sauvé, le beau geste, parfois on ne trouve pas la récompense en face je dirais, le diamant qui vous aide à avancer. Alors ça n\'est pas mon cas, puisque moi au contraire, j\'ai pu avoir le bonheur d\'être un grand aventurier : et je dis merci à la vie, je lui dis merci, je chante la vie, je danse la vie... je ne suis qu\'amour ! Et finalement quand beaucoup de gens aujourd\'hui me disent : « Mais comment fais-tu pour avoir cette humanité ? », eh bien je leur réponds très simplement, je leur dis que c\'est ce goût de l\'amour, ce goût qui m\'a poussé aujourd\'hui à entreprendre une quête héroïque, mais demain qui sait ? Peut-être continuer à me mettre au service de la cmmunauté, à faire le don, le don de soi..."'
execute if score #random temp matches 40..59 run data modify storage tdh:dialogue question set value '"Vous savez, avant d\'être un mode de vie, être un aventurier je dirais que c\'est avant tout un état d\'esprit. Aider son prochain, savoir écouter les signes qui veulent dire « J\'ai besoin d\'aide », ou « S\'il vous plaît, passez à la maison, je viens de me brûler avec ma soupe bien chaude ». Et aujourd\'hui est effectivement un de ces jours où l\'appel du devoir prend le pas sur mon désir de casser la croûte dans votre charmante auberge."'
execute if score #random temp matches 60..79 run data modify storage tdh:dialogue question set value '"Je passe effectivement ma vie sur les routes... Je ne m\'appellerai pas moi-même un aventurier, car c\'est l\'apanage de vantards dont les représentants les plus éminents n\'ont pas ou plus grand chose d\'héroïque, mais les nombreuses personnes que j\'ai aidé ces dernières années pourraient vous confirmer que la bravoure et la miséricorde rythment mes périples comme les péripéties qui les entrecoupent."'
execute if score #random temp matches 80..99 run data modify storage tdh:dialogue question set value '[{"text":"Vous savez, quand on s\'appelle "},{"selector":"@p[tag=SpeakingToNPC]"},{"text":", c\'est un peu délicat de savoir si on est aventurier ou non finalement. J\'ai passé des décennies sur les chemins à aider la veuve et mon prochain, et j\'y ai trouvé une certaine forme de satisfaction, voire même quand tout se termine bien une vive allégresse. Je ne sais pas si cela suffit pour s\'affubler du titre d\'aventurier, mais si je puis être sûr d\'une chose, c\'est que je n\'ai pas honte de mes actes ni ne suis hanté par des regrets au moment où je m\'endors."}]'

# On gagne des points d'éloquence
scoreboard players add #joueur eloquenceXp 20