{
	"condition": "minecraft:alternative",
	"terms": [
		{
			"condition": "minecraft:location_check",
			"predicate": {
				"biome": "minecraft:lush_caves",
				"position": {
					"y": {
						"min": 200
					}
				}
			}
		},
		{
			"condition": "minecraft:location_check",
			"predicate": {
				"biome": "minecraft:windswept_savanna",
				"position": {
					"y": {
						"min": 200
					}
				}
			}
		}
	]
}