{
	"condition": "minecraft:alternative",
	"terms": [
		{
			"condition": "minecraft:location_check",
			"predicate": {
				"biome": "minecraft:dark_forest",
				"position": {
					"y": {
						"min": 280
					}
				}
			}
		},
		{
			"condition": "minecraft:location_check",
			"predicate": {
				"biome": "minecraft:lush_caves",
				"position": {
					"y": {
						"min": 280
					}
				}
			}
		}
	]
}