{
	"condition": "minecraft:alternative",
	"terms": [
		{
			"condition": "minecraft:location_check",
			"predicate": {
				"biome": "minecraft:deep_frozen_ocean",
				"position": {
					"y": {
						"min": 120
					}
				}
			}
		},
		{
			"condition": "minecraft:location_check",
			"predicate": {
				"biome": "minecraft:old_growth_pine_taiga",
				"position": {
					"y": {
						"min": 120
					}
				}
			}
		},
		{
			"condition": "minecraft:location_check",
			"predicate": {
				"biome": "minecraft:windswept_gravelly_hills",
				"position": {
					"y": {
						"min": 120
					}
				}
			}
		}
	]
}