# Point de référence global : [75 71 242] [coin le plus bas X/Z du rectangle de 4x12 piliers inclus]

# Effacement des blocs de la zone
fill ~1 ~0 ~0 ~10 ~-6 ~3 air


# Altitude = 0
setblock ~1 ~0 ~0 spruce_slab[type=bottom]
setblock ~1 ~0 ~3 spruce_slab[type=bottom]
setblock ~10 ~0 ~0 spruce_slab[type=bottom]
setblock ~10 ~0 ~3 spruce_slab[type=bottom]


# Altitude = -1
setblock ~1 ~-1 ~0 spruce_fence[west=true]
setblock ~1 ~-1 ~3 spruce_fence[west=true]
setblock ~10 ~-1 ~0 spruce_fence[east=true]
setblock ~10 ~-1 ~3 spruce_fence[east=true]


# Altitude = -2
setblock ~1 ~-2 ~0 lantern[hanging=true]
setblock ~1 ~-2 ~3 lantern[hanging=true]
setblock ~10 ~-2 ~0 lantern[hanging=true]
setblock ~10 ~-2 ~3 lantern[hanging=true]

setblock ~5 ~-2 ~0 spruce_trapdoor[facing=east,half=bottom,open=true]
setblock ~5 ~-2 ~3 spruce_trapdoor[facing=east,half=bottom,open=true]
setblock ~6 ~-2 ~0 spruce_trapdoor[facing=west,half=bottom,open=true]
setblock ~6 ~-2 ~3 spruce_trapdoor[facing=west,half=bottom,open=true]

setblock ~4 ~-2 ~0 spruce_stairs[facing=east,half=bottom]
setblock ~4 ~-2 ~3 spruce_stairs[facing=east,half=bottom]
setblock ~7 ~-2 ~0 spruce_stairs[facing=west,half=bottom]
setblock ~7 ~-2 ~3 spruce_stairs[facing=west,half=bottom]


# Altitude = -3
setblock ~5 ~-3 ~0 spruce_trapdoor[facing=east,half=top,open=true]
setblock ~5 ~-3 ~3 spruce_trapdoor[facing=east,half=top,open=true]
setblock ~6 ~-3 ~0 spruce_trapdoor[facing=west,half=top,open=true]
setblock ~6 ~-3 ~3 spruce_trapdoor[facing=west,half=top,open=true]
fill ~5 ~-3 ~1 ~5 ~-3 ~2 oak_trapdoor[facing=east,half=top,open=true]
fill ~6 ~-3 ~1 ~6 ~-3 ~2 oak_trapdoor[facing=west,half=top,open=true]

setblock ~4 ~-3 ~0 spruce_slab[type=double]
setblock ~4 ~-3 ~3 spruce_slab[type=double]
setblock ~7 ~-3 ~0 spruce_slab[type=double]
setblock ~7 ~-3 ~3 spruce_slab[type=double]
fill ~4 ~-3 ~1 ~4 ~-3 ~2 oak_stairs[facing=east,half=bottom]
fill ~7 ~-3 ~1 ~7 ~-3 ~2 oak_stairs[facing=west,half=bottom]

setblock ~3 ~-3 ~0 spruce_stairs[facing=east,half=bottom]
setblock ~3 ~-3 ~3 spruce_stairs[facing=east,half=bottom]
setblock ~8 ~-3 ~0 spruce_stairs[facing=west,half=bottom]
setblock ~8 ~-3 ~3 spruce_stairs[facing=west,half=bottom]


# Altitude = -4
setblock ~1 ~-4 ~0 oak_fence[west=true]
setblock ~1 ~-4 ~3 oak_fence[west=true]
setblock ~10 ~-4 ~0 oak_fence[east=true]
setblock ~10 ~-4 ~3 oak_fence[east=true]

setblock ~4 ~-4 ~0 spruce_slab[type=top]
setblock ~4 ~-4 ~3 spruce_slab[type=top]
setblock ~7 ~-4 ~0 spruce_slab[type=top]
setblock ~7 ~-4 ~3 spruce_slab[type=top]
fill ~4 ~-4 ~1 ~4 ~-4 ~2 oak_slab[type=top]
fill ~7 ~-4 ~1 ~7 ~-4 ~2 oak_slab[type=top]

setblock ~3 ~-4 ~0 spruce_slab[type=double]
setblock ~3 ~-4 ~3 spruce_slab[type=double]
setblock ~8 ~-4 ~0 spruce_slab[type=double]
setblock ~8 ~-4 ~3 spruce_slab[type=double]
fill ~3 ~-4 ~1 ~3 ~-4 ~2 oak_stairs[facing=east,half=bottom]
fill ~8 ~-4 ~1 ~8 ~-4 ~2 oak_stairs[facing=west,half=bottom]

setblock ~2 ~-4 ~0 spruce_stairs[facing=east,half=bottom]
setblock ~2 ~-4 ~3 spruce_stairs[facing=east,half=bottom]
setblock ~9 ~-4 ~0 spruce_stairs[facing=west,half=bottom]
setblock ~9 ~-4 ~3 spruce_stairs[facing=west,half=bottom]


# Altitude = -5
setblock ~1 ~-5 ~0 oak_fence[west=true]
setblock ~1 ~-5 ~3 oak_fence[west=true]
setblock ~10 ~-5 ~0 oak_fence[east=true]
setblock ~10 ~-5 ~3 oak_fence[east=true]

setblock ~3 ~-5 ~0 spruce_slab[type=top]
setblock ~3 ~-5 ~3 spruce_slab[type=top]
setblock ~8 ~-5 ~0 spruce_slab[type=top]
setblock ~8 ~-5 ~3 spruce_slab[type=top]
fill ~3 ~-5 ~1 ~3 ~-5 ~2 oak_slab[type=top]
fill ~8 ~-5 ~1 ~8 ~-5 ~2 oak_slab[type=top]

setblock ~2 ~-5 ~0 spruce_slab[type=double]
setblock ~2 ~-5 ~3 spruce_slab[type=double]
setblock ~9 ~-5 ~0 spruce_slab[type=double]
setblock ~9 ~-5 ~3 spruce_slab[type=double]
fill ~2 ~-5 ~1 ~2 ~-5 ~2 oak_stairs[facing=east,half=bottom]
fill ~9 ~-5 ~1 ~9 ~-5 ~2 oak_stairs[facing=west,half=bottom]


# Altitude = -6
setblock ~1 ~-6 ~0 spruce_stairs[facing=west,half=top]
setblock ~1 ~-6 ~3 spruce_stairs[facing=west,half=top]
setblock ~10 ~-6 ~0 spruce_stairs[facing=east,half=top]
setblock ~10 ~-6 ~3 spruce_stairs[facing=east,half=top]

setblock ~2 ~-6 ~0 spruce_slab[type=top]
setblock ~2 ~-6 ~3 spruce_slab[type=top]
setblock ~9 ~-6 ~0 spruce_slab[type=top]
setblock ~9 ~-6 ~3 spruce_slab[type=top]

fill ~2 ~-6 ~1 ~2 ~-6 ~2 oak_slab[type=top]
fill ~9 ~-6 ~1 ~9 ~-6 ~2 oak_slab[type=top]

fill ~1 ~-6 ~1 ~1 ~-6 ~2 oak_slab[type=double]
fill ~10 ~-6 ~1 ~10 ~-6 ~2 oak_slab[type=double]