{
	"requirements": [
		[
			"1",
			"2",
			"6",
			"8",
			"12",
			"20",
			"80",
			"100"
		]
	],
	"criteria": {
		"8": {
			"trigger": "minecraft:item_used_on_block",
			"conditions": {
				"item": {
					"tag": "tdh:craft/combustible/8"
				},
				"location": {
					"block": {
						"blocks": ["blast_furnace"],
						"nbt": "{CustomName:'{\"text\":\"Générateur électrique thermique\"}',Lock:\"Outil de debug ne pouvant pas être créé sans commandes\"}"
					}
				}
			}
		},
		"80": {
			"trigger": "minecraft:item_used_on_block",
			"conditions": {
				"item": {
					"tag": "tdh:craft/combustible/80"
				},
				"location": {
					"block": {
						"blocks": ["blast_furnace"],
						"nbt": "{CustomName:'{\"text\":\"Générateur électrique thermique\"}',Lock:\"Outil de debug ne pouvant pas être créé sans commandes\"}"
					}
				}
			}
		},
		"100": {
			"trigger": "minecraft:item_used_on_block",
			"conditions": {
				"item": {
					"tag": "tdh:craft/combustible/100"
				},
				"location": {
					"block": {
						"blocks": ["blast_furnace"],
						"nbt": "{CustomName:'{\"text\":\"Générateur électrique thermique\"}',Lock:\"Outil de debug ne pouvant pas être créé sans commandes\"}"
					}
				}
			}
		},
		"2": {
			"trigger": "minecraft:item_used_on_block",
			"conditions": {
				"item": {
					"tag": "tdh:craft/combustible/2"
				},
				"location": {
					"block": {
						"blocks": ["blast_furnace"],
						"nbt": "{CustomName:'{\"text\":\"Générateur électrique thermique\"}',Lock:\"Outil de debug ne pouvant pas être créé sans commandes\"}"
					}
				}
			}
		},
		"20": {
			"trigger": "minecraft:item_used_on_block",
			"conditions": {
				"item": {
					"tag": "tdh:craft/combustible/20"
				},
				"location": {
					"block": {
						"blocks": ["blast_furnace"],
						"nbt": "{CustomName:'{\"text\":\"Générateur électrique thermique\"}',Lock:\"Outil de debug ne pouvant pas être créé sans commandes\"}"
					}
				}
			}
		},
		"12": {
			"trigger": "minecraft:item_used_on_block",
			"conditions": {
				"item": {
					"tag": "tdh:craft/combustible/12"
				},
				"location": {
					"block": {
						"blocks": ["blast_furnace"],
						"nbt": "{CustomName:'{\"text\":\"Générateur électrique thermique\"}',Lock:\"Outil de debug ne pouvant pas être créé sans commandes\"}"
					}
				}
			}
		},
		"6": {
			"trigger": "minecraft:item_used_on_block",
			"conditions": {
				"item": {
					"tag": "tdh:craft/combustible/6"
				},
				"location": {
					"block": {
						"blocks": ["blast_furnace"],
						"nbt": "{CustomName:'{\"text\":\"Générateur électrique thermique\"}',Lock:\"Outil de debug ne pouvant pas être créé sans commandes\"}"
					}
				}
			}
		},
		"1": {
			"trigger": "minecraft:item_used_on_block",
			"conditions": {
				"item": {
					"tag": "tdh:craft/combustible/1"
				},
				"location": {
					"block": {
						"blocks": ["blast_furnace"],
						"nbt": "{CustomName:'{\"text\":\"Générateur électrique thermique\"}',Lock:\"Outil de debug ne pouvant pas être créé sans commandes\"}"
					}
				}
			}
		}
	}
}