# La valeur de départ est l'idStation correspondant à cette station
scoreboard players operation @s idPanneau = @s idStation
# On se donne ensuite le bon panneau selon notre tag (=type de panneau)
function tch:give/station/_choix_type/_id_panneau