scoreboard players set #neige distance 50
scoreboard players set #neige vitesse 1
scoreboard players set #neige frequenceUpdate 1
scoreboard players set #neige jourUpdate 1
scoreboard players set #neige tickUpdate 0
scoreboard players set #neige intensiteMin 1

function tdh:meteo/config/chute_neige