# On se donne la version du panneau avec flèche à gauche du texte
function tch:give/sortie/_choix_fleche/_g

# On se donne également la bonne flèche
give @s[tag=SOPetitBas] blue_dye{CustomModelData:101}
give @s[tag=SOPetitCentre] blue_dye{CustomModelData:201}
give @s[tag=SOPetitHaut] blue_dye{CustomModelData:301}
give @s[tag=SOGrandBas] blue_dye{CustomModelData:401}
give @s[tag=SOGrandHaut] blue_dye{CustomModelData:501}