# On exécute cette fonction à la position d'un joueur pas en spectateur,
# si on tient une pipe en main (#joueurObjet temp = 352..398 du moins au plus combustionné),
# et on va ajouter un niveau de combustion à la pipe

# On vérifie s'il faut diviser le stack (= si on tient 2 objets ou +)
function tdh:player/objets_main_gauche/objet/test_diviser_pile

# On incrémente le niveau de combustion de 1
function tdh:player/objets_main_gauche/objet/incrementer

# On émet une particule de fumée
function tdh:player/objets_main_gauche/objet/pipe/autre/particule/fumee