{
	"pack": {
		"pack_format": 9,
		"description": [{"text":""},{"text":"[Charger après ","color":"red"},{"text":"core","bold":"true","color":"red"},{"text":" et ","color":"red"},{"text":"time","bold":"true","color":"red"},{"text":"]\n","color":"red"},{"text":"Des fonctions spécifiques à certains emplacements de la carte des Terres du Hameau."}]
	}
}