# On choisit une phrase pour la question
scoreboard players set #random min 0
scoreboard players set #random max 100
function tdh:random

execute if score #random temp matches 0..49 run data modify storage tdh:dialogue question set value '"Qu\'est-ce que vous pouvez me dire sur TCH ?"'
execute if score #random temp matches 50..99 run data modify storage tdh:dialogue question set value '"C\'est quoi, exactement, TCH ?"'

# On génère une réponse aléatoire du PNJ
function tdh:random

execute if score #random temp matches 0..24 run data modify storage tdh:dialogue reponse set value {basique:'"TCH est la plus grande entreprise de déplacement automatisé de bipèdes que je connaisse ! Avec près de 54 rames par jour sur les lignes les plus fréquentées, il y a peu de gens dans les Terres du Hameau qui n\'aient jamais utilisé nos services."',cliquable:'[{"text":"TCH est la plus grande entreprise de déplacement automatisé de bipèdes que je connaisse ! Avec près de 54 rames par jour sur les "},{"text":"lignes","color":"gold","clickEvent":{"action":"run_command","value":"/trigger topic set 1300"},"hoverEvent":{"action":"show_text","value":{"text":"Parler des lignes de transport en commun"}}},{"text":" les plus fréquentées, il y a peu de gens dans les "},{"text":"Terres du Hameau","color":"gold","clickEvent":{"action":"run_command","value":"/trigger topic set 400"},"hoverEvent":{"action":"show_text","value":{"text":"Parler des Terres du Hameau"}}},{"text":" qui n\'aient jamais utilisé nos services."}]'}
execute if score #random temp matches 25..49 run data modify storage tdh:dialogue reponse set value {basique:'"TCH est un réseau multimodal qui comprend des lignes de métro, de train et de téléphérique. Si nous n\'étions pas là, je ne vous raconte pas les temps de trajet que d\'aucuns se farciraient !"',cliquable:'[{"text":"TCH est un réseau multimodal qui comprend des "},{"text":"lignes","color":"gold","clickEvent":{"action":"run_command","value":"/trigger topic set 1300"},"hoverEvent":{"action":"show_text","value":{"text":"Parler des lignes de transport en commun"}}},{"text":" de métro, de train et de téléphérique. Si nous n\'étions pas là, je ne vous raconte pas les temps de trajet que d\'aucuns se farciraient !"}]'}
execute if score #random temp matches 50..79 run data modify storage tdh:dialogue reponse set value {basique:'"TCH propose l\'offre de transport la plus vaste de tout le monde connu. En ce qui me concerne, si une ville n\'est pas desservie par une ligne TCH, c\'est comme si elle n\'existait pas !"',cliquable:'[{"text":"TCH propose l\'offre de transport la plus vaste de tout le monde connu. En ce qui me concerne, si une ville n\'est pas desservie par une "},{"text":"ligne","color":"gold","clickEvent":{"action":"run_command","value":"/trigger topic set 1300"},"hoverEvent":{"action":"show_text","value":{"text":"Parler des lignes de transport en commun"}}},{"text":" TCH, c\'est comme si elle n\'existait pas !"}]'}
execute if score #random temp matches 80..99 run data modify storage tdh:dialogue reponse set value '"TCH est une super entreprise, et faites-moi confiance : je ne dis absolument pas ça parce que le central est branché sur mon micro et enregistre toutes mes paroles à des fins d\'amélioration de l\'expérience clientèle !"'

# On débloque les advancements correspondants
execute if score #random temp matches 0..24 run advancement grant @a[gamemode=!spectator,distance=..12] only tdh:dialogue/lieux root_hameau
execute if score #random temp matches 0..79 run advancement grant @a[gamemode=!spectator,distance=..12] only tdh:dialogue/tch lignes