# On enregistre un ID de ligne aléatoire
scoreboard players operation #random min = @s prochaineLigne
scoreboard players operation #random max = @s idLineMax
function tdh:random
scoreboard players operation #rer prochaineLigne = #random temp