{
    "values": [
		"tch:init",
		"tch:abonnement/_init",
		"tch:auto/annonce/_init",
		"tch:debug/_init",
		"tch:give/_init",
		"tch:itineraire/_init_schedule",
		"tch:ligne/init",
		"tch:signal/init",
		"tch:station/init"
    ]
}