{
	"condition": "minecraft:alternative",
	"terms": [
		{
			"condition": "minecraft:location_check",
			"predicate": {
				"biome": "minecraft:frozen_river",
				"position": {
					"y": {
						"max": 120
					}
				}
			}
		},
		{
			"condition": "minecraft:location_check",
			"predicate": {
				"biome": "minecraft:snowy_beach",
				"position": {
					"y": {
						"max": 144
					}
				}
			}
		},
		{
			"condition": "minecraft:location_check",
			"predicate": {
				"biome": "minecraft:snowy_plains",
				"position": {
					"y": {
						"max": 144
					}
				}
			}
		},
		{
			"condition": "minecraft:location_check",
			"predicate": {
				"biome": "minecraft:windswept_forest",
				"position": {
					"y": {
						"max": 152
					}
				}
			}
		},
		{
			"condition": "minecraft:location_check",
			"predicate": {
				"biome": "minecraft:windswept_hills",
				"position": {
					"y": {
						"max": 152
					}
				}
			}
		},
		{
			"condition": "minecraft:location_check",
			"predicate": {
				"biome": "minecraft:deep_frozen_ocean",
				"position": {
					"y": {
						"max": 160
					}
				}
			}
		},
		{
			"condition": "minecraft:location_check",
			"predicate": {
				"biome": "minecraft:windswept_gravelly_hills",
				"position": {
					"y": {
						"max": 168
					}
				}
			}
		},
		{
			"condition": "minecraft:location_check",
			"predicate": {
				"biome": "minecraft:frozen_peaks",
				"position": {
					"y": {
						"max": 184
					}
				}
			}
		},
		{
			"condition": "minecraft:location_check",
			"predicate": {
				"biome": "minecraft:jagged_peaks",
				"position": {
					"y": {
						"max": 184
					}
				}
			}
		},
		{
			"condition": "minecraft:location_check",
			"predicate": {
				"biome": "minecraft:snowy_slopes",
				"position": {
					"y": {
						"max": 200
					}
				}
			}
		},
		{
			"condition": "minecraft:location_check",
			"predicate": {
				"biome": "minecraft:old_growth_spruce_taiga",
				"position": {
					"y": {
						"max": 240
					}
				}
			}
		},
		{
			"condition": "minecraft:location_check",
			"predicate": {
				"biome": "minecraft:snowy_taiga",
				"position": {
					"y": {
						"max": 240
					}
				}
			}
		},
		{
			"condition": "minecraft:location_check",
			"predicate": {
				"biome": "minecraft:taiga",
				"position": {
					"y": {
						"max": 240
					}
				}
			}
		},
		{
			"condition": "minecraft:location_check",
			"predicate": {
				"biome": "minecraft:grove",
				"position": {
					"y": {
						"max": 280
					}
				}
			}
		},
		{
			"condition": "minecraft:location_check",
			"predicate": {
				"biome": "minecraft:old_growth_pine_taiga",
				"position": {
					"y": {
						"max": 280
					}
				}
			}
		},
		{
			"condition": "minecraft:location_check",
			"predicate": {
				"biome": "minecraft:meadow",
				"position": {
					"y": {
						"max": 296
					}
				}
			}
		},
		{
			"condition": "minecraft:location_check",
			"predicate": {
				"biome": "minecraft:cold_ocean",
				"position": {
					"y": {
						"max": 320
					}
				}
			}
		},
		{
			"condition": "minecraft:location_check",
			"predicate": {
				"biome": "minecraft:deep_cold_ocean",
				"position": {
					"y": {
						"max": 320
					}
				}
			}
		},
		{
			"condition": "minecraft:location_check",
			"predicate": {
				"biome": "minecraft:stone_shore",
				"position": {
					"y": {
						"max": 320
					}
				}
			}
		}
	]
}