{
	"condition": "minecraft:alternative",
	"terms": [
		{
			"condition": "minecraft:location_check",
			"predicate": {
				"biome": "minecraft:frozen_peaks",
				"position": {
					"y": {
						"min": 184
					}
				}
			}
		},
		{
			"condition": "minecraft:location_check",
			"predicate": {
				"biome": "minecraft:jagged_peaks",
				"position": {
					"y": {
						"min": 184
					}
				}
			}
		}
	]
}