{
	"pack": {
		"pack_format": 9,
		"description": [{"text":""},{"text":"[Charger après ","color":"red"},{"text":"core","bold":"true","color":"red"},{"text":", ","color":"red"},{"text":"time","bold":"true","color":"red"},{"text":", et ","color":"red"},{"text":"player","bold":"true","color":"red"},{"text":"]\n","color":"red"},{"text":"Ajoute des besoins vitaux (nourriture, boisson...) et des maladies."}]
	}
}