fill ^-1 ^-1 ^ ^-1 ^-1 ^ air replace barrier
fill ^-1 ^-1 ^1 ^-1 ^-1 ^1 air replace barrier
fill ^ ^-1 ^ ^ ^-1 ^ air replace barrier
fill ^ ^-1 ^1 ^ ^-1 ^1 air replace barrier
fill ^1 ^-1 ^ ^1 ^-1 ^ air replace barrier
fill ^1 ^-1 ^1 ^1 ^-1 ^1 air replace barrier