# Détection des terminus
scoreboard players set #tch idTerminus 111
function tch:tag/terminus_pc
scoreboard players set #tch idTerminus 112
function tch:tag/terminus_pc

# Choisir une direction :
tellraw @s [{"text":"Direction : ","color":"gray"},{"entity":"@e[type=item_frame,tag=ourTerminusPC,scores={idTerminus=111},limit=1]","nbt":"Item.tag.display.station.nom","color":"gold","clickEvent":{"action":"run_command","value":"/function tch:give/corresp/m11/111"},"hoverEvent":{"action":"show_text","value":[{"text":"Direction "},{"entity":"@e[type=item_frame,tag=ourTerminusPC,scores={idTerminus=111},limit=1]","nbt":"Item.tag.display.station.nom"},{"text":"."}]}},{"text":" • "},{"entity":"@e[type=item_frame,tag=ourTerminusPC,scores={idTerminus=112},limit=1]","nbt":"Item.tag.display.station.nom","color":"yellow","clickEvent":{"action":"run_command","value":"/function tch:give/corresp/m11/112"},"hoverEvent":{"action":"show_text","value":[{"text":"Direction "},{"entity":"@e[type=item_frame,tag=ourTerminusPC,scores={idTerminus=112},limit=1]","nbt":"Item.tag.display.station.nom"},{"text":"."}]}},{"text":" • "},{"text":"Dir","color":"gold","clickEvent":{"action":"run_command","value":"/function tch:give/corresp/m11/dir"},"hoverEvent":{"action":"show_text","value":[{"text":"Les deux sens de circulation dans une seule direction."}]}}]

# Suppression des tags !
tag @e[type=item_frame,tag=ourTerminusPC] remove ourTerminusPC