## ENREGISTREMENT DE LA DURÉE DE LA NUIT À L'ÉQUINOXE
# Elle est indiquée par la variable config

# On définit la valeur de la variable (min: 8mn20 (10000t), max: durée d'une journée - 12000t - 2x durée du crépuscule)
# On calcule d'abord le maximum autorisé (qu'on stocke dans #temps temp)
scoreboard players operation #temps temp = #temps fullDayTicks
scoreboard players remove #temps temp 12000
scoreboard players operation #temps temp -= #equinoxe sunsetTicks
scoreboard players operation #temps temp -= #equinoxe sunriseTicks
# On définit ensuite la valeur configurée, clampée aux minimum et maximum calculés ci-dessus
execute if score @s config matches 10000.. if score @s config <= #temps temp run scoreboard players operation #equinoxe nightTicks = @s config
execute if score @s config matches 0..9999 run scoreboard players set #equinoxe nightTicks 10000
execute if score @s config > #temps temp run scoreboard players operation #equinoxe nightTicks = #temps temp

# On ne modifie pas la durée des crépuscules ; on recalcule simplement celle du jour à partir des 3 autres
scoreboard players operation #equinoxe dayTicks = #temps fullDayTicks
scoreboard players operation #equinoxe dayTicks -= #equinoxe nightTicks
scoreboard players operation #equinoxe dayTicks -= #equinoxe sunriseTicks
scoreboard players operation #equinoxe dayTicks -= #equinoxe sunsetTicks


# On stocke la nouvelle valeur pour l'afficher ci-après
scoreboard players operation #store currentHour = #equinoxe nightTicks
function tdh:store/realtime
# On calcule le pourcentage d'une journée que représente désormais la nuit
scoreboard players set #temps temp2 1000
scoreboard players operation #temps temp = #equinoxe nightTicks
scoreboard players operation #temps temp *= #temps temp2
scoreboard players operation #temps temp /= #temps fullDayTicks
# temp = 1000 * nightTicks / fullDayTicks (donc en pour-mille du temps)
scoreboard players set #temps temp2 10
scoreboard players operation #temps temp3 = #temps temp
scoreboard players operation #temps temp3 %= #temps temp2
# temp3 = le nombre après la virgule (le "3" dans "17,3 %")
scoreboard players operation #temps temp /= #temps temp2
# temp = le nombre avant la virgule (le "17" ci-dessus)

# On affiche un message de confirmation
tellraw @s [{"text":"À l'équinoxe, la nuit dure désormais ","color":"gray"},{"nbt":"realtime","storage":"tdh:store","color":"yellow"},{"text":" ("},{"score":{"name":"#temps","objective":"temp"},"color":"red"},{"text":".","color":"red"},{"score":{"name":"#temps","objective":"temp3"},"color":"red"},{"text":"%","color":"red"},{"text":" d'une journée)."}]

# On réinitialise les variables temporaires
scoreboard players reset #temps temp
scoreboard players reset #temps temp2
scoreboard players reset #temps temp3