# Détection des terminus
scoreboard players set #tch idTerminus 21
function tch:tag/terminus_pc
scoreboard players set #tch idTerminus 22
function tch:tag/terminus_pc

# Choisir une direction pour le PID :
tellraw @s [{"text":"Choisissez une direction :"}]
tellraw @s [{"text":""},{"entity":"@e[type=item_frame,tag=ourTerminusPC,scores={idTerminus=21},limit=1]","nbt":"Item.tag.display.station.prefixe","extra":[{"entity":"@e[type=item_frame,tag=ourTerminusPC,scores={idTerminus=21},limit=1]","nbt":"Item.tag.display.station.nom"}],"color":"gold","clickEvent":{"action":"run_command","value":"/function tch:give/siel/pid/m2/21"}},{"text":" • "},{"entity":"@e[type=item_frame,tag=ourTerminusPC,scores={idTerminus=22},limit=1]","nbt":"Item.tag.display.station.prefixe","extra":[{"entity":"@e[type=item_frame,tag=ourTerminusPC,scores={idTerminus=22},limit=1]","nbt":"Item.tag.display.station.nom"}],"color":"yellow","clickEvent":{"action":"run_command","value":"/function tch:give/siel/pid/m2/22"}},{"text":" • "},{"text":"Terminus","color":"gold","clickEvent":{"action":"run_command","value":"/function tch:give/siel/pid/m2/terminus"}}]

# Suppression des tags !
tag @e[type=item_frame,tag=ourTerminusPC] remove ourTerminusPC