# Détection des terminus
scoreboard players set #tch idTerminus 2101
function tch:tag/terminus_pc
scoreboard players set #tch idTerminus 2102
function tch:tag/terminus_pc
scoreboard players set #tch idTerminus 2153
function tch:tag/terminus_pc
scoreboard players set #tch idTerminus 2154
function tch:tag/terminus_pc

# Choisir une direction pour le PID :
tellraw @s [{"text":"Choisissez une direction :"}]
tellraw @s [{"text":"","color":"gray"},{"entity":"@e[type=item_frame,tag=ourTerminusPC,scores={idTerminus=2101},limit=1]","nbt":"Item.tag.display.station.prefixe","extra":[{"entity":"@e[type=item_frame,tag=ourTerminusPC,scores={idTerminus=2101},limit=1]","nbt":"Item.tag.display.station.nom"}],"color":"yellow","clickEvent":{"action":"run_command","value":"/function tch:give/siel/pid/rera/2101"}},{"text":" • "},{"entity":"@e[type=item_frame,tag=ourTerminusPC,scores={idTerminus=2102},limit=1]","nbt":"Item.tag.display.station.prefixe","extra":[{"entity":"@e[type=item_frame,tag=ourTerminusPC,scores={idTerminus=2102},limit=1]","nbt":"Item.tag.display.station.nom"}],"color":"gold","clickEvent":{"action":"run_command","value":"/function tch:give/siel/pid/rera/2102"}},{"text":" • "},{"entity":"@e[type=item_frame,tag=ourTerminusPC,scores={idTerminus=2101},limit=1]","nbt":"Item.tag.display.station.prefixe","extra":[{"entity":"@e[type=item_frame,tag=ourTerminusPC,scores={idTerminus=2101},limit=1]","nbt":"Item.tag.display.station.nom"},{"text":" et "},{"entity":"@e[type=item_frame,tag=ourTerminusPC,scores={idTerminus=2102},limit=1]","nbt":"Item.tag.display.station.prefixe"},{"entity":"@e[type=item_frame,tag=ourTerminusPC,scores={idTerminus=2102},limit=1]","nbt":"Item.tag.display.station.nom"}],"color":"yellow","clickEvent":{"action":"run_command","value":"/function tch:give/siel/pid/rera/2100"}}]
tellraw @s [{"text":"","color":"gray"},{"entity":"@e[type=item_frame,tag=ourTerminusPC,scores={idTerminus=2153},limit=1]","nbt":"Item.tag.display.station.prefixe","extra":[{"entity":"@e[type=item_frame,tag=ourTerminusPC,scores={idTerminus=2153},limit=1]","nbt":"Item.tag.display.station.nom"}],"color":"gold","clickEvent":{"action":"run_command","value":"/function tch:give/siel/pid/rera/2153"}},{"text":" • "},{"entity":"@e[type=item_frame,tag=ourTerminusPC,scores={idTerminus=2154},limit=1]","nbt":"Item.tag.display.station.prefixe","extra":[{"entity":"@e[type=item_frame,tag=ourTerminusPC,scores={idTerminus=2154},limit=1]","nbt":"Item.tag.display.station.nom"}],"color":"yellow","clickEvent":{"action":"run_command","value":"/function tch:give/siel/pid/rera/2154"}},{"text":" • "},{"entity":"@e[type=item_frame,tag=ourTerminusPC,scores={idTerminus=2153},limit=1]","nbt":"Item.tag.display.station.prefixe","extra":[{"entity":"@e[type=item_frame,tag=ourTerminusPC,scores={idTerminus=2153},limit=1]","nbt":"Item.tag.display.station.nom"},{"text":" et "},{"entity":"@e[type=item_frame,tag=ourTerminusPC,scores={idTerminus=2154},limit=1]","nbt":"Item.tag.display.station.prefixe"},{"entity":"@e[type=item_frame,tag=ourTerminusPC,scores={idTerminus=2154},limit=1]","nbt":"Item.tag.display.station.nom"}],"color":"gold","clickEvent":{"action":"run_command","value":"/function tch:give/siel/pid/rera/2150"}}]
tellraw @s [{"text":"Terminus","color":"yellow","clickEvent":{"action":"run_command","value":"/function tch:give/siel/pid/rera/terminus"}}]

# Suppression des tags !
tag @e[type=item_frame,tag=ourTerminusPC] remove ourTerminusPC