# On replace la connexion à la fin
data modify entity @s Item.tag.tch.connexions append from entity @s Item.tag.tch.connexions[0]
data remove entity @s Item.tag.tch.connexions[0]

# On répète la fonction
function tch:itineraire/noeud/trouver_connexion/test_connexion