# On enregistre les données dans le storage
function tdh:dialogue/answers/tch/ticket/agent_tch/ticket_journee
data modify storage tdh:dialogue transaction.objet set value {nombre:"cinq ",unite:"tickets TCH"}
data modify storage tdh:dialogue transaction.item.Count set value 5b

# On enregistre le prix dans le score
scoreboard players set #transaction or 1

# On enregistre le fait qu'on va faire une transaction
tag @s add Transaction