# On choisit un ID de voix aléatoire pour la diffusion
scoreboard players operation #random min = @e[type=item_frame,tag=ourPC,limit=1] voix
scoreboard players operation #random max = @e[type=item_frame,tag=ourPC,limit=1] voixMax
function tdh:random
scoreboard players operation @s voix = #random temp