# On génère une réponse aléatoire du PNJ
scoreboard players set #random min 0
scoreboard players set #random max 100
function tdh:random

execute if score #random temp matches 0..49 if score @s temp9 matches 1 run data modify storage tdh:dialogue reponse set value '[{"text":"Cette station devrait bientôt être desservie par le "},{"storage":"tdh:dialogue","nbt":"extra.lignes.hors_service_format","interpret":true},{"text":", mais ce dernier est fermé en raison de travaux. Toutes mes excuses !"}]'
execute if score #random temp matches 0..49 if score @s temp9 matches 2.. run data modify storage tdh:dialogue reponse set value '[{"text":"Cette station devrait bientôt être desservie par les "},{"storage":"tdh:dialogue","nbt":"extra.lignes.hors_service_format","interpret":true},{"text":", mais ces derniers sont fermés en raison de travaux. Toutes mes excuses !"}]'

execute if score #random temp matches 50..99 if score @s temp9 matches 1 run data modify storage tdh:dialogue reponse set value {basique:'[{"text":"Le mauvais point, c\'est que la ligne "},{"storage":"tdh:dialogue","nbt":"extra.lignes.hors_service_format","interpret":true},{"text":", qui doit un jour desservir cette station, est fermée pour travaux. Le bon, c\'est que TCH me paie pour rester ici et vous en informer !"}]',cliquable:'[{"text":"Le mauvais point, c\'est que la "},{"text":"ligne","color":"gold","clickEvent":{"action":"run_command","value":"/trigger topic set 1300"},"hoverEvent":{"action":"show_text","value":{"text":"Parler des lignes"}}},{"text":" "},{"storage":"tdh:dialogue","nbt":"extra.lignes.hors_service_format","interpret":true},{"text":", qui doit un jour desservir cette station, est fermée pour travaux. Le bon, c\'est que TCH me paie pour rester ici et vous en informer !"}]'}
execute if score #random temp matches 50..99 if score @s temp9 matches 2.. run data modify storage tdh:dialogue reponse set value {basique:'[{"text":"Le mauvais point, c\'est que les lignes "},{"storage":"tdh:dialogue","nbt":"extra.lignes.hors_service_format","interpret":true},{"text":", qui doivent un jour desservir cette station, sont fermées pour travaux. Le bon, c\'est que TCH me paie pour rester ici et vous en informer !"}]',cliquable:'[{"text":"Le mauvais point, c\'est que les "},{"text":"lignes","color":"gold","clickEvent":{"action":"run_command","value":"/trigger topic set 1300"},"hoverEvent":{"action":"show_text","value":{"text":"Parler des lignes"}}},{"text":" "},{"storage":"tdh:dialogue","nbt":"extra.lignes.hors_service_format","interpret":true},{"text":", qui doivent un jour desservir cette station, sont fermées pour travaux. Le bon, c\'est que "},{"text":"TCH","color":"gold","clickEvent":{"action":"run_command","value":"/trigger topic set 1000"},"hoverEvent":{"action":"show_text","value":{"text":"Parler de TCH"}}},{"text":" me paie pour rester ici et vous en informer !"}]'}
execute if score #random temp matches 50..99 run advancement grant @a[distance=..12,gamemode=!spectator] only tdh:dialogue/tch lignes
execute if score #random temp matches 50..99 run advancement grant @a[distance=..12,gamemode=!spectator] only tdh:dialogue/tch tch