# Cette fonction est exécutée par le tavernier lançant le dialogue,
# à la position du joueur participant au dialogue.

# On enregistre le fait qu'on a émis un greeting
tag @s add GreetingsDone

# On enregistre la seconde phrase (Proposer de la boisson)
function tdh:dialogue/greet/tavernier/extra/boire

# La phrase d'accroche
scoreboard players set #random min 0
scoreboard players set #random max 100
function tdh:random

execute if score #random temp matches 0..24 run data modify storage tdh:dialogue reponse set value {basique:'[{"text":"Bienvenue dans la taverne "},{"nbt":"Item.tag.taverne.prefixe","entity":"@e[tag=Taverne,sort=nearest,limit=1]"},{"nbt":"Item.tag.taverne.nom","entity":"@e[tag=Taverne,sort=nearest,limit=1]"},{"text":", "},{"selector":"@p[tag=SpeakingToNPC]"},{"text":" ! "},{"storage":"tdh:dialogue","nbt":"extra.boire.basique","interpret":true}]',cliquable:'[{"text":"Bienvenue dans la taverne "},{"nbt":"Item.tag.taverne.prefixe","entity":"@e[tag=Taverne,sort=nearest,limit=1]"},{"nbt":"Item.tag.taverne.nom","entity":"@e[tag=Taverne,sort=nearest,limit=1]"},{"text":", "},{"selector":"@p[tag=SpeakingToNPC]"},{"text":" ! "},{"storage":"tdh:dialogue","nbt":"extra.boire.cliquable","interpret":true}]'}
execute if score #random temp matches 25..49 run data modify storage tdh:dialogue reponse set value {basique:'[{"text":"Je vous souhaite la bienvenue à la taverne "},{"nbt":"Item.tag.taverne.prefixe","entity":"@e[tag=Taverne,sort=nearest,limit=1]"},{"nbt":"Item.tag.taverne.nom","entity":"@e[tag=Taverne,sort=nearest,limit=1]"},{"text":", "},{"selector":"@p[tag=SpeakingToNPC]"},{"text":" ! "},{"storage":"tdh:dialogue","nbt":"extra.boire.basique","interpret":true}]',cliquable:'[{"text":"Je vous souhaite la bienvenue à la taverne "},{"nbt":"Item.tag.taverne.prefixe","entity":"@e[tag=Taverne,sort=nearest,limit=1]"},{"nbt":"Item.tag.taverne.nom","entity":"@e[tag=Taverne,sort=nearest,limit=1]"},{"text":", "},{"selector":"@p[tag=SpeakingToNPC]"},{"text":" ! "},{"storage":"tdh:dialogue","nbt":"extra.boire.cliquable","interpret":true}]'}
execute if score #random temp matches 50..74 run data modify storage tdh:dialogue reponse set value {basique:'[{"text":"Quel plaisir de vous accueillir "},{"nbt":"Item.tag.taverne.alAu","entity":"@e[tag=Taverne,sort=nearest,limit=1]"},{"nbt":"Item.tag.taverne.nom","entity":"@e[tag=Taverne,sort=nearest,limit=1]"},{"text":" ! "},{"storage":"tdh:dialogue","nbt":"extra.boire.basique","interpret":true}]',cliquable:'[{"text":"Quel plaisir de vous accueillir "},{"nbt":"Item.tag.taverne.alAu","entity":"@e[tag=Taverne,sort=nearest,limit=1]"},{"nbt":"Item.tag.taverne.nom","entity":"@e[tag=Taverne,sort=nearest,limit=1]"},{"text":" ! "},{"storage":"tdh:dialogue","nbt":"extra.boire.cliquable","interpret":true}]'}
execute if score #random temp matches 75..99 if score #temps timeOfDay matches 2..3 run data modify storage tdh:dialogue reponse set value {basique:'[{"text":"Bien le bonsoir, "},{"selector":"@p[tag=SpeakingToNPC]"},{"text":" ! "},{"storage":"tdh:dialogue","nbt":"extra.boire.basique","interpret":true}]',cliquable:'[{"text":"Bien le bonjour, "},{"selector":"@p[tag=SpeakingToNPC]"},{"text":" ! "},{"storage":"tdh:dialogue","nbt":"extra.boire.cliquable","interpret":true}]'}
execute if score #random temp matches 75..99 unless score #temps timeOfDay matches 2..3 run data modify storage tdh:dialogue reponse set value {basique:'[{"text":"Bien le bonjour, "},{"selector":"@p[tag=SpeakingToNPC]"},{"text":" ! "},{"storage":"tdh:dialogue","nbt":"extra.boire.basique","interpret":true}]',cliquable:'[{"text":"Bien le bonjour, "},{"selector":"@p[tag=SpeakingToNPC]"},{"text":" ! "},{"storage":"tdh:dialogue","nbt":"extra.boire.cliquable","interpret":true}]'}