# On génère une réponse aléatoire du PNJ
scoreboard players set #random min 0
scoreboard players set #random max 100
function tdh:random

execute if score #random temp matches 0..49 run data modify storage tdh:dialogue reponse set value '[{"text":"Toutes les lignes sont bien, mais j\'attends par dessus tout l\'ouverture du "},{"storage":"tdh:dialogue","nbt":"extra.ligne.nom","interpret":true},{"text":" ! À chaque fois que je fais le trajet entre "},{"storage":"tdh:dialogue","nbt":"extra.station1.prefixe"},{"storage":"tdh:dialogue","nbt":"extra.station1.nom"},{"text":" et "},{"storage":"tdh:dialogue","nbt":"extra.station2.prefixe"},{"storage":"tdh:dialogue","nbt":"extra.station2.nom"},{"text":", je peste qu\'il n\'y ait pas encore de trajet direct !"}]'
execute if score #random temp matches 50..99 run data modify storage tdh:dialogue reponse set value '[{"text":"J\'aime beaucoup l\'ensemble du réseau, le service est globalement très satisfaisant... Mais il le sera encore plus quand le "},{"storage":"tdh:dialogue","nbt":"extra.ligne.nom","interpret":true},{"text":" sera ouvert ! Dès que je suis "},{"storage":"tdh:dialogue","nbt":"extra.station1.alAu"},{"storage":"tdh:dialogue","nbt":"extra.station1.nom"},{"text":" et que j\'ai la mauvaise idée de vouloir me rendre "},{"storage":"tdh:dialogue","nbt":"extra.station2.alAu"},{"storage":"tdh:dialogue","nbt":"extra.station2.nom"},{"text":", je prie TCH pour que des "},{"storage":"tdh:dialogue","nbt":"extra.ligne.vehicule.nom"},{"text":"s y circulent bientôt !"}]'