# On génère une réponse aléatoire du PNJ
scoreboard players set #random min 0
scoreboard players set #random max 100
function tdh:random

execute if score #random temp matches 0..24 run data modify storage tdh:dialogue reponse set value '[{"text":"Chaque ligne a son petit charme, mais moi, ma préférée, c\'est le "},{"storage":"tdh:dialogue","nbt":"extra.ligne.nom","interpret":true},{"text":". À une époque, je le prenais souvent entre "},{"storage":"tdh:dialogue","nbt":"extra.station1.prefixe"},{"storage":"tdh:dialogue","nbt":"extra.station1.nom"},{"text":" et "},{"storage":"tdh:dialogue","nbt":"extra.station2.prefixe"},{"storage":"tdh:dialogue","nbt":"extra.station2.nom"},{"text":"... C\'était la belle vie !"}]'
execute if score #random temp matches 25..49 run data modify storage tdh:dialogue reponse set value '[{"text":"Pour être honnête, je les aime toutes ! Mais j\'ai ma préférée, évidemment. Quand je prenais le "},{"storage":"tdh:dialogue","nbt":"extra.ligne.nom","interpret":true},{"text":", je restais toujours quelques minutes dans l\'entrée "},{"storage":"tdh:dialogue","nbt":"extra.station1.deDu"},{"storage":"tdh:dialogue","nbt":"extra.station1.nom"},{"text":" avant de partir vers "},{"storage":"tdh:dialogue","nbt":"extra.station2.prefixe"},{"storage":"tdh:dialogue","nbt":"extra.station2.nom"},{"text":"... Que de souvenirs !"}]'
execute if score #random temp matches 50..74 run data modify storage tdh:dialogue reponse set value '[{"text":"Elles sont toutes au niveau ! Mais je suis particulièrement attaché au "},{"storage":"tdh:dialogue","nbt":"extra.ligne.nom","interpret":true},{"text":". Quand j\'étais plus jeune, je le prenais "},{"storage":"tdh:dialogue","nbt":"extra.station1.alAu"},{"storage":"tdh:dialogue","nbt":"extra.station1.nom"},{"text":" et j\'attendais un peu que l\'heure de pointe passe en regardant passer les "},{"storage":"tdh:dialogue","nbt":"extra.ligne.vehicule.nom"},{"text":"s... Ah, c\'était le bon vieux temps !"}]'
execute if score #random temp matches 75..99 run data modify storage tdh:dialogue reponse set value '[{"text":"Je ne sais pas pourquoi, parce qu\'elles sont toutes aussi efficaces, mais j\'ai toujours eu un petit faible pour le "},{"storage":"tdh:dialogue","nbt":"extra.ligne.nom","interpret":true},{"text":". Pendant un bon moment, j\'allais tous les jours "},{"storage":"tdh:dialogue","nbt":"extra.station2.alAu"},{"storage":"tdh:dialogue","nbt":"extra.station2.nom"},{"text":", je me revois encore prendre "},{"storage":"tdh:dialogue","nbt":"extra.ligne.vehicule.prefixe"},{"storage":"tdh:dialogue","nbt":"extra.ligne.vehicule.nom"},{"text":" "},{"storage":"tdh:dialogue","nbt":"extra.station1.alAu"},{"storage":"tdh:dialogue","nbt":"extra.station1.nom"},{"text":" et appuyer ma tête contre la vitre pendant le trajet... Aujourd\'hui, j\'y vais moins souvent, mais ça m\'émeut toujours autant à chaque fois !"}]'