{
	"pack": {
		"pack_format": 9,
		"description": [{"text":""},{"text":"[Charger après ","color":"red"},{"text":"core","bold":"true","color":"red"},{"text":"]\n","color":"red"},{"text":"Ajoute des ascenseurs."}]
	}
}