tag @s add AntiSpawnDone
function tdh:village/protect/zone/villonne
function tdh:village/protect/zone/illysia
function tdh:village/protect/zone/procyon
function tdh:village/protect/zone/hameau
function tdh:village/protect/zone/verchamps
function tdh:village/protect/zone/sablons
function tdh:village/protect/zone/dorlinor
function tdh:village/protect/zone/ygriak
function tdh:village/protect/zone/onyx
function tdh:village/protect/zone/duerrom
function tdh:village/protect/zone/grenat
function tdh:village/protect/zone/tolbrok
function tdh:village/protect/zone/neronil
function tdh:village/protect/zone/litorea
function tdh:village/protect/zone/xxmetroa
function tdh:village/protect/zone/spawn_monde
function tdh:village/protect/zone/hades
function tdh:village/protect/zone/mides
function tdh:village/protect/zone/la_dodene
function tdh:village/protect/zone/calmeflot
function tdh:village/protect/zone/milloreau
function tdh:village/protect/zone/argencon
function tdh:village/protect/zone/aulnoy