# On choisit une phrase pour la question
scoreboard players set #random min 0
scoreboard players set #random max 100
function tdh:random

execute if score #random temp matches 0..24 run data modify storage tdh:dialogue question set value '"Entre nous... les tarifs que vous proposez sont tout de même un peu excessifs."'
execute if score #random temp matches 25..49 run data modify storage tdh:dialogue question set value '"Je trouve quand même que vos tarifs sont assez élevés."'
execute if score #random temp matches 50..74 run data modify storage tdh:dialogue question set value '"Le service est certainement bon, mais les tarifs... Je ne m\'explique toujours pas que ça soit aussi cher."'
execute if score #random temp matches 75..99 run data modify storage tdh:dialogue question set value '"Je sais bien que vous ne chômez pas, mais les tarifs des titres de transport sont tout de même légèrement abusés."'

# On génère une réponse aléatoire du PNJ
function tdh:random

execute if score #random temp matches 0..24 run data modify storage tdh:dialogue reponse set value {basique:'"Vous savez, moi, je n\'y peux pas grand chose ! Si vous voyagez beaucoup, je vous recommande de privilégier l\'abonnement."',cliquable:'[{"text":"Vous savez, moi, je n\'y peux pas grand chose ! Si vous voyagez beaucoup, je vous recommande de privilégier l\'"},{"text":"abonnement","color":"gold","clickEvent":{"action":"run_command","value":"/trigger topic set 1500"},"hoverEvent":{"action":"show_text","value":{"text":"Parler de l\'abonnement"}}},{"text":"."}]'}
execute if score #random temp matches 0..24 run advancement grant @a[distance=..12,gamemode=!spectator] only tdh:dialogue/tch abonnement

execute if score #random temp matches 25..49 run data modify storage tdh:dialogue reponse set value {basique:'"Je vous rassure, je ne me les mets pas dans la poche ! Les revenus des titres de transport permettent à TCH de continuer à améliorer la qualité de service, et d\'étendre le réseau au quotidien."',cliquable:'[{"text":"Je vous rassure, je ne me les mets pas dans la poche ! Les revenus des titres de transport permettent à "},{"text":"TCH","color":"gold","clickEvent":{"action":"run_command","value":"/trigger topic set 1000"},"hoverEvent":{"action":"show_text","value":{"text":"Parler de TCH."}}},{"text":" de continuer à améliorer la qualité de service, et d\'étendre le réseau au quotidien."}]'}

execute if score #random temp matches 50..74 run data modify storage tdh:dialogue reponse set value {basique:'"Toutes ces richesses permettent à TCH de faire fonctionner le réseau, de payer les salaires des employés, de construire de nouvelles lignes et d\'innover en matière de véhicules. Si vous voyagez beaucoup et que vous avez du mal à trouver de quoi payer, certaines villes peuvent vous accorder des aides pour payer un abonnement. Rapprochez-vous d\'une administration compétente !"',cliquable:'[{"text":"Toutes ces richesses permettent à "},{"text":"TCH","color":"gold","clickEvent":{"action":"run_command","value":"/trigger topic set 1000"},"hoverEvent":{"action":"show_text","value":{"text":"Parler de TCH"}}},{"text":" de faire fonctionner le réseau, de payer les salaires des employés, de construire de nouvelles "},{"text":"lignes","color":"gold","clickEvent":{"action":"run_command","value":"/trigger topic set 1300"},"hoverEvent":{"action":"show_text","value":{"text":"Parler des lignes"}}},{"text":" et d\'innover en matière de véhicules. Si vous voyagez beaucoup et que vous avez du mal à trouver de quoi payer, certaines villes peuvent vous accorder des "},{"text":"aides","color":"gold","clickEvent":{"action":"run_command","value":"/trigger topic set 1530"},"hoverEvent":{"action":"show_text","value":{"text":"Parler des aides à l\'abonnement"}}},{"text":" pour payer un "},{"text":"abonnement","color":"gold","clickEvent":{"action":"run_command","value":"/trigger topic set 1500"},"hoverEvent":{"action":"show_text","value":{"text":"Parler de l\'abonnement"}}},{"text":". Rapprochez-vous d\'une administration compétente !"}]'}
execute if score #random temp matches 25..74 run advancement grant @a[distance=..12,gamemode=!spectator] only tdh:dialogue/tch tch
execute if score #random temp matches 50..74 run advancement grant @a[distance=..12,gamemode=!spectator] only tdh:dialogue/tch lignes

execute if score #random temp matches 75..99 run data modify storage tdh:dialogue reponse set value {basique:'"Si vous y habitez à l\'année et que vous travaillez, vous pouvez parfois bénéficier d\'aides de votre ville pour payer un abonnement. Les conditions exactes dépendent de votre lieu de résidence : rapprochez-vous de la mairie ou du palais de votre ville pour avoir davantage d\'informations !"',cliquable:'[{"text":"Si vous y habitez à l\'année et que vous travaillez, vous pouvez parfois bénéficier d\'"},{"text":"aides","color":"gold","clickEvent":{"action":"run_command","value":"/trigger topic set 1530"},"hoverEvent":{"action":"show_text","value":{"text":"Parler des aides à l\'abonnement"}}},{"text":" de votre ville pour payer un "},{"text":"abonnement","color":"gold","clickEvent":{"action":"run_command","value":"/trigger topic set 1500"},"hoverEvent":{"action":"show_text","value":{"text":"Parler de l\'abonnement"}}},{"text":". Les conditions exactes dépendent de votre lieu de résidence : rapprochez-vous de la mairie ou du palais de votre ville pour avoir davantage d\'informations !"}]'}
execute if score #random temp matches 50..99 run advancement grant @a[distance=..12,gamemode=!spectator] only tdh:dialogue/tch abonnement
execute if score #random temp matches 50..99 run advancement grant @a[distance=..12,gamemode=!spectator] only tdh:dialogue/tch/abonnement aides