# Lorsqu'on clique sur la trieuse depuis le dessous (rotation verticale <-45),
# on affiche un message pour expliquer que ce slot ne peut pas contenir de filtres car c'est le choix par défaut

function tdh:craft/electricite/trieuse/utiliser/bas/message