# Détection des terminus
scoreboard players set #tch idTerminus 121
function tch:tag/terminus_pc
scoreboard players set #tch idTerminus 122
function tch:tag/terminus_pc
scoreboard players set #tch idTerminus 123
function tch:tag/terminus_pc

# Choisir une direction pour l'accès aux quais :
tellraw @s [{"text":"Direction : ","color":"gray"},{"entity":"@e[type=item_frame,tag=ourTerminusPC,scores={idTerminus=121},limit=1]","nbt":"Item.tag.display.station.prefixe","extra":[{"entity":"@e[type=item_frame,tag=ourTerminusPC,scores={idTerminus=121},limit=1]","nbt":"Item.tag.display.station.nom"}],"color":"gold","clickEvent":{"action":"run_command","value":"/function tch:give/acces_quais/m12/121"},"hoverEvent":{"action":"show_text","value":[{"text":"Direction "},{"entity":"@e[type=item_frame,tag=ourTerminusPC,scores={idTerminus=121},limit=1]","nbt":"Item.tag.display.station.prefixe"},{"entity":"@e[type=item_frame,tag=ourTerminusPC,scores={idTerminus=121},limit=1]","nbt":"Item.tag.display.station.nom"},{"text":"."}]}},{"text":" • "},{"entity":"@e[type=item_frame,tag=ourTerminusPC,scores={idTerminus=122},limit=1]","nbt":"Item.tag.display.station.prefixe","extra":[{"entity":"@e[type=item_frame,tag=ourTerminusPC,scores={idTerminus=122},limit=1]","nbt":"Item.tag.display.station.nom"}],"color":"yellow","clickEvent":{"action":"run_command","value":"/function tch:give/acces_quais/m12/122"},"hoverEvent":{"action":"show_text","value":[{"text":"Direction "},{"entity":"@e[type=item_frame,tag=ourTerminusPC,scores={idTerminus=122},limit=1]","nbt":"Item.tag.display.station.prefixe"},{"entity":"@e[type=item_frame,tag=ourTerminusPC,scores={idTerminus=122},limit=1]","nbt":"Item.tag.display.station.nom"},{"text":"."}]}},{"text":" • "},{"entity":"@e[type=item_frame,tag=ourTerminusPC,scores={idTerminus=123},limit=1]","nbt":"Item.tag.display.station.prefixe","extra":[{"entity":"@e[type=item_frame,tag=ourTerminusPC,scores={idTerminus=123},limit=1]","nbt":"Item.tag.display.station.nom"}],"color":"gold","clickEvent":{"action":"run_command","value":"/function tch:give/acces_quais/m12/123"},"hoverEvent":{"action":"show_text","value":[{"text":"Direction "},{"entity":"@e[type=item_frame,tag=ourTerminusPC,scores={idTerminus=123},limit=1]","nbt":"Item.tag.display.station.prefixe"},{"entity":"@e[type=item_frame,tag=ourTerminusPC,scores={idTerminus=123},limit=1]","nbt":"Item.tag.display.station.nom"},{"text":"."}]}},{"text":" • "},{"entity":"@e[type=item_frame,tag=ourTerminusPC,scores={idTerminus=121},limit=1]","nbt":"Item.tag.display.station.prefixe","extra":[{"entity":"@e[type=item_frame,tag=ourTerminusPC,scores={idTerminus=121},limit=1]","nbt":"Item.tag.display.station.nom"}],"color":"yellow","extra":[{"text":" & "},{"entity":"@e[type=item_frame,tag=ourTerminusPC,scores={idTerminus=122},limit=1]","nbt":"Item.tag.display.station.prefixe"},{"entity":"@e[type=item_frame,tag=ourTerminusPC,scores={idTerminus=122},limit=1]","nbt":"Item.tag.display.station.nom"}],"clickEvent":{"action":"run_command","value":"/function tch:give/acces_quais/m12/121_122"},"hoverEvent":{"action":"show_text","value":[{"text":"Direction "},{"entity":"@e[type=item_frame,tag=ourTerminusPC,scores={idTerminus=121},limit=1]","nbt":"Item.tag.display.station.prefixe"},{"entity":"@e[type=item_frame,tag=ourTerminusPC,scores={idTerminus=121},limit=1]","nbt":"Item.tag.display.station.nom"},{"text":" et "},{"entity":"@e[type=item_frame,tag=ourTerminusPC,scores={idTerminus=122},limit=1]","nbt":"Item.tag.display.station.prefixe"},{"entity":"@e[type=item_frame,tag=ourTerminusPC,scores={idTerminus=122},limit=1]","nbt":"Item.tag.display.station.nom"},{"text":"."}]}},{"text":" • "},{"entity":"@e[type=item_frame,tag=ourTerminusPC,scores={idTerminus=121},limit=1]","nbt":"Item.tag.display.station.prefixe","extra":[{"entity":"@e[type=item_frame,tag=ourTerminusPC,scores={idTerminus=121},limit=1]","nbt":"Item.tag.display.station.nom"}],"color":"gold","extra":[{"text":" & "},{"entity":"@e[type=item_frame,tag=ourTerminusPC,scores={idTerminus=123},limit=1]","nbt":"Item.tag.display.station.prefixe"},{"entity":"@e[type=item_frame,tag=ourTerminusPC,scores={idTerminus=123},limit=1]","nbt":"Item.tag.display.station.nom"}],"clickEvent":{"action":"run_command","value":"/function tch:give/acces_quais/m12/121_123"},"hoverEvent":{"action":"show_text","value":[{"text":"Direction "},{"entity":"@e[type=item_frame,tag=ourTerminusPC,scores={idTerminus=121},limit=1]","nbt":"Item.tag.display.station.prefixe"},{"entity":"@e[type=item_frame,tag=ourTerminusPC,scores={idTerminus=121},limit=1]","nbt":"Item.tag.display.station.nom"},{"text":" et "},{"entity":"@e[type=item_frame,tag=ourTerminusPC,scores={idTerminus=123},limit=1]","nbt":"Item.tag.display.station.prefixe"},{"entity":"@e[type=item_frame,tag=ourTerminusPC,scores={idTerminus=123},limit=1]","nbt":"Item.tag.display.station.nom"},{"text":"."}]}},{"text":" • "},{"entity":"@e[type=item_frame,tag=ourTerminusPC,scores={idTerminus=122},limit=1]","nbt":"Item.tag.display.station.prefixe","extra":[{"entity":"@e[type=item_frame,tag=ourTerminusPC,scores={idTerminus=122},limit=1]","nbt":"Item.tag.display.station.nom"}],"color":"yellow","extra":[{"text":" & "},{"entity":"@e[type=item_frame,tag=ourTerminusPC,scores={idTerminus=123},limit=1]","nbt":"Item.tag.display.station.prefixe"},{"entity":"@e[type=item_frame,tag=ourTerminusPC,scores={idTerminus=123},limit=1]","nbt":"Item.tag.display.station.nom"}],"clickEvent":{"action":"run_command","value":"/function tch:give/acces_quais/m12/122_123"},"hoverEvent":{"action":"show_text","value":[{"text":"Direction "},{"entity":"@e[type=item_frame,tag=ourTerminusPC,scores={idTerminus=122},limit=1]","nbt":"Item.tag.display.station.prefixe"},{"entity":"@e[type=item_frame,tag=ourTerminusPC,scores={idTerminus=122},limit=1]","nbt":"Item.tag.display.station.nom"},{"text":" et "},{"entity":"@e[type=item_frame,tag=ourTerminusPC,scores={idTerminus=123},limit=1]","nbt":"Item.tag.display.station.prefixe"},{"entity":"@e[type=item_frame,tag=ourTerminusPC,scores={idTerminus=123},limit=1]","nbt":"Item.tag.display.station.nom"},{"text":"."}]}},{"text":" • "},{"text":"Dir","color":"gold","clickEvent":{"action":"run_command","value":"/function tch:give/acces_quais/m12/dir"},"hoverEvent":{"action":"show_text","value":[{"text":"Tous les sens de circulation dans une seule direction."}]}}]

# Suppression des tags !
tag @e[type=item_frame,tag=ourTerminusPC] remove ourTerminusPC