# Détection des terminus
scoreboard players set #tch idTerminus 2101
function tch:tag/terminus_pc
scoreboard players set #tch idTerminus 2102
function tch:tag/terminus_pc
scoreboard players set #tch idTerminus 2153
function tch:tag/terminus_pc
scoreboard players set #tch idTerminus 2154
function tch:tag/terminus_pc

# Choisir une direction pour l'accès aux quais :
# D'abord les Directions uniques (→Procyon)
tellraw @s [{"text":"Direction simple : ","color":"gray"},{"entity":"@e[type=item_frame,tag=ourTerminusPC,scores={idTerminus=2101},limit=1]","nbt":"Item.tag.display.station.prefixe","extra":[{"entity":"@e[type=item_frame,tag=ourTerminusPC,scores={idTerminus=2101},limit=1]","nbt":"Item.tag.display.station.nom"}],"color":"gold","clickEvent":{"action":"run_command","value":"/function tch:give/acces_quais/rera/2101"},"hoverEvent":{"action":"show_text","value":[{"text":"Direction "},{"entity":"@e[type=item_frame,tag=ourTerminusPC,scores={idTerminus=2101},limit=1]","nbt":"Item.tag.display.station.prefixe"},{"entity":"@e[type=item_frame,tag=ourTerminusPC,scores={idTerminus=2101},limit=1]","nbt":"Item.tag.display.station.nom"},{"text":"."}]}},{"text":" • "},{"entity":"@e[type=item_frame,tag=ourTerminusPC,scores={idTerminus=2102},limit=1]","nbt":"Item.tag.display.station.prefixe","extra":[{"entity":"@e[type=item_frame,tag=ourTerminusPC,scores={idTerminus=2102},limit=1]","nbt":"Item.tag.display.station.nom"}],"color":"yellow","clickEvent":{"action":"run_command","value":"/function tch:give/acces_quais/rera/2102"},"hoverEvent":{"action":"show_text","value":[{"text":"Direction "},{"entity":"@e[type=item_frame,tag=ourTerminusPC,scores={idTerminus=2102},limit=1]","nbt":"Item.tag.display.station.prefixe"},{"entity":"@e[type=item_frame,tag=ourTerminusPC,scores={idTerminus=2102},limit=1]","nbt":"Item.tag.display.station.nom"},{"text":"."}]}},{"text":" • "},{"entity":"@e[type=item_frame,tag=ourTerminusPC,scores={idTerminus=2153},limit=1]","nbt":"Item.tag.display.station.prefixe","extra":[{"entity":"@e[type=item_frame,tag=ourTerminusPC,scores={idTerminus=2153},limit=1]","nbt":"Item.tag.display.station.nom"}],"color":"gold","clickEvent":{"action":"run_command","value":"/function tch:give/acces_quais/rera/2153"},"hoverEvent":{"action":"show_text","value":[{"text":"Direction "},{"entity":"@e[type=item_frame,tag=ourTerminusPC,scores={idTerminus=2153},limit=1]","nbt":"Item.tag.display.station.prefixe"},{"entity":"@e[type=item_frame,tag=ourTerminusPC,scores={idTerminus=2153},limit=1]","nbt":"Item.tag.display.station.nom"},{"text":"."}]}},{"text":" • "},{"entity":"@e[type=item_frame,tag=ourTerminusPC,scores={idTerminus=2154},limit=1]","nbt":"Item.tag.display.station.prefixe","extra":[{"entity":"@e[type=item_frame,tag=ourTerminusPC,scores={idTerminus=2154},limit=1]","nbt":"Item.tag.display.station.nom"}],"color":"yellow","clickEvent":{"action":"run_command","value":"/function tch:give/acces_quais/rera/2154"},"hoverEvent":{"action":"show_text","value":[{"text":"Direction "},{"entity":"@e[type=item_frame,tag=ourTerminusPC,scores={idTerminus=2154},limit=1]","nbt":"Item.tag.display.station.prefixe"},{"entity":"@e[type=item_frame,tag=ourTerminusPC,scores={idTerminus=2154},limit=1]","nbt":"Item.tag.display.station.nom"},{"text":"."}]}}]

# Puis les Directions globales (→Cyséal+Procyon)
tellraw @s [{"text":"Direction globale : ","color":"gray"},{"entity":"@e[type=item_frame,tag=ourTerminusPC,scores={idTerminus=2101},limit=1]","nbt":"Item.tag.display.station.prefixe","extra":[{"entity":"@e[type=item_frame,tag=ourTerminusPC,scores={idTerminus=2101},limit=1]","nbt":"Item.tag.display.station.nom"},{"text":" & "},{"entity":"@e[type=item_frame,tag=ourTerminusPC,scores={idTerminus=2102},limit=1]","nbt":"Item.tag.display.station.prefixe"},{"entity":"@e[type=item_frame,tag=ourTerminusPC,scores={idTerminus=2102},limit=1]","nbt":"Item.tag.display.station.nom"}],"color":"yellow","clickEvent":{"action":"run_command","value":"/function tch:give/acces_quais/rera/2100"},"hoverEvent":{"action":"show_text","value":[{"text":"Direction "},{"entity":"@e[type=item_frame,tag=ourTerminusPC,scores={idTerminus=2101},limit=1]","nbt":"Item.tag.display.station.prefixe"},{"entity":"@e[type=item_frame,tag=ourTerminusPC,scores={idTerminus=2101},limit=1]","nbt":"Item.tag.display.station.nom"},{"text":" et "},{"entity":"@e[type=item_frame,tag=ourTerminusPC,scores={idTerminus=2102},limit=1]","nbt":"Item.tag.display.station.prefixe"},{"entity":"@e[type=item_frame,tag=ourTerminusPC,scores={idTerminus=2102},limit=1]","nbt":"Item.tag.display.station.nom"},{"text":"."}]}},{"text":" • "},{"entity":"@e[type=item_frame,tag=ourTerminusPC,scores={idTerminus=2153},limit=1]","nbt":"Item.tag.display.station.prefixe","extra":[{"entity":"@e[type=item_frame,tag=ourTerminusPC,scores={idTerminus=2153},limit=1]","nbt":"Item.tag.display.station.nom"},{"text":" & "},{"entity":"@e[type=item_frame,tag=ourTerminusPC,scores={idTerminus=2154},limit=1]","nbt":"Item.tag.display.station.prefixe"},{"entity":"@e[type=item_frame,tag=ourTerminusPC,scores={idTerminus=2154},limit=1]","nbt":"Item.tag.display.station.nom"}],"color":"gold","clickEvent":{"action":"run_command","value":"/function tch:give/acces_quais/rera/2100"},"hoverEvent":{"action":"show_text","value":[{"text":"Direction "},{"entity":"@e[type=item_frame,tag=ourTerminusPC,scores={idTerminus=2153},limit=1]","nbt":"Item.tag.display.station.prefixe"},{"entity":"@e[type=item_frame,tag=ourTerminusPC,scores={idTerminus=2153},limit=1]","nbt":"Item.tag.display.station.nom"},{"text":" et "},{"entity":"@e[type=item_frame,tag=ourTerminusPC,scores={idTerminus=2154},limit=1]","nbt":"Item.tag.display.station.prefixe"},{"entity":"@e[type=item_frame,tag=ourTerminusPC,scores={idTerminus=2154},limit=1]","nbt":"Item.tag.display.station.nom"},{"text":"."}]}}]

# Enfin les Toutes directions pour chacune des branches
tellraw @s [{"text":"Toutes directions : ","color":"gray"},{"text":"Tronçon central","color":"gold","clickEvent":{"action":"run_command","value":"/function tch:give/acces_quais/rera/dir"},"hoverEvent":{"action":"show_text","value":[{"text":"Toutes les directions de toutes les branches. Destiné au tronçon central de la ligne."}]}},{"text":" • "},{"entity":"@e[type=item_frame,tag=ourTerminusPC,scores={idTerminus=2101},limit=1]","nbt":"Item.tag.display.station.prefixe","extra":[{"entity":"@e[type=item_frame,tag=ourTerminusPC,scores={idTerminus=2101},limit=1]","nbt":"Item.tag.display.station.nom"}],"color":"yellow","clickEvent":{"action":"run_command","value":"/function tch:give/acces_quais/rera/dir_2101"},"hoverEvent":{"action":"show_text","value":[{"text":"Toutes les directions de la branche "},{"entity":"@e[type=item_frame,tag=ourTerminusPC,scores={idTerminus=2101},limit=1]","nbt":"Item.tag.display.station.deDu"},{"entity":"@e[type=item_frame,tag=ourTerminusPC,scores={idTerminus=2101},limit=1]","nbt":"Item.tag.display.station.nom"},{"text":"."}]}},{"text":" • "},{"entity":"@e[type=item_frame,tag=ourTerminusPC,scores={idTerminus=2102},limit=1]","nbt":"Item.tag.display.station.prefixe","extra":[{"entity":"@e[type=item_frame,tag=ourTerminusPC,scores={idTerminus=2102},limit=1]","nbt":"Item.tag.display.station.nom"}],"color":"gold","clickEvent":{"action":"run_command","value":"/function tch:give/acces_quais/rera/dir_2102"},"hoverEvent":{"action":"show_text","value":[{"text":"Toutes les directions de la branche "},{"entity":"@e[type=item_frame,tag=ourTerminusPC,scores={idTerminus=2102},limit=1]","nbt":"Item.tag.display.station.deDu"},{"entity":"@e[type=item_frame,tag=ourTerminusPC,scores={idTerminus=2102},limit=1]","nbt":"Item.tag.display.station.nom"},{"text":"."}]}},{"text":" • "},{"entity":"@e[type=item_frame,tag=ourTerminusPC,scores={idTerminus=2153},limit=1]","nbt":"Item.tag.display.station.prefixe","extra":[{"entity":"@e[type=item_frame,tag=ourTerminusPC,scores={idTerminus=2153},limit=1]","nbt":"Item.tag.display.station.nom"}],"color":"yellow","clickEvent":{"action":"run_command","value":"/function tch:give/acces_quais/rera/dir_2153"},"hoverEvent":{"action":"show_text","value":[{"text":"Toutes les directions de la branche "},{"entity":"@e[type=item_frame,tag=ourTerminusPC,scores={idTerminus=2153},limit=1]","nbt":"Item.tag.display.station.deDu"},{"entity":"@e[type=item_frame,tag=ourTerminusPC,scores={idTerminus=2153},limit=1]","nbt":"Item.tag.display.station.nom"},{"text":"."}]}},{"text":" • "},{"entity":"@e[type=item_frame,tag=ourTerminusPC,scores={idTerminus=2154},limit=1]","nbt":"Item.tag.display.station.prefixe","extra":[{"entity":"@e[type=item_frame,tag=ourTerminusPC,scores={idTerminus=2154},limit=1]","nbt":"Item.tag.display.station.nom"}],"color":"gold","clickEvent":{"action":"run_command","value":"/function tch:give/acces_quais/rera/dir_2154"},"hoverEvent":{"action":"show_text","value":[{"text":"Toutes les directions de la branche "},{"entity":"@e[type=item_frame,tag=ourTerminusPC,scores={idTerminus=2154},limit=1]","nbt":"Item.tag.display.station.deDu"},{"entity":"@e[type=item_frame,tag=ourTerminusPC,scores={idTerminus=2154},limit=1]","nbt":"Item.tag.display.station.nom"},{"text":"."}]}},{"text":" • "}]

# Suppression des tags !
tag @e[type=item_frame,tag=ourTerminusPC] remove ourTerminusPC