# On enregistre le fait qu'on a répondu
tag @s add MetierDonne

# Enregistrement des données :
# /data merge entity XXX {Item:{tag:{taverne:{nom:"Nom de la taverne",deDu:"du ",alAu:"au ",prefixe:"du "}}}}

# On génère une réponse aléatoire du PNJ
scoreboard players set #random min 0
scoreboard players set #random max 100
function tdh:random

execute if score #random temp matches 0..49 run data modify storage tdh:dialogue reponse set value {basique:'"Eh bien, je suis tavernier, et tel que vous me voyez, je suis dans ma taverne ! Une petite soif ?"',cliquable:'[{"text":"Eh bien, je suis tavernier, et tel que vous me voyez, je suis dans ma taverne ! Une "},{"text":"petite soif","color":"gold","clickEvent":{"action":"run_command","value":"/trigger topic set 381"},"hoverEvent":{"action":"show_text","value":{"text":"Demander de la boisson"}}},{"text":" ?"}]'}
execute if score #random temp matches 50..99 run data modify storage tdh:dialogue reponse set value {basique:'"Je pensais pas ça possible de pas remarquer que je suis tavernier ! Il faut de tout pour faire un monde... Vous consommez ?"',cliquable:'[{"text":"Je pensais pas ça possible de pas remarquer que je suis tavernier ! Il faut de tout pour faire un monde... Vous "},{"text":"consommez","color":"gold","clickEvent":{"action":"run_command","value":"/trigger topic set 381"},"hoverEvent":{"action":"show_text","value":{"text":"Demander de la boisson"}}},{"text":" ?"}]'}
execute if score #random temp matches 50..99 run data modify storage tdh:dialogue reponse set value {basique:'[{"text":"Eh bien, je travaille à la taverne "},{"entity":"@e[type=item_frame,tag=Taverne,sort=nearest,distance=..60,limit=1]","nbt":"Item.tag.taverne.prefixe"},{"entity":"@e[type=item_frame,tag=Taverne,sort=nearest,distance=..60,limit=1]","nbt":"Item.tag.taverne.nom"},{"text":"... Autrement dit, ici même ! Il vous faut quelque chose à boire ?"}]',cliquable:'[{"text":"Eh bien, je travaille à la taverne "},{"entity":"@e[type=item_frame,tag=Taverne,sort=nearest,distance=..60,limit=1]","nbt":"Item.tag.taverne.prefixe"},{"entity":"@e[type=item_frame,tag=Taverne,sort=nearest,distance=..60,limit=1]","nbt":"Item.tag.taverne.nom"},{"text":"... Autrement dit, ici même ! Il vous faut quelque chose à "},{"text":"boire","color":"gold","clickEvent":{"action":"run_command","value":"/trigger topic set 381"},"hoverEvent":{"action":"show_text","value":{"text":"Demander de la boisson"}}},{"text":" ?"}]'}