# On génère une réponse aléatoire du PNJ
scoreboard players set #random min 0
scoreboard players set #random max 100
function tdh:random

execute if score #random temp matches 0..49 run data modify storage tdh:dialogue reponse set value {basique:'"Ouvrez bien vos oreilles, parce que c\'est une info rare : il y a un vieil ermite qui vit dans une caverne, entre Moronia et Litoréa. Ça n\'est pas facile à trouver, mais le type est un véritable ponte de la contrefaçon. Il imprime des lieues de tickets, plus vrais que les vrais, personne n\'y voit que du feu ! Mais n\'ébruitez pas trop ça... le jour où il se fait prendre, c\'est ma bourse qui va pleurer !"',cliquable:'[{"text":"Ouvrez bien vos oreilles, parce que c\'est une info rare : il y a un vieil ermite qui vit dans une caverne, entre "},{"text":"Moronia","color":"gold","clickEvent":{"action":"run_command","value":"/trigger topic set 472"},"hoverEvent":{"action":"show_text","value":[{"text":"Parler de Moronia."}]}},{"text":" et "},{"text":"Litoréa","color":"gold","clickEvent":{"action":"run_command","value":"/trigger topic set 471"},"hoverEvent":{"action":"show_text","value":[{"text":"Parler de Litoréa."}]}},{"text":". Ça n\'est pas facile à trouver, mais le type est un véritable ponte de la contrefaçon. Il imprime des lieues de tickets, plus vrais que les vrais, personne n\'y voit que du feu ! Mais n\'ébruitez pas trop ça... le jour où il se fait prendre, c\'est ma bourse qui va pleurer !"}]'}
execute if score #random temp matches 0..49 run advancement grant @a[distance=..12,gamemode=!spectator] only tdh:dialogue/lieux/litorea
execute if score #random temp matches 0..49 run advancement grant @a[distance=..12,gamemode=!spectator] only tdh:dialogue/lieux/moronia

execute if score #random temp matches 50..99 run data modify storage tdh:dialogue reponse set value {basique:'"Je ne sais pas si vous avez déjà été dans les colonies du Grenat Méridional ? La situation politique y est assez instable... c\'est l\'engrais parfait pour faire pousser des tas de trafiquants de tout et n\'importe quoi, et il se trouve qu\'à Oréa-sur-Mer, quelques marchands sans scrupules n\'hésitent pas à détourner des cargaisons entières de tickets pour en tirer bénéfice. J\'ai ouï dire qu\'à l\'ouest de la ville se trouve une petite crique dans laquelle ils échouent les bateaux. Partez traîner là-bas pendant une nuit d\'orage, et vous aurez peut-être de la chance..."',cliquable:'[{"text":"Je ne sais pas si vous avez déjà été dans les colonies du "},{"text":"Grenat Méridional","color":"gold","clickEvent":{"action":"run_command","value":"/trigger topic set 560"},"hoverEvent":{"action":"show_text","value":[{"text":"Parler du Grenat Méridional."}]}},{"text":" ? La situation politique y est assez instable... c\'est l\'engrais parfait pour faire pousser des tas de trafiquants de tout et n\'importe quoi, et il se trouve qu\'à "},{"text":"Oréa-sur-Mer","color":"gold","clickEvent":{"action":"run_command","value":"/trigger topic set 561"},"hoverEvent":{"action":"show_text","value":[{"text":"Parler d\'Oréa-sur-Mer."}]}},{"text":", quelques marchands sans scrupules n\'hésitent pas à détourner des cargaisons entières de "},{"text":"tickets","color":"gold","clickEvent":{"action":"run_command","value":"/trigger topic set 1100"},"hoverEvent":{"action":"show_text","value":[{"text":"Parler des tickets TCH."}]}},{"text":" pour en tirer bénéfice. J\'ai ouï dire qu\'à l\'ouest de la ville se trouve une petite crique dans laquelle ils échouent les bateaux. Partez traîner là-bas pendant une "},{"text":"nuit d\'orage","color":"gold","clickEvent":{"action":"run_command","value":"/trigger topic set 10"},"hoverEvent":{"action":"show_text","value":[{"text":"Parler de la météo."}]}},{"text":", et vous aurez peut-être de la chance..."}]'}
execute if score #random temp matches 50..99 run advancement grant @a[distance=..12,gamemode=!spectator] only tdh:dialogue/lieux/grenat_meridional
execute if score #random temp matches 50..99 run advancement grant @a[distance=..12,gamemode=!spectator] only tdh:dialogue/lieux/orea
execute if score #random temp matches 50..99 run advancement grant @a[distance=..12,gamemode=!spectator] only tdh:dialogue/tch ticket