# On génère une réponse aléatoire du PNJ
scoreboard players set #random min 0
scoreboard players set #random max 100
function tdh:random

execute if score #random temp matches 0..49 run data modify storage tdh:dialogue reponse set value {basique:'"J\'en connais, mais ils changent assez souvent d\'emplacement. Vu la guerre que mène TCH à leur encontre, ça n\'a rien de surprenant. Cherchez avant tout dans les coins touristiques : le récif de Grenat, l\'île du Singe..."',cliquable:'[{"text":"J\'en connais, mais ils changent assez souvent d\'emplacement. Vu la guerre que mène "},{"text":"TCH","color":"gold","clickEvent":{"action":"run_command","value":"/trigger topic set 1000"},"hoverEvent":{"action":"show_text","value":[{"text":"Parler de TCH."}]}},{"text":" à leur encontre, ça n\'a rien de surprenant. Cherchez avant tout dans les coins touristiques : le "},{"text":"récif de Grenat","color":"gold","clickEvent":{"action":"run_command","value":"/trigger topic set 411"},"hoverEvent":{"action":"show_text","value":[{"text":"Parler du récif de Grenat."}]}},{"text":", l\'"},{"text":"île du Singe","color":"gold","clickEvent":{"action":"run_command","value":"/trigger topic set 544"},"hoverEvent":{"action":"show_text","value":[{"text":"Parler de l\'île du Singe."}]}},{"text":"..."}]'}
execute if score #random temp matches 0..49 run advancement grant @a[distance=..12,gamemode=!spectator] only tdh:dialogue/tch tch
execute if score #random temp matches 0..49 run advancement grant @a[distance=..12,gamemode=!spectator] only tdh:dialogue/lieux/grenatrecif
execute if score #random temp matches 0..49 run advancement grant @a[distance=..12,gamemode=!spectator] only tdh:dialogue/lieux/ile_du_singe

execute if score #random temp matches 50..99 run data modify storage tdh:dialogue reponse set value {basique:'"Je vous conseille simplement d\'éviter ceux qui traînent trop près des valideurs. Généralement, ils ne font que ramasser les tickets usagés jetés au sol avant de vous les revendre. Les plus fiables sont ceux qui sont le plus loin des stations ; il y a même des boutiques ayant pignon sur rue qui en vendent sous le manteau !"',cliquable:'[{"text":"Je vous conseille simplement d\'éviter ceux qui traînent trop près des valideurs. Généralement, ils ne font que ramasser les "},{"text":"tickets","color":"gold","clickEvent":{"action":"run_command","value":"/trigger topic set 1100"},"hoverEvent":{"action":"show_text","value":[{"text":"Parler des tickets TCH."}]}},{"text":" usagés jetés au sol avant de vous les revendre. Les plus fiables sont ceux qui sont le plus loin des stations ; il y a même des boutiques ayant pignon sur rue qui en vendent sous le manteau !"}]'}
execute if score #random temp matches 0..49 run advancement grant @a[distance=..12,gamemode=!spectator] only tdh:dialogue/tch ticket