# On génère une réponse aléatoire du PNJ
scoreboard players set #random min 0
scoreboard players set #random max 100
function tdh:random

execute if score #random temp matches 0..49 run data modify storage tdh:dialogue reponse set value {basique:'"Je ne garantis pas que tous ses tickets seront valables sans exception, mais à chaque fois que j\'ai été au récif de Grenat, un vendeur nommé Kronkil en vendait à des prix défiant toute concurrence. Et personnellement, j\'en ai toujours eu pour mon argent !"',cliquable:'[{"text":"Je ne garantis pas que tous ses "},{"text":"tickets","color":"gold","clickEvent":{"action":"run_command","value":"/trigger topic set 1100"},"hoverEvent":{"action":"show_text","value":[{"text":"Parler des tickets TCH."}]}},{"text":" seront valables sans exception, mais à chaque fois que j\'ai été au "},{"text":"récif de Grenat","color":"gold","clickEvent":{"action":"run_command","value":"/trigger topic set 411"},"hoverEvent":{"action":"show_text","value":[{"text":"Parler du récif de Grenat."}]}},{"text":", un vendeur nommé Kronkil en vendait à des prix défiant toute concurrence. Et personnellement, j\'en ai toujours eu pour mon argent !"}]'}
execute if score #random temp matches 0..49 run advancement grant @a[distance=..12,gamemode=!spectator] only tdh:dialogue/lieux/grenatrecif

execute if score #random temp matches 50..99 run data modify storage tdh:dialogue reponse set value {basique:'"Il y a bien le dénommé Vatos, qui traîne souvent près de la station de métro de Hadès. Il a toujours de bonnes affaires à proposer ! Ce n\'est pas un gus très recommandable, mais avec les tickets il est honnête."',cliquable:'[{"text":"Il y a bien le dénommé Vatos, qui traîne souvent près de la station de métro de "},{"text":"Hadès","color":"gold","clickEvent":{"action":"run_command","value":"/trigger topic set 460"},"hoverEvent":{"action":"show_text","value":[{"text":"Parler de Hadès."}]}},{"text":". Il a toujours de bonnes affaires à proposer ! Ce n\'est pas un gus très recommandable, mais avec les "},{"text":"tickets","color":"gold","clickEvent":{"action":"run_command","value":"/trigger topic set 1100"},"hoverEvent":{"action":"show_text","value":[{"text":"Parler des tickets TCH."}]}},{"text":" il est honnête."}]'}
execute if score #random temp matches 0..99 run advancement grant @a[distance=..12,gamemode=!spectator] only tdh:dialogue/tch ticket
execute if score #random temp matches 50..99 run advancement grant @a[distance=..12,gamemode=!spectator] only tdh:dialogue/lieux/hades