{
	"condition": "minecraft:alternative",
	"terms": [
		{
			"condition": "minecraft:location_check",
			"predicate": {
				"biome": "minecraft:windswept_hills",
				"position": {
					"y": {
						"max": 120
					}
				}
			}
		},
		{
			"condition": "minecraft:location_check",
			"predicate": {
				"biome": "minecraft:windswept_gravelly_hills",
				"position": {
					"y": {
						"max": 120
					}
				}
			}
		},
		{
			"condition": "minecraft:location_check",
			"predicate": {
				"biome": "minecraft:windswept_forest",
				"position": {
					"y": {
						"max": 120
					}
				}
			}
		},
		{
			"condition": "minecraft:location_check",
			"predicate": {
				"biome": "minecraft:stony_shore",
				"position": {
					"y": {
						"max": 120
					}
				}
			}
		},
		{
			"condition": "minecraft:location_check",
			"predicate": {
				"biome": "minecraft:taiga",
				"position": {
					"y": {
						"max": 160
					}
				}
			}
		},
		{
			"condition": "minecraft:location_check",
			"predicate": {
				"biome": "minecraft:old_growth_spruce_taiga",
				"position": {
					"y": {
						"max": 160
					}
				}
			}
		},
		{
			"condition": "minecraft:location_check",
			"predicate": {
				"biome": "minecraft:old_growth_pine_taiga",
				"position": {
					"y": {
						"max": 200
					}
				}
			}
		}
	]
}