{
	"condition": "minecraft:alternative",
	"terms": [
		{
			"condition": "minecraft:reference",
			"name": "tdh:biome/neige_0"
		},
		{
			"condition": "minecraft:reference",
			"name": "tdh:biome/neige_120"
		},
		{
			"condition": "minecraft:reference",
			"name": "tdh:biome/neige_160"
		},
		{
			"condition": "minecraft:reference",
			"name": "tdh:biome/neige_200"
		}
	]
}