{
	"condition": "minecraft:alternative",
	"terms": [
		{
			"condition": "minecraft:location_check",
			"predicate": {
				"biome": "minecraft:windswept_forest",
				"position": {
					"y": {
						"min": 208
					}
				}
			}
		},
		{
			"condition": "minecraft:location_check",
			"predicate": {
				"biome": "minecraft:windswept_hills",
				"position": {
					"y": {
						"min": 208
					}
				}
			}
		}
	]
}