# On choisit une phrase pour la question
scoreboard players set #random min 0
scoreboard players set #random max 100
function tdh:random

execute if score #random temp matches 0..49 run data modify storage tdh:dialogue question set value '"Comment je peux faire pour m\'abonner ?"'
execute if score #random temp matches 50..99 run data modify storage tdh:dialogue question set value '"Ça se passe comment, l\'abonnement ?"'

# On génère une réponse aléatoire du PNJ
function tdh:random

execute if score #random temp matches 0..49 run data modify storage tdh:dialogue reponse set value {basique:'"Si vous voyagez beaucoup, la carte Gold vous reviendra bien moins cher que les tickets.\\nElle se recharge aux bornes de vente : une semaine d\'abonnement coûte 3 lingots de fer, un mois d\'abonnement coûte 3 lingots d\'or, et quatre mois d\'abonnement coûtent 3 diamants.\\nOh, et il y a aussi le prix de la carte Gold elle-même, qui s\'élève à 2 lingots de fer. Si vous la perdez, vous paierez la nouvelle au même prix !"',cliquable:'[{"text":"Si vous voyagez beaucoup, la "},{"text":"carte Gold","color":"gold","clickEvent":{"action":"run_command","value":"/trigger topic set 1510"},"hoverEvent":{"action":"show_text","value":[{"text":"Demander à prendre une carte Gold."}]}},{"text":" vous reviendra bien moins cher que les "},{"text":"tickets","color":"gold","clickEvent":{"action":"run_command","value":"/trigger topic set 1100"},"hoverEvent":{"action":"show_text","value":[{"text":"Acheter des tickets."}]}},{"text":".\\nElle se "},{"text":"recharge","color":"gold","clickEvent":{"action":"run_command","value":"/trigger topic set 1520"},"hoverEvent":{"action":"show_text","value":[{"text":"Demander comment recharger une carte Gold."}]}},{"text":" aux bornes de vente : une semaine d\'abonnement coûte "},{"text":"3 lingots de fer","bold":"true"},{"text":", un mois d\'abonnement coûte "},{"text":"3 lingots d\'or","bold":"true"},{"text":", et quatre mois d\'abonnement coûtent "},{"text":"3 diamants","bold":"true"},{"text":".\\nOh, et il y a aussi le prix de la "},{"text":"carte Gold","color":"gold","clickEvent":{"action":"run_command","value":"/trigger topic set 1510"},"hoverEvent":{"action":"show_text","value":[{"text":"Demander à prendre une carte Gold."}]}},{"text":" elle-même, qui s\'élève à "},{"text":"2 lingots de fer","bold":"true"},{"text":". Si vous la perdez, vous paierez la nouvelle au même prix!"}]'}
execute if score #random temp matches 50..99 run data modify storage tdh:dialogue reponse set value {basique:'"C\'est très facile ! La carte Gold coûte 2 lingots de fer, et vous pouvez ensuite la recharger aux bornes de vente pour bénéficier d\'un accès illimité à notre réseau.\\nUne semaine d\'abonnement coûte 3 lingots de fer, un mois d\'abonnement 3 lingots d\'or, et 4 mois d\'abonnement coûtent 3 diamants."',cliquable:'[{"text":"C\'est très facile ! La "},{"text":"carte Gold","color":"gold","clickEvent":{"action":"run_command","value":"/trigger topic set 1510"},"hoverEvent":{"action":"show_text","value":[{"text":"Demander à prendre une carte Gold."}]}},{"text":" coûte "},{"text":"2 lingots de fer","bold":"true"},{"text":", et vous pouvez ensuite la "},{"text":"recharger","color":"gold","clickEvent":{"action":"run_command","value":"/trigger topic set 1520"},"hoverEvent":{"action":"show_text","value":[{"text":"Demander comment recharger une carte Gold."}]}},{"text":" aux bornes de vente pour bénéficier d\'un accès illimité à notre réseau.\\nUne semaine d\'abonnement coûte "},{"text":"3 lingots de fer","bold":"true"},{"text":", un mois d\'abonnement "},{"text":"3 lingots d\'or","bold":"true"},{"text":", et 4 mois d\'abonnement coûtent "},{"text":"3 diamants","bold":"true"},{"text":"."}]'}

# On débloque les sujets correspondants chez le joueur
advancement grant @a[gamemode=!spectator,distance=..12] only tdh:dialogue/tch/abonnement carte_gold
advancement grant @a[gamemode=!spectator,distance=..12] only tdh:dialogue/tch/abonnement recharger