# Selon notre type de panneau choisi, on définit un score temporaire qui nous servira à calculer le CustomModelData
tellraw @s [{"text":"\u1a38","color":"gray"},{"text":"\u1a39","color":"#e2231a"},{"text":" & "},{"text":"\u1a20"},{"text":"\u1a25","color":"#ff7e2e"}]
# La valeur de départ est l'idLine correspondant à cette direction
scoreboard players set @s idPanneau 21500

# On affiche ensuite l'écran de sélection de la direction
function tch:give/corresp/_choix_fleche_multiple