execute positioned 735.5 72.5 1110.5 unless entity @e[type=armor_stand,tag=VillonneGrueEst] run summon armor_stand ~ ~ ~ {Invisible:1b,NoGravity:1b}
execute positioned 735.5 72.5 1110.5 unless entity @e[type=armor_stand,tag=VillonneGrueEst] run tag @e[type=armor_stand,distance=..0] add VillonneGrueEst

function tdh:ambient/villonne/grue_est/anim_loop