function tdh:ambient/villonne/grue_est/cargaison_del
execute positioned ~-2.75 ~-7.25 ~-1.75 at @e[dx=4.5,dy=3.5,dz=2.5,tag=!VillonneGrueEst] run tp @e[sort=nearest,limit=1] ~1 ~ ~
tp @s ~1 ~ ~
execute at @s run function tdh:ambient/villonne/grue_est/cargaison_spawn