fill ~0 ~0 ~0 ~1 ~-3 ~0 air
fill ~-1 ~-4 ~-1 ~-1 ~-4 ~1 air
fill ~2 ~-4 ~-1 ~2 ~-4 ~1 air
fill ~-1 ~-5 ~-2 ~-1 ~-6 ~-2 air
fill ~2 ~-5 ~-2 ~2 ~-6 ~-2 air
fill ~-1 ~-5 ~2 ~-1 ~-6 ~2 air
fill ~2 ~-5 ~2 ~2 ~-6 ~2 air
fill ~-2 ~-4 ~-2 ~3 ~-7 ~2 air