# On définit les mois par défaut
data modify storage tdh:datetime index.mois set value [{deDu:"de ",min:"janvier",maj:"Janvier",minS:"jan.",majS:"Jan.",jours:31,joursBis:31},{deDu:"de ",min:"février",maj:"Février",minS:"fév.",majS:"Fév.",jours:28,joursBis:29},{deDu:"de ",min:"mars",maj:"Mars",minS:"mar.",majS:"Mar.",jours:31,joursBis:31},{deDu:"d'",min:"avril",maj:"Avril",minS:"avr.",majS:"Avr.",jours:30,joursBis:30},{deDu:"de ",min:"mai",maj:"Mai",minS:"mai",majS:"Mai",jours:31,joursBis:31},{deDu:"de ",min:"juin",maj:"Juin",minS:"juin",majS:"Juin",jours:30,joursBis:30},{deDu:"de ",min:"juillet",maj:"Juillet",minS:"jul.",majS:"Jul.",jours:31,joursBis:31},{deDu:"d'",min:"août",maj:"Août",minS:"aoû.",majS:"Aoû.",jours:31,joursBis:31},{deDu:"de ",min:"septembre",maj:"Septembre",minS:"sep.",majS:"Sep.",jours:30,joursBis:30},{deDu:"d'",min:"octobre",maj:"Octobre",minS:"oct.",majS:"Oct.",jours:31,joursBis:31},{deDu:"de ",min:"novembre",maj:"Novembre",minS:"nov.",majS:"Nov.",jours:30,joursBis:30},{deDu:"de ",min:"décembre",maj:"Décembre",minS:"déc.",majS:"Déc.",jours:31,joursBis:31}]

# On calcule le nombre de mois
function tdh:time/init/subdivisions/calcul_mois