{
	"condition": "minecraft:alternative",
	"terms": [
		{
			"condition": "minecraft:location_check",
			"predicate": {
				"biome": "minecraft:meadow",
				"position": {
					"y": {
						"min": 224
					}
				}
			}
		},
		{
			"condition": "minecraft:location_check",
			"predicate": {
				"biome": "minecraft:old_growth_pine_taiga",
				"position": {
					"y": {
						"min": 224
					}
				}
			}
		},
		{
			"condition": "minecraft:location_check",
			"predicate": {
				"biome": "minecraft:stony_shore",
				"position": {
					"y": {
						"min": 224
					}
				}
			}
		}
	]
}