{
	"condition": "minecraft:alternative",
	"terms": [
		{
			"condition": "minecraft:location_check",
			"predicate": {
				"biome": "minecraft:forest",
				"position": {
					"y": {
						"min": 96
					}
				}
			}
		},
		{
			"condition": "minecraft:location_check",
			"predicate": {
				"biome": "minecraft:flower_forest",
				"position": {
					"y": {
						"min": 96
					}
				}
			}
		},
		{
			"condition": "minecraft:location_check",
			"predicate": {
				"biome": "minecraft:stony_shore",
				"position": {
					"y": {
						"min": 96
					}
				}
			}
		}
	]
}