{
	"condition": "minecraft:alternative",
	"terms": [
		{
			"condition": "minecraft:location_check",
			"predicate": {
				"biome": "minecraft:ocean",
				"position": {
					"y": {
						"min": 136
					}
				}
			}
		},
		{
			"condition": "minecraft:location_check",
			"predicate": {
				"biome": "minecraft:wooded_badlands",
				"position": {
					"y": {
						"min": 136
					}
				}
			}
		}
	]
}