{
	"values": [
		"#tdh:flora",
		"#tdh:tree",
		"#tdh:air",
		"minecraft:sand",
		"minecraft:red_sand",
		"minecraft:gravel",
		"minecraft:stone",
		"minecraft:diorite",
		"minecraft:granite",
		"minecraft:andesite",
		"#minecraft:walls"
	]
}