# On génère une réponse aléatoire du PNJ
scoreboard players set #random min 0
scoreboard players set #random max 100
function tdh:random

execute if score #random temp matches 0..24 run data modify storage tdh:dialogue reponse set value '[{"text":"Elles ne sont clairement pas toutes au niveau, mais s\'il y en bien a une que je ne rechigne jamais à prendre, c\'est le "},{"storage":"tdh:dialogue","nbt":"extra.ligne.nom","interpret":true},{"text":". C\'est juste impossible pour moi d\'imaginer aller "},{"storage":"tdh:dialogue","nbt":"extra.station1.deDu"},{"storage":"tdh:dialogue","nbt":"extra.station1.nom"},{"text":" "},{"storage":"tdh:dialogue","nbt":"extra.station2.alAu"},{"storage":"tdh:dialogue","nbt":"extra.station2.nom"},{"text":" sans l\'emprunter !"}]'
execute if score #random temp matches 25..49 run data modify storage tdh:dialogue reponse set value '[{"text":"Il y en a de moins agréables que d\'autres, mais le "},{"storage":"tdh:dialogue","nbt":"extra.ligne.nom","interpret":true},{"text":", lui, il ne m\'a jamais déçu. Si vous devez aller "},{"storage":"tdh:dialogue","nbt":"extra.station1.deDu"},{"storage":"tdh:dialogue","nbt":"extra.station1.nom"},{"text":" "},{"storage":"tdh:dialogue","nbt":"extra.station2.alAu"},{"storage":"tdh:dialogue","nbt":"extra.station2.nom"},{"text":" ou vice-versa, n\'hésitez même pas : prenez le "},{"storage":"tdh:dialogue","nbt":"extra.ligne.vehicule.prefixe"},{"storage":"tdh:dialogue","nbt":"extra.ligne.vehicule.nom"},{"text":" !"}]'
execute if score #random temp matches 50..74 run data modify storage tdh:dialogue reponse set value '[{"text":"Eh bien, il y a des problèmes sur certaines lignes, mais je n\'en ai jamais eu sur le "},{"storage":"tdh:dialogue","nbt":"extra.ligne.nom","interpret":true},{"text":". J\'allais travailler "},{"storage":"tdh:dialogue","nbt":"extra.station2.alAu"},{"storage":"tdh:dialogue","nbt":"extra.station2.nom"},{"text":" toutes les semaines quand je louais mon studio "},{"storage":"tdh:dialogue","nbt":"extra.station1.alAu"},{"storage":"tdh:dialogue","nbt":"extra.station1.nom"},{"text":", et jamais je n\'ai attendu "},{"storage":"tdh:dialogue","nbt":"extra.ligne.vehicule.prefixe"},{"storage":"tdh:dialogue","nbt":"extra.ligne.vehicule.nom"},{"text":" plus d\'un quart d\'heure !"}]'
execute if score #random temp matches 75..99 run data modify storage tdh:dialogue reponse set value '[{"text":"Il y en a clairement une ou deux qui pêchent, mais pas le "},{"storage":"tdh:dialogue","nbt":"extra.ligne.nom","interpret":true},{"text":". Je le prenais souvent entre "},{"storage":"tdh:dialogue","nbt":"extra.station1.prefixe"},{"storage":"tdh:dialogue","nbt":"extra.station1.nom"},{"text":" et "},{"storage":"tdh:dialogue","nbt":"extra.station2.prefixe"},{"storage":"tdh:dialogue","nbt":"extra.station2.nom"},{"text":"... parfois, je restais dans "},{"storage":"tdh:dialogue","nbt":"extra.ligne.vehicule.prefixe"},{"storage":"tdh:dialogue","nbt":"extra.ligne.vehicule.nom"},{"text":" jusqu\'au terminus pour profiter du trajet plus longtemps !"}]'