# On génère une réponse aléatoire du PNJ
scoreboard players set #random min 0
scoreboard players set #random max 100
function tdh:random

execute if score #random temp matches 0..49 run data modify storage tdh:dialogue reponse set value '[{"text":"Je pourrai dire que ce réseau est vraiment complet lorsqu\'ils ouvriront le "},{"storage":"tdh:dialogue","nbt":"extra.ligne.nom","interpret":true},{"text":" ! Je n\'arrive pas à croire qu\'on ne puisse toujours pas faire rapidement le trajet "},{"storage":"tdh:dialogue","nbt":"extra.station1.deDu"},{"storage":"tdh:dialogue","nbt":"extra.station1.nom"},{"text":" "},{"storage":"tdh:dialogue","nbt":"extra.station2.alAu"},{"storage":"tdh:dialogue","nbt":"extra.station2.nom"},{"text":" !"}]'
execute if score #random temp matches 50..99 run data modify storage tdh:dialogue reponse set value '[{"text":"En général, je ne m\'en plains pas, mais la dernière fois, j\'étais chez ma tante "},{"storage":"tdh:dialogue","nbt":"extra.station1.alAu"},{"storage":"tdh:dialogue","nbt":"extra.station1.nom"},{"text":", et il fallait que je rentre ensuite "},{"storage":"tdh:dialogue","nbt":"extra.station2.alAu"},{"storage":"tdh:dialogue","nbt":"extra.station2.nom"},{"text":"... je ne vous raconte pas l\'angoisse ! S\'ils pouvaient vite ouvrir le "},{"storage":"tdh:dialogue","nbt":"extra.ligne.nom"},{"text":", ça sauverait la vie dans ce genre de situation."}]'