fill 41 63 249 43 63 249 iron_trapdoor[facing=north,half=bottom,open=false]
fill 37 63 250 40 63 250 oak_slab[type=bottom]
setblock 36 63 250 oak_stairs[facing=west,half=bottom]

playsound tdh:br.chuff block @a 42 62 249

scoreboard players set fakeSecu secuHamCanal1 0