scoreboard players set fakeSecu secuHamCanal1 1

tellraw @a [{"text":"Fin de l'alerte secteur ","color":"gray"},{"text":"CANAL1","color":"dark_green"},{"text":" : ","color":"gray"},{"text":"menace éliminée","color":"green"},{"text":".","color":"gray"}]

function tdh:secu/hameau/port/canal1/open1
schedule function tdh:secu/hameau/port/canal1/open2 0.4s

playsound block.piston.extend block @a[distance=..32] ~ ~-1 ~ 1