# On génère une réponse aléatoire du PNJ
scoreboard players set #random min 0
scoreboard players set #random max 100
function tdh:random

execute if score #random temp matches 0..24 run data modify storage tdh:dialogue reponse set value '"Même s\'il y a parfois des problèmes, je suis content que TCH soit là. C\'est sûr que marcher à pied coûte moins cher, mais c\'est aussi nettement plus dangereux..."'
execute if score #random temp matches 25..49 run data modify storage tdh:dialogue reponse set value {basique:'"Il y a du bon et du moins bon, mais dans l\'ensemble TCH propose un service très satisfaisant. Vous avez de la chance de vivre à une époque où leur réseau est bien développé ; quand je pense aux périples que ma mère faisait dans sa jeunesse simplement pour rejoindre mon père à Litoréa..."',cliquable:'[{"text":"Il y a du bon et du moins bon, mais dans l\'ensemble TCH propose un service très satisfaisant. Vous avez de la chance de vivre à une époque où leur réseau est bien développé ; quand je pense aux périples que ma mère faisait dans sa jeunesse simplement pour rejoindre mon père à "},{"text":"Litoréa","color":"gold","clickEvent":{"action":"run_command","value":"/trigger topic set 471"},"hoverEvent":{"action":"show_text","value":{"text":"Parler de Litoréa"}}},{"text":"..."}]'}
execute if score #random temp matches 50..74 run data modify storage tdh:dialogue reponse set value '"Ce n\'est pas la panacée, mais comme on dit souvent, la critique est aisée mais l\'art est difficile. Vu certains des spécimens qui leur servent de clients, c\'est un miracle qu\'il n\'y ait pas plus d\'accidents, quand on y pense..."'
execute if score #random temp matches 75..99 run data modify storage tdh:dialogue reponse set value '"Comme disait mon grand-oncle (qui a travaillé à TCH toute sa vie), il est plus facile de trouver un métro qui roule qu\'un voyageur aimable ! Mais exception faite de tous ceux qu\'on y rencontre, le réseau TCH est agréable, et il me facilite bien la vie. Et puis, du coup, dans la famille, nous avons 75% de réduction sur l\'abonnement. Si vous réussissez à vous y faire engager, vous aussi, vous en bénéficierez !"'
# TODO: Débloquer le sujet "travailler chez TCH" et une quête pour se faire engager (75..99)

# On débloque les topics correspondants
execute if score #random temp matches 25..49 run advancement grant @a[gamemode=!spectator,distance=..12] only tdh:dialogue/lieux litorea