# On génère une réponse aléatoire du PNJ
scoreboard players set #random min 0
scoreboard players set #random max 100
function tdh:random

execute if score #random temp matches 0..24 run data modify storage tdh:dialogue reponse set value '"Ne m\'en parlez pas ! Je les fuis comme la peste. Leurs trains sont toujours en retard. Mais bon, des fois, vous n\'avez pas le choix..."'
execute if score #random temp matches 25..49 run data modify storage tdh:dialogue reponse set value '"Ce sont des narvalos, de fieffés menteurs doublés de conducteurs inefficaces. Faites-moi confiance, si vous devez vous déplacer, allez-y à pied ; vous serez moins en danger que dans leurs métros de la mort !"'
execute if score #random temp matches 50..74 run data modify storage tdh:dialogue reponse set value {basique:'"Ils peuvent bien tous aller se faire foutre ! La dernière fois, ils m\'ont mis une amende simplement parce que je n\'avais pas de ticket. Vous y croyez, vous ?"',cliquable:'[{"text":"Ils peuvent bien tous aller se faire foutre ! La dernière fois, ils m\'ont mis une amende simplement parce que je n\'avais "},{"text":"pas de ticket","color":"gold","clickEvent":{"action":"run_command","value":"/trigger topic set 1150"},"hoverEvent":{"action":"show_text","value":{"text":"Parler de la fraude"}}},{"text":". Vous y croyez, vous ?"}]'}
execute if score #random temp matches 75..99 run data modify storage tdh:dialogue reponse set value {basique:'"S\'ils passaient autant de temps à entretenir leur réseau qu\'à extorquer des amendes à de simples fraudeurs comme moi, je suis sûr que leur service serait bien plus efficace. Avec toutes les subventions qu\'ils reçoivent, ils ont besoin d\'encore plus d\'argent ? C\'est insensé !"',cliquable:'[{"text":"S\'ils passaient autant de temps à entretenir leur réseau qu\'à extorquer des amendes à de simples "},{"text":"fraudeurs","color":"gold","clickEvent":{"action":"run_command","value":"/trigger topic set 1150"},"hoverEvent":{"action":"show_text","value":{"text":"Parler de la fraude"}}},{"text":" comme moi, je suis sûr que leur service serait bien plus efficace. Avec toutes les subventions qu\'ils reçoivent, ils ont besoin d\'encore plus d\'argent ? C\'est insensé !"}]'}

# On débloque les topics correspondants
execute if score #random temp matches 50..99 run advancement grant @a[gamemode=!spectator,distance=..12] only tdh:dialogue/tch/tarifs fraude