{
	"condition": "minecraft:alternative",
	"terms": [
		{
			"condition": "minecraft:location_check",
			"predicate": {
				"biome": "minecraft:birch_forest",
				"position": {
					"y": {
						"min": 240
					}
				}
			}
		},
		{
			"condition": "minecraft:location_check",
			"predicate": {
				"biome": "minecraft:old_growth_birch_forest",
				"position": {
					"y": {
						"min": 240
					}
				}
			}
		},
		{
			"condition": "minecraft:location_check",
			"predicate": {
				"biome": "minecraft:flower_forest",
				"position": {
					"y": {
						"min": 240
					}
				}
			}
		},
		{
			"condition": "minecraft:location_check",
			"predicate": {
				"biome": "minecraft:forest",
				"position": {
					"y": {
						"min": 240
					}
				}
			}
		},
		{
			"condition": "minecraft:location_check",
			"predicate": {
				"biome": "minecraft:deep_ocean",
				"position": {
					"y": {
						"min": 240
					}
				}
			}
		},
		{
			"condition": "minecraft:location_check",
			"predicate": {
				"biome": "minecraft:ocean",
				"position": {
					"y": {
						"min": 240
					}
				}
			}
		},
		{
			"condition": "minecraft:location_check",
			"predicate": {
				"biome": "minecraft:river",
				"position": {
					"y": {
						"min": 240
					}
				}
			}
		},
		{
			"condition": "minecraft:location_check",
			"predicate": {
				"biome": "minecraft:stony_peaks",
				"position": {
					"y": {
						"min": 240
					}
				}
			}
		}
	]
}