{
	"condition": "minecraft:alternative",
	"terms": [
		{
			"condition": "minecraft:location_check",
			"predicate": {
				"biome": "minecraft:deep_cold_ocean",
				"position": {
					"y": {
						"min": 160
					}
				}
			}
		}
	]
}