{
	"condition": "minecraft:alternative",
	"terms": [
		{
			"condition": "minecraft:location_check",
			"predicate": {
				"biome": "minecraft:sunflower_plains",
				"position": {
					"y": {
						"min": 88
					}
				}
			}
		}
	]
}