# On génère une réponse aléatoire du PNJ
scoreboard players set #random min 0
scoreboard players set #random max 100
function tdh:random

execute if score #random temp matches 0..24 run data modify storage tdh:dialogue reponse set value '"Je soutiens inconditionnellement tous les fraudeurs, ça va sans dire ! Vu les sommes astronomiques que TCH soutire aux villes du coin pour rénover les stations... Ça vient de vos impôts, toutes ces infrastructures, vous savez ? Tout comme les salaires mensuels des dirigeants, qui se comptent en millions de Kubs ? Il me paraît légitime que ceux qui n\'ont rien profitent un peu des services que leur labeur contribue directement à entretenir !"'

execute if score #random temp matches 25..49 run data modify storage tdh:dialogue reponse set value '"Je connais des professionnels de cette discipline, que je pratique moi-même en amateur. Vous-même, vous n\'avez rien contre la fraude, j\'espère ? C\'est une simple redistribution de services qui devraient être gratuits, qui sont construits avec notre argent, alors même que la moyenne des agriculteurs du coin n\'ont pas les moyens de se payer une semaine d\'abonnement..."'

execute if score #random temp matches 50..74 run data modify storage tdh:dialogue reponse set value {basique:'"Les fraudeurs ne font rien de mal, ça ne me gêne pas de le dire ! Les trois quarts des pauvres du coin vous diront qu\'il faut les mettre au cachot, mais la plupart ne sont pas de fervents autoritaires ; ils ont juste appris à avoir peur de remettre en question l\'autorité et l\'ordre établi, et à éviter les déviants qui assument ce genre d\'actions.\\nMon grand-père me racontait parfois de vieilles histoires sur la vie avant TCH. C\'était il y a bien des années... C\'est sûr, les déplacements prenaient plus longtemps, mais la coopération et l\'entraide faisaient loi ; si vous aviez besoin d\'aller en ville pour faire une course, le moindre agriculteur vous prenait gratuitement en charrette, le moindre pêcheur vous déposait plus loin sur la côte. Aujourd\'hui, sans argent, vous n\'êtes plus rien qu\'un importun, bon qu\'à dégager et éventuellement à mourir."',cliquable:'{"text":"Les fraudeurs ne font rien de mal, ça ne me gêne pas de le dire ! Les trois quarts des pauvres du coin vous diront qu\'il faut les mettre au cachot, mais la plupart ne sont pas de fervents autoritaires ; ils ont juste appris à avoir peur de remettre en question l\'autorité et l\'ordre établi, et à éviter les déviants qui assument ce genre d\'actions.\\nMon grand-père me racontait parfois de vieilles histoires sur la vie avant "},{"text":"TCH","color":"gold","clickEvent":{"action":"run_command","value":"/trigger topic set 1110"},"hoverEvent":{"action":"show_text","value":{"text":"Parler de TCH"}}},{"text":". C\'était il y a bien des années... C\'est sûr, les déplacements prenaient plus longtemps, mais la coopération et l\'entraide faisaient loi ; si vous aviez besoin d\'aller en ville pour faire une course, le moindre agriculteur vous prenait gratuitement en charrette, le moindre pêcheur vous déposait plus loin sur la côte. Aujourd\'hui, sans argent, vous n\'êtes plus rien qu\'un importun, bon qu\'à dégager et éventuellement à mourir."}'}

execute if score #random temp matches 75..99 run data modify storage tdh:dialogue reponse set value '"Tout ce que TCH mérite, c\'est une bonne grève. Vous avez vu les horaires et les conditions de travail qu\'ils imposent à leurs agents, le délabrement de certaines stations, les tarifs qui ne cessent de gonfler ? Pendant ce temps, les patrons s\'en mettent plein les poches dans l\'indifférence générale. Vous devriez lire l\'enquête du Grenard Enchaîné à ce sujet, c\'est... édifiant. Ça me choque personnellement davantage que de voir des pauvres forcés, pour leur travail, d\'être de plus en plus mobiles, alors qu\'ils n\'ont déjà pas les moyens de manger à leur faim."'

# On active le mode réponse chez le PNJ (on enregistre le fait qu'il a posé une question en rapport avec la fraude)
scoreboard players set @s topic 1150

# On active le mode réponse chez le joueur
# Mais on ne désactive PAS la possibilité de proposer un sujet (car on veut pouvoir cliquer notamment sur Tarifs)
#scoreboard players reset @p[tag=SpeakingToNPC] topic
scoreboard players enable @p[tag=SpeakingToNPC] answer

# On enregistre les choix de réponse
tag @s add Options
data modify storage tdh:dialogue options append value '[{"text":"Vous avez parfaitement raison. L\'attitude de TCH est honteuse !","clickEvent":{"action":"run_command","value":"/trigger answer set 200"},"hoverEvent":{"action":"show_text","value":[{"text":"Exprimer sa sympathie."}]}}]'
data modify storage tdh:dialogue options append value '[{"text":"Je suis d\'accord, mais comment faire ? Comment frauder sans se faire prendre ?","clickEvent":{"action":"run_command","value":"/trigger answer set 300"},"hoverEvent":{"action":"show_text","value":[{"text":"Demander des conseils en matière de fraude."}]}}]'
data modify storage tdh:dialogue options append value '[{"text":"Vos paroles sont honteuses. Je m\'en vais.","clickEvent":{"action":"run_command","value":"/trigger answer set 100"},"hoverEvent":{"action":"show_text","value":[{"text":"Marquer son plus ferme désaccord avec les propos de cet individu."}]}}]'