# On choisit une phrase pour la réponse
function tdh:random

# Phrases où l'aubergiste ne propose pas de réserver pour plus tard
execute if score #random temp matches 0..24 run data modify storage tdh:dialogue reponse set value '"Je suis bien désolé, mais je n\'ai plus la moindre chambre de libre !"'
# Phrases où il propose de réserver pour plus tard
execute if score #random temp matches 25..49 run data modify storage tdh:dialogue reponse set value {basique:'"On est complet pour ce soir, désolé ! Si vous revenez un jour dans le coin, vous n\'avez qu\'à réserver."',cliquable:'[{"text":"On est complet pour ce soir, désolé ! Si vous revenez un jour dans le coin, vous n\'avez qu\'à "},{"text":"réserver","color":"gold","hoverEvent":{"action":"show_text","contents":"Réserver une nuit d\'hôtel"},"clickEvent":{"action":"run_command","value":"/trigger topic set 384"}},{"text":"."}]'}
execute if score #random temp matches 50..74 run data modify storage tdh:dialogue reponse set value {basique:'"Je suis désolé, mais c\'est complet ! Vous pouvez réserver la prochaine fois, ça vous évitera ce genre de galère..."',cliquable:'[{"text":"Je suis désolé, mais c\'est complet ! Vous pouvez "},{"text":"réserver","color":"gold","hoverEvent":{"action":"show_text","contents":"Réserver une nuit d\'hôtel"},"clickEvent":{"action":"run_command","value":"/trigger topic set 384"}},{"text":" la prochaine fois, ça vous évitera ce genre de galère..."}]'}
execute if score #random temp matches 75..99 run data modify storage tdh:dialogue reponse set value {basique:'"On s\'excuse, mais on n\'a plus de place ! Vous pouvez toujours réserver pour la prochaine fois, si vous savez quand vous revenez."',cliquable:'[{"text":"On s\'excuse, mais on n\'a plus de place ! Vous pouvez toujours "},{"text":"réserver","color":"gold","hoverEvent":{"action":"show_text","contents":"Réserver une nuit d\'hôtel"},"clickEvent":{"action":"run_command","value":"/trigger topic set 384"}},{"text":" pour la prochaine fois, si vous savez quand vous revenez."}]'}
# On débloque le sujet "réserver" si la réponse en parlait
execute if score #random temp matches 25..99 run advancement grant @a[gamemode=!spectator,distance=..12] only tdh:dialogue/auberge reserver