# On génère une réponse aléatoire du PNJ
scoreboard players set #random min 0
scoreboard players set #random max 100
function tdh:random

execute if score #random temp matches 0..24 run data modify storage tdh:dialogue reponse set value '"Il y en a, oui. Je ne jette pas la pierre aux pauvres bougres qui tentent de subsister de la sorte, mais je vous conseille de les éviter. Le jeu n\'en vaut pas la chandelle."'

execute if score #random temp matches 25..49 run data modify storage tdh:dialogue reponse set value {basique:'"J\'en ai un peu marre qu\'ils me proposent leurs tickets bizarres tous les matins, pour être très honnête ! J\'ai un abonnement, donc en même temps..."',cliquable:'[{"text":"J\'en ai un peu marre qu\'ils me proposent leurs "},{"text":"tickets","color":"gold","clickEvent":{"action":"run_command","value":"/trigger topic set 1100"},"hoverEvent":{"action":"show_text","value":[{"text":"Parler des tickets TCH."}]}},{"text":" bizarres tous les matins, pour être très honnête ! J\'ai un "},{"text":"abonnement","color":"gold","clickEvent":{"action":"run_command","value":"/trigger topic set 1500"},"hoverEvent":{"action":"show_text","value":[{"text":"Parler de l\'abonnement."}]}},{"text":", donc en même temps..."}]'}
execute if score #random temp matches 50..74 run data modify storage tdh:dialogue reponse set value {basique:'"Si vous êtes fauché, il vaut mieux faire le trajet à pied que de grappiller quelques piécettes sur le prix d\'un ticket. Et puis, si je puis me permettre, les tarifs de l\'abonnement sont de toute façon bien plus avantageux..."',cliquable:'[{"text":"Si vous êtes fauché, il vaut mieux faire le trajet à pied que de grappiller quelques piécettes sur le prix d\'un "},{"text":"ticket","color":"gold","clickEvent":{"action":"run_command","value":"/trigger topic set 1100"},"hoverEvent":{"action":"show_text","value":[{"text":"Parler des tickets TCH."}]}},{"text":". Et puis, si je puis me permettre, les "},{"text":"tarifs","color":"gold","clickEvent":{"action":"run_command","value":"/trigger topic set 1110"},"hoverEvent":{"action":"show_text","value":[{"text":"Parler des tarifs."}]}},{"text":" de l\'"},{"text":"abonnement","color":"gold","clickEvent":{"action":"run_command","value":"/trigger topic set 1500"},"hoverEvent":{"action":"show_text","value":[{"text":"Parler de l\'abonnement."}]}},{"text":" sont de toute façon bien plus avantageux..."}]'}
execute if score #random temp matches 25..74 run advancement grant @a[distance=..12,gamemode=!spectator] only tdh:dialogue/tch abonnement
execute if score #random temp matches 50..74 run advancement grant @a[distance=..12,gamemode=!spectator] only tdh:dialogue/tch/tarifs tarifs

execute if score #random temp matches 75..99 run data modify storage tdh:dialogue reponse set value {basique:'"Ils s\'attendent vraiment à ce qu\'on tombe dans le panneau ? Des tickets moins chers que les vrais mais qui fonctionneraient quand même... Qu\'ils me permettent d\'en douter sérieusement !"',cliquable:'[{"text":"Ils s\'attendent vraiment à ce qu\'on tombe dans le panneau ? Des "},{"text":"tickets","color":"gold","clickEvent":{"action":"run_command","value":"/trigger topic set 1100"},"hoverEvent":{"action":"show_text","value":[{"text":"Parler des tickets."}]}},{"text":" moins chers que les vrais mais qui fonctionneraient quand même... Qu\'ils me permettent d\'en douter sérieusement !"}]'}
execute if score #random temp matches 25..99 run advancement grant @a[distance=..12,gamemode=!spectator] only tdh:dialogue/tch ticket