
# On copie les slots libres dans notre résultat
data modify storage tdh:conteneur resultat set value []

scoreboard players operation #conteneur temp2 = #conteneur temp
function tdh:conteneur/trouver_slots_libres_consecutifs/succes/copier_slot