execute positioned ~-3 ~1 ~4 if entity @e[type=armor_stand,distance=..40,tag=Direction] if entity @e[type=armor_stand,distance=..40,tag=NumLigne] run tellraw @a[dx=-6,dy=6,dz=-34] [{"text":"Un train de la ligne ","color":"gray"},{"selector":"@e[type=armor_stand,distance=..40,tag=NumLigne,limit=1,sort=nearest]","color":"red"},{"text":" est à l'approche direction ","color":"gray"},{"selector":"@e[type=armor_stand,distance=..40,tag=Direction,sort=nearest,limit=1]","color":"aqua"},{"text":".","color":"gray"}]
execute positioned ~-3 ~1 ~4 run tellraw @a[dx=-6,dy=6,dz=-34] [{"text":"Approchez-vous de la porte et entrez dans le train sans marcher sur les voies. Le train repartira automatiquement.","color":"gray"}]

function tch:auto/info_quai