# On génère à tous les coups une phrase de modeste
function tdh:dialogue/answers/torche/aubergiste/bavarder/modeste/debutant

# On génère la phrase du PNJ
function tdh:dialogue/answers/torche/aubergiste/succes

# On supprime les tags temporaires
tag @s remove Succes
tag @s remove SuccesCritique