scoreboard players set #fonteNeige distance 50
scoreboard players set #fonteNeige vitesse 1
scoreboard players set #fonteNeige frequenceUpdate 1
scoreboard players set #fonteNeige jourUpdate 1
scoreboard players set #fonteNeige tickUpdate 0

function tdh:meteo/config/fonte_neige