{
	"type": "minecraft:entity",
	"pools": [
		{
			"rolls": 1.0,
			"bonus_rolls": 0.0,
			"entries": [
				{
					"conditions": [
						{
							"condition": "minecraft:entity_properties",
							"predicate": {
								"flags": {
									"is_on_fire": false
								}
							},
							"entity": "this"
						}
					],
					"type": "minecraft:item",
					"functions": [
						{
							"function": "minecraft:set_count",
							"count": {
								"type": "minecraft:uniform",
								"min": 0.5,
								"max": 1.5
							},
							"add": false
						},
						{
							"function": "minecraft:looting_enchant",
							"count": {
								"type": "minecraft:uniform",
								"min": 0.0,
								"max": 0.5
							}
						},
						{
							"function": "minecraft:set_name",
							"name": "Raw bat meat"
						},
						{
							"function": "minecraft:set_nbt",
							"tag": "{CustomModelData:6600,ingredient:6600}"
						}
					],
					"name": "minecraft:poisonous_potato"
				},
				{
					"conditions": [
						{
							"condition": "minecraft:entity_properties",
							"predicate": {
								"flags": {
									"is_on_fire": true
								}
							},
							"entity": "this"
						}
					],
					"type": "minecraft:item",
					"functions": [
						{
							"function": "minecraft:set_count",
							"count": {
								"type": "minecraft:uniform",
								"min": 0.5,
								"max": 1.5
							},
							"add": false
						},
						{
							"function": "minecraft:looting_enchant",
							"count": {
								"type": "minecraft:uniform",
								"min": 0.0,
								"max": 0.5
							}
						},
						{
							"function": "minecraft:set_name",
							"name": "Cooked bat"
						},
						{
							"function": "minecraft:set_nbt",
							"tag": "{CustomModelData:6650,ingredient:6650}"
						}
					],
					"name": "minecraft:cooked_rabbit"
				}
			]
		}
	]
}