{
	"type": "minecraft:entity",
	"pools": [
		{
			"rolls": 1.0,
			"bonus_rolls": 0.0,
			"entries": [
				{
					"conditions": [
						{
							"condition": "minecraft:entity_properties",
							"predicate": {
								"flags": {
									"is_on_fire": false
								}
							},
							"entity": "this"
						}
					],
					"type": "minecraft:item",
					"functions": [
						{
							"function": "minecraft:set_count",
							"count": {
								"type": "minecraft:uniform",
								"min": 1.0,
								"max": 2.0
							},
							"add": false
						},
						{
							"function": "minecraft:looting_enchant",
							"count": {
								"type": "minecraft:uniform",
								"min": 0.0,
								"max": 1.0
							}
						},
						{
							"function": "minecraft:set_name",
							"name": "Raw mule meat"
						},
						{
							"function": "minecraft:set_nbt",
							"tag": "{CustomModelData:4900,ingredient:4900}"
						}
					],
					"name": "minecraft:beef"
				},
				{
					"conditions": [
						{
							"condition": "minecraft:entity_properties",
							"predicate": {
								"flags": {
									"is_on_fire": true
								}
							},
							"entity": "this"
						}
					],
					"type": "minecraft:item",
					"functions": [
						{
							"function": "minecraft:set_count",
							"count": {
								"type": "minecraft:uniform",
								"min": 1.0,
								"max": 2.0
							},
							"add": false
						},
						{
							"function": "minecraft:looting_enchant",
							"count": {
								"type": "minecraft:uniform",
								"min": 0.0,
								"max": 1.0
							}
						},
						{
							"function": "minecraft:set_name",
							"name": "Cooked mule"
						},
						{
							"function": "minecraft:set_nbt",
							"tag": "{CustomModelData:4950,ingredient:4950}"
						}
					],
					"name": "minecraft:cooked_beef"
				}
			]
		},
		{
			"rolls": 1.0,
			"bonus_rolls": 0.0,
			"entries": [
				{
					"type": "minecraft:item",
					"functions": [
						{
							"function": "minecraft:set_count",
							"count": {
								"type": "minecraft:uniform",
								"min": 0.0,
								"max": 2.0
							},
							"add": false
						},
						{
							"function": "minecraft:looting_enchant",
							"count": {
								"type": "minecraft:uniform",
								"min": 0.0,
								"max": 1.0
							}
						}
					],
					"name": "minecraft:leather"
				}
			]
		}
	]
}