{
	"type": "minecraft:entity",
	"pools": [
		{
			"rolls": 1.0,
			"bonus_rolls": 0.0,
			"entries": [
				{
					"conditions": [
						{
							"condition": "minecraft:entity_properties",
							"predicate": {
								"flags": {
									"is_on_fire": false
								}
							},
							"entity": "this"
						}
					],
					"type": "minecraft:item",
					"functions": [
						{
							"function": "minecraft:set_count",
							"count": {
								"type": "minecraft:uniform",
								"min": 1.0,
								"max": 3.0
							},
							"add": false
						},
						{
							"function": "minecraft:looting_enchant",
							"count": {
								"type": "minecraft:uniform",
								"min": 0.0,
								"max": 1.5
							}
						},
						{
							"function": "minecraft:set_name",
							"name": "Raw human meat"
						},
						{
							"function": "minecraft:set_nbt",
							"tag": "{CustomModelData:5100,ingredient:5100}"
						}
					],
					"name": "minecraft:porkchop"
				},
				{
					"conditions": [
						{
							"condition": "minecraft:entity_properties",
							"predicate": {
								"flags": {
									"is_on_fire": true
								}
							},
							"entity": "this"
						}
					],
					"type": "minecraft:item",
					"functions": [
						{
							"function": "minecraft:set_count",
							"count": {
								"type": "minecraft:uniform",
								"min": 1.0,
								"max": 3.0
							},
							"add": false
						},
						{
							"function": "minecraft:looting_enchant",
							"count": {
								"type": "minecraft:uniform",
								"min": 0.0,
								"max": 1.5
							}
						},
						{
							"function": "minecraft:set_name",
							"name": "Cooked human meat"
						},
						{
							"function": "minecraft:set_nbt",
							"tag": "{CustomModelData:5150,ingredient:5150}"
						}
					],
					"name": "minecraft:cooked_porkchop"
				}
			]
		}
	]
}