{
	"type": "minecraft:entity",
	"pools": [
		{
			"rolls": 1.0,
			"bonus_rolls": 0.0,
			"entries": [
				{
					"type": "minecraft:item",
					"functions": [
						{
							"function": "minecraft:set_count",
							"count": {
								"type": "minecraft:uniform",
								"min": 1.0,
								"max": 3.0
							},
							"add": false
						},
						{
							"function": "minecraft:looting_enchant",
							"count": {
								"type": "minecraft:uniform",
								"min": 0.0,
								"max": 1.0
							}
						},
						{
							"function": "minecraft:set_name",
							"name": "Illager flesh"
						},
						{
							"function": "minecraft:set_nbt",
							"tag": "{CustomModelData:6100,ingredient:6100}"
						}
					],
					"name": "minecraft:rotten_flesh"
				}
			]
		},
		{
			"rolls": 1.0,
			"bonus_rolls": 0.0,
			"entries": [
				{
					"type": "minecraft:item",
					"functions": [
						{
							"function": "minecraft:set_count",
							"count": {
								"type": "minecraft:uniform",
								"min": 0.0,
								"max": 1.0
							},
							"add": false
						},
						{
							"function": "minecraft:looting_enchant",
							"count": {
								"type": "minecraft:uniform",
								"min": 0.0,
								"max": 1.0
							}
						}
					],
					"name": "minecraft:emerald"
				}
			],
			"conditions": [
				{
					"condition": "minecraft:killed_by_player"
				}
			]
		}
	]
}