# On génère une phrase initiale selon la distance à parcourir
execute if score #sqrt temp matches ..200 run data modify storage tdh:dialogue extra.commentaire set value '"Vous êtes à deux pas !"'
execute if score #sqrt temp matches 201..500 run data modify storage tdh:dialogue extra.commentaire set value '"Ça n\'est pas bien loin !"'
execute if score #sqrt temp matches 501..1000 run data modify storage tdh:dialogue extra.commentaire set value '"C\'est un petit bout de chemin, mais rien d\'insurmontable."'
execute if score #sqrt temp matches 1001..1600 run data modify storage tdh:dialogue extra.commentaire set value '"Ça vous fait une petite trotte..."'
execute if score #sqrt temp matches 1601..2250 run data modify storage tdh:dialogue extra.commentaire set value '"Vous en aurez pour un moment."'
execute if score #sqrt temp matches 2251..3000 run data modify storage tdh:dialogue extra.commentaire set value '"J\'espère que vous avez de bonnes jambes..."'
execute if score #sqrt temp matches 3001..4000 run data modify storage tdh:dialogue extra.commentaire set value '"Ça va vous prendre la journée, mais bon..."'
execute if score #sqrt temp matches 4001..6000 run data modify storage tdh:dialogue extra.commentaire set value '"J\'espère que vous avez les deux prochains jours de libres..."'
execute if score #sqrt temp matches 6001.. run data modify storage tdh:dialogue extra.commentaire set value '"Vous pourriez peut-être prendre plutôt les transports, mais bon..."'

# On génère une réponse aléatoire du PNJ
scoreboard players set #random min 0
scoreboard players set #random max 100
function tdh:random

execute if score #random temp matches 0..24 run data modify storage tdh:dialogue reponse set value '[{"storage":"tdh:dialogue","nbt":"extra.commentaire","interpret":true},{"text":" Il faut simplement que vous marchiez vers "},{"storage":"tch:itineraire","nbt":"distance.direction.prefixe"},{"storage":"tch:itineraire","nbt":"distance.direction.nom"},{"text":"... il y en a pour "},{"storage":"tdh:store","nbt":"distance.","interpret":true},{"text":" !"}]'
execute if score #random temp matches 25..49 run data modify storage tdh:dialogue reponse set value '[{"storage":"tdh:dialogue","nbt":"extra.commentaire","interpret":true},{"text":" Partez en direction "},{"storage":"tch:itineraire","nbt":"distance.direction.deDu"},{"storage":"tch:itineraire","nbt":"distance.direction.nom"},{"text":" et continuez sur "},{"storage":"tdh:store","nbt":"distance.","interpret":true},{"text":". Vous devriez finir par trouver "},{"storage":"tch:itineraire","nbt":"distance.destination.prefixe"},{"storage":"tch:itineraire","nbt":"distance.destination.nom"},{"text":" !"}]'
execute if score #random temp matches 50..74 run data modify storage tdh:dialogue reponse set value '[{"storage":"tdh:dialogue","nbt":"extra.commentaire","interpret":true},{"text":" "},{"storage":"tch:itineraire","nbt":"distance.destination.prefixe"},{"storage":"tch:itineraire","nbt":"distance.destination.nom"},{"text":" se trouve "},{"storage":"tch:itineraire","nbt":"distance.direction.alAu"},{"storage":"tch:itineraire","nbt":"distance.direction.nom"},{"text":" d\'ici, à environ "},{"storage":"tdh:store","nbt":"distance.","interpret":true},{"text":"."}]'
execute if score #random temp matches 75..99 run data modify storage tdh:dialogue reponse set value '[{"storage":"tdh:dialogue","nbt":"extra.commentaire","interpret":true},{"text":" "},{"storage":"tch:itineraire","nbt":"distance.destination.prefixe"},{"storage":"tch:itineraire","nbt":"distance.destination.nom"},{"text":", c\'est tout droit vers "},{"storage":"tch:itineraire","nbt":"distance.direction.prefixe"},{"storage":"tch:itineraire","nbt":"distance.direction.nom"},{"text":", à environ "},{"storage":"tdh:store","nbt":"distance.","interpret":true},{"text":"."}]'