# On remplace la lampe actuelle
fill ~ ~-1 ~ ~ ~-1 ~ spruce_button[facing=north] replace player_wall_head[facing=north]
fill ~ ~-1 ~ ~ ~-1 ~ spruce_button[facing=east] replace player_wall_head[facing=east]
fill ~ ~-1 ~ ~ ~-1 ~ spruce_button[facing=south] replace player_wall_head[facing=south]
fill ~ ~-1 ~ ~ ~-1 ~ spruce_button[facing=west] replace player_wall_head[facing=west]

fill ~ ~-1 ~ ~ ~-1 ~ player_wall_head[facing=north]{SkullOwner:{Id:[I;262719005,-696168552,-1361812466,-1136495920],Properties:{textures:[{Value:"eyJ0ZXh0dXJlcyI6eyJTS0lOIjp7InVybCI6Imh0dHA6Ly90ZXh0dXJlcy5taW5lY3JhZnQubmV0L3RleHR1cmUvNGQxNjk5NWQ1N2I1OTI3YzRlMGI3ZmQ1MWE4YzUzMWJiNzBhMWExNjBkMmUyYWI1Mjk3NmNhMWQ3YzNkMDczZCJ9fX0="}]}}} replace spruce_button[facing=north]
fill ~ ~-1 ~ ~ ~-1 ~ player_wall_head[facing=east]{SkullOwner:{Id:[I;262719005,-696168552,-1361812466,-1136495920],Properties:{textures:[{Value:"eyJ0ZXh0dXJlcyI6eyJTS0lOIjp7InVybCI6Imh0dHA6Ly90ZXh0dXJlcy5taW5lY3JhZnQubmV0L3RleHR1cmUvNGQxNjk5NWQ1N2I1OTI3YzRlMGI3ZmQ1MWE4YzUzMWJiNzBhMWExNjBkMmUyYWI1Mjk3NmNhMWQ3YzNkMDczZCJ9fX0="}]}}} replace spruce_button[facing=east]
fill ~ ~-1 ~ ~ ~-1 ~ player_wall_head[facing=south]{SkullOwner:{Id:[I;262719005,-696168552,-1361812466,-1136495920],Properties:{textures:[{Value:"eyJ0ZXh0dXJlcyI6eyJTS0lOIjp7InVybCI6Imh0dHA6Ly90ZXh0dXJlcy5taW5lY3JhZnQubmV0L3RleHR1cmUvNGQxNjk5NWQ1N2I1OTI3YzRlMGI3ZmQ1MWE4YzUzMWJiNzBhMWExNjBkMmUyYWI1Mjk3NmNhMWQ3YzNkMDczZCJ9fX0="}]}}} replace spruce_button[facing=south]
fill ~ ~-1 ~ ~ ~-1 ~ player_wall_head[facing=west]{SkullOwner:{Id:[I;262719005,-696168552,-1361812466,-1136495920],Properties:{textures:[{Value:"eyJ0ZXh0dXJlcyI6eyJTS0lOIjp7InVybCI6Imh0dHA6Ly90ZXh0dXJlcy5taW5lY3JhZnQubmV0L3RleHR1cmUvNGQxNjk5NWQ1N2I1OTI3YzRlMGI3ZmQ1MWE4YzUzMWJiNzBhMWExNjBkMmUyYWI1Mjk3NmNhMWQ3YzNkMDczZCJ9fX0="}]}}} replace spruce_button[facing=west]