# On enregistre le fait qu'on a répondu
tag @s add RepasDonne

# On choisit une phrase pour la question et une autre pour la réponse
scoreboard players set #random min 0
scoreboard players set #random max 100
function tdh:random

execute if score #random temp matches 0..39 run data modify storage tdh:dialogue question set value '"Vous auriez quelque chose à manger ?"'
execute if score #random temp matches 40..69 run data modify storage tdh:dialogue question set value '"J\'ai bien envie d\'un de vos bons petits plats ! Qu\'est-ce que vous avez en stock ?"'
execute if score #random temp matches 70..99 run data modify storage tdh:dialogue question set value '"J\'ai grand faim, patron ! Il me faudrait un bon casse-dalle !"'

function tdh:random

execute if score #random temp matches 0..24 run data modify storage tdh:dialogue reponse set value '[{"text":"Bien sûr ! Il ne sera pas dit qu\'on laisse des gens mourir de faim "},{"entity":"@e[type=item_frame,tag=Auberge,sort=nearest,limit=1]","nbt":"Item.tag.auberge.alAu"},{"entity":"@e[type=item_frame,tag=Auberge,sort=nearest,limit=1]","nbt":"Item.tag.auberge.nom"},{"text":" ! Qu\'est-ce que je vous sers ?"}]'
execute if score #random temp matches 25..49 run data modify storage tdh:dialogue reponse set value '"C\'est pour ça que je suis là ! Qu\'est-ce qui vous ferait plaisir ?"'
execute if score #random temp matches 50..74 run data modify storage tdh:dialogue reponse set value '"Qu\'est-ce qui vous ferait plaisir ?"'
execute if score #random temp matches 75..99 run data modify storage tdh:dialogue reponse set value '"On va vous trouver ça ! Qu\'est-ce qu\'il vous faut ?"'

# On active le mode réponse chez l'aubergiste (on enregistre le fait qu'il a posé une question)
scoreboard players set @s topic 380

# On active le mode réponse chez le joueur (on désactive la possibilité de proposer un sujet, et on active les réponses à la place)
scoreboard players reset @p[tag=SpeakingToNPC] topic
scoreboard players enable @p[tag=SpeakingToNPC] answer


# On enregistre les différentes options possibles
tag @s add Options
# Le pain est un aliment toujours disponible, quel que soit l'établissement
# Idem pour la viande de poulet et de lapin
data modify storage tdh:dialogue options append value '[{"text":""},{"text":"Pain ","color":"yellow"},{"text":"x16","clickEvent":{"action":"run_command","value":"/trigger answer set 1016"},"hoverEvent":{"action":"show_text","value":[{"text":"Payer ","color":"yellow"},{"text":"1 fer","color":"gray","bold":"true"},{"text":"."}]}},{"text":"–"},{"text":"x32","clickEvent":{"action":"run_command","value":"/trigger answer set 1032"},"hoverEvent":{"action":"show_text","value":[{"text":"Payer ","color":"yellow"},{"text":"2 fer","color":"gray","bold":"true"},{"text":"."}]}},{"text":"–"},{"text":"x64","clickEvent":{"action":"run_command","value":"/trigger answer set 1064"},"hoverEvent":{"action":"show_text","value":[{"text":"Payer ","color":"yellow"},{"text":"3 fer","color":"gray","bold":"true"},{"text":"."}]}}]'
data modify storage tdh:dialogue options append value '[{"text":"Sandwich au poulet ","color":"yellow"},{"text":"x12","clickEvent":{"action":"run_command","value":"/trigger answer set 1112"},"hoverEvent":{"action":"show_text","value":[{"text":"Payer ","color":"yellow"},{"text":"1 fer","color":"gray","bold":"true"},{"text":"."}]}},{"text":"–"},{"text":"x24","clickEvent":{"action":"run_command","value":"/trigger answer set 1124"},"hoverEvent":{"action":"show_text","value":[{"text":"Payer ","color":"yellow"},{"text":"2 fer","color":"gray","bold":"true"},{"text":"."}]}},{"text":"–"},{"text":"x48","clickEvent":{"action":"run_command","value":"/trigger answer set 1148"},"hoverEvent":{"action":"show_text","value":[{"text":"Payer ","color":"yellow"},{"text":"3 fer","color":"gray","bold":"true"},{"text":"."}]}}]'
data modify storage tdh:dialogue options append value '[{"text":"Sandwich au lapin ","color":"yellow"},{"text":"x12","clickEvent":{"action":"run_command","value":"/trigger answer set 1212"},"hoverEvent":{"action":"show_text","value":[{"text":"Payer ","color":"yellow"},{"text":"1 fer","color":"gray","bold":"true"},{"text":"."}]}},{"text":"–"},{"text":"x24","clickEvent":{"action":"run_command","value":"/trigger answer set 1224"},"hoverEvent":{"action":"show_text","value":[{"text":"Payer ","color":"yellow"},{"text":"2 fer","color":"gray","bold":"true"},{"text":"."}]}},{"text":"–"},{"text":"x48","clickEvent":{"action":"run_command","value":"/trigger answer set 1248"},"hoverEvent":{"action":"show_text","value":[{"text":"Payer ","color":"yellow"},{"text":"3 fer","color":"gray","bold":"true"},{"text":"."}]}}]'

# Si l'auberge a le tag "Mer", on a droit à du cabillaud
execute as @e[tag=Auberge,sort=nearest,limit=1,distance=..50] if entity @s[tag=Mer] run data modify storage tdh:dialogue options append value '[{"text":""},{"text":"Cabillaud grillé ","color":"yellow"},{"text":"x12","clickEvent":{"action":"run_command","value":"/trigger answer set 1312"},"hoverEvent":{"action":"show_text","value":[{"text":"Payer ","color":"yellow"},{"text":"1 fer","color":"gray","bold":"true"},{"text":"."}]}},{"text":"–"},{"text":"x24","clickEvent":{"action":"run_command","value":"/trigger answer set 1324"},"hoverEvent":{"action":"show_text","value":[{"text":"Payer ","color":"yellow"},{"text":"2 fer","color":"gray","bold":"true"},{"text":"."}]}},{"text":"–"},{"text":"x48","clickEvent":{"action":"run_command","value":"/trigger answer set 1348"},"hoverEvent":{"action":"show_text","value":[{"text":"Payer ","color":"yellow"},{"text":"3 fer","color":"gray","bold":"true"},{"text":"."}]}}]'

# Si l'auberge a le tag "Riviere", on a droit à du saumon
execute as @e[tag=Auberge,sort=nearest,limit=1,distance=..50] if entity @s[tag=Riviere] run data modify storage tdh:dialogue options append value '[{"text":""},{"text":"Saumon grillé ","color":"yellow"},{"text":"x8","clickEvent":{"action":"run_command","value":"/trigger answer set 1408"},"hoverEvent":{"action":"show_text","value":[{"text":"Payer ","color":"yellow"},{"text":"1 fer","color":"gray","bold":"true"},{"text":"."}]}},{"text":"–"},{"text":"x16","clickEvent":{"action":"run_command","value":"/trigger answer set 1416"},"hoverEvent":{"action":"show_text","value":[{"text":"Payer ","color":"yellow"},{"text":"2 fer","color":"gray","bold":"true"},{"text":"."}]}},{"text":"–"},{"text":"x32","clickEvent":{"action":"run_command","value":"/trigger answer set 1432"},"hoverEvent":{"action":"show_text","value":[{"text":"Payer ","color":"yellow"},{"text":"3 fer","color":"gray","bold":"true"},{"text":"."}]}},{"text":"–"},{"text":"x64","clickEvent":{"action":"run_command","value":"/trigger answer set 1464"},"hoverEvent":{"action":"show_text","value":[{"text":"Payer ","color":"yellow"},{"text":"5 fer","color":"gray","bold":"true"},{"text":"."}]}}]'

# Si l'auberge a le tag "Porc", on a droit à de la charcuterie
execute as @e[tag=Auberge,sort=nearest,limit=1,distance=..50] if entity @s[tag=Porc] run data modify storage tdh:dialogue options append value '[{"text":""},{"text":"Travers de porc ","color":"yellow"},{"text":"x8","clickEvent":{"action":"run_command","value":"/trigger answer set 1508"},"hoverEvent":{"action":"show_text","value":[{"text":"Payer ","color":"yellow"},{"text":"1 fer","color":"gray","bold":"true"},{"text":"."}]}},{"text":"–"},{"text":"x16","clickEvent":{"action":"run_command","value":"/trigger answer set 1516"},"hoverEvent":{"action":"show_text","value":[{"text":"Payer ","color":"yellow"},{"text":"2 fer","color":"gray","bold":"true"},{"text":"."}]}},{"text":"–"},{"text":"x32","clickEvent":{"action":"run_command","value":"/trigger answer set 1532"},"hoverEvent":{"action":"show_text","value":[{"text":"Payer ","color":"yellow"},{"text":"3 fer","color":"gray","bold":"true"},{"text":"."}]}},{"text":"–"},{"text":"x64","clickEvent":{"action":"run_command","value":"/trigger answer set 1564"},"hoverEvent":{"action":"show_text","value":[{"text":"Payer ","color":"yellow"},{"text":"5 fer","color":"gray","bold":"true"},{"text":"."}]}}]'
execute as @e[tag=Auberge,sort=nearest,limit=1,distance=..50] if entity @s[tag=Porc] run data modify storage tdh:dialogue options append value '[{"text":""},{"text":"Boudin ","color":"yellow"},{"text":"x8","clickEvent":{"action":"run_command","value":"/trigger answer set 1608"},"hoverEvent":{"action":"show_text","value":[{"text":"Payer ","color":"yellow"},{"text":"1 fer","color":"gray","bold":"true"},{"text":"."}]}},{"text":"–"},{"text":"x16","clickEvent":{"action":"run_command","value":"/trigger answer set 1616"},"hoverEvent":{"action":"show_text","value":[{"text":"Payer ","color":"yellow"},{"text":"2 fer","color":"gray","bold":"true"},{"text":"."}]}},{"text":"–"},{"text":"x32","clickEvent":{"action":"run_command","value":"/trigger answer set 1632"},"hoverEvent":{"action":"show_text","value":[{"text":"Payer ","color":"yellow"},{"text":"3 fer","color":"gray","bold":"true"},{"text":"."}]}},{"text":"–"},{"text":"x64","clickEvent":{"action":"run_command","value":"/trigger answer set 1664"},"hoverEvent":{"action":"show_text","value":[{"text":"Payer ","color":"yellow"},{"text":"5 fer","color":"gray","bold":"true"},{"text":"."}]}}]'
execute as @e[tag=Auberge,sort=nearest,limit=1,distance=..50] if entity @s[tag=Porc] run data modify storage tdh:dialogue options append value '[{"text":""},{"text":"Jambon ","color":"yellow"},{"text":"x8","clickEvent":{"action":"run_command","value":"/trigger answer set 1708"},"hoverEvent":{"action":"show_text","value":[{"text":"Payer ","color":"yellow"},{"text":"1 fer","color":"gray","bold":"true"},{"text":"."}]}},{"text":"–"},{"text":"x16","clickEvent":{"action":"run_command","value":"/trigger answer set 1716"},"hoverEvent":{"action":"show_text","value":[{"text":"Payer ","color":"yellow"},{"text":"2 fer","color":"gray","bold":"true"},{"text":"."}]}},{"text":"–"},{"text":"x32","clickEvent":{"action":"run_command","value":"/trigger answer set 1732"},"hoverEvent":{"action":"show_text","value":[{"text":"Payer ","color":"yellow"},{"text":"3 fer","color":"gray","bold":"true"},{"text":"."}]}},{"text":"–"},{"text":"x64","clickEvent":{"action":"run_command","value":"/trigger answer set 1764"},"hoverEvent":{"action":"show_text","value":[{"text":"Payer ","color":"yellow"},{"text":"5 fer","color":"gray","bold":"true"},{"text":"."}]}}]'

# Si l'auberge a le tag "Boeuf", on a droit à du steak
execute as @e[tag=Auberge,sort=nearest,limit=1,distance=..50] if entity @s[tag=Boeuf] run data modify storage tdh:dialogue options append value '[{"text":""},{"text":"Steak ","color":"yellow"},{"text":"x8","clickEvent":{"action":"run_command","value":"/trigger answer set 1808"},"hoverEvent":{"action":"show_text","value":[{"text":"Payer ","color":"yellow"},{"text":"1 fer","color":"gray","bold":"true"},{"text":"."}]}},{"text":"–"},{"text":"x16","clickEvent":{"action":"run_command","value":"/trigger answer set 1816"},"hoverEvent":{"action":"show_text","value":[{"text":"Payer ","color":"yellow"},{"text":"2 fer","color":"gray","bold":"true"},{"text":"."}]}},{"text":"–"},{"text":"x32","clickEvent":{"action":"run_command","value":"/trigger answer set 1832"},"hoverEvent":{"action":"show_text","value":[{"text":"Payer ","color":"yellow"},{"text":"3 fer","color":"gray","bold":"true"},{"text":"."}]}},{"text":"–"},{"text":"x64","clickEvent":{"action":"run_command","value":"/trigger answer set 1864"},"hoverEvent":{"action":"show_text","value":[{"text":"Payer ","color":"yellow"},{"text":"5 fer","color":"gray","bold":"true"},{"text":"."}]}}]'

# Si l'auberge a le tag "Mouton", on a droit à du mouton
execute as @e[tag=Auberge,sort=nearest,limit=1,distance=..50] if entity @s[tag=Mouton] run data modify storage tdh:dialogue options append value '[{"text":""},{"text":"Ragoût de mouton ","color":"yellow"},{"text":"x12","clickEvent":{"action":"run_command","value":"/trigger answer set 1912"},"hoverEvent":{"action":"show_text","value":[{"text":"Payer ","color":"yellow"},{"text":"1 fer","color":"gray","bold":"true"},{"text":"."}]}},{"text":"–"},{"text":"x24","clickEvent":{"action":"run_command","value":"/trigger answer set 1924"},"hoverEvent":{"action":"show_text","value":[{"text":"Payer ","color":"yellow"},{"text":"2 fer","color":"gray","bold":"true"},{"text":"."}]}},{"text":"–"},{"text":"x48","clickEvent":{"action":"run_command","value":"/trigger answer set 1948"},"hoverEvent":{"action":"show_text","value":[{"text":"Payer ","color":"yellow"},{"text":"3 fer","color":"gray","bold":"true"},{"text":"."}]}}]'

# Si l'auberge a le tag "Patate", on a le droit à des frites
execute as @e[tag=Auberge,sort=nearest,limit=1,distance=..50] if entity @s[tag=Patate] run data modify storage tdh:dialogue options append value '[{"text":""},{"text":"Frites ","color":"yellow"},{"text":"x24","clickEvent":{"action":"run_command","value":"/trigger answer set 2024"},"hoverEvent":{"action":"show_text","value":[{"text":"Payer ","color":"yellow"},{"text":"1 fer","color":"gray","bold":"true"},{"text":"."}]}},{"text":"–"},{"text":"x64","clickEvent":{"action":"run_command","value":"/trigger answer set 2064"},"hoverEvent":{"action":"show_text","value":[{"text":"Payer ","color":"yellow"},{"text":"2 fer","color":"gray","bold":"true"},{"text":"."}]}}]'

# Dans tous les cas, on peut aussi implorer de la bouffe (TODO)

# On a aussi la réponse générique "Non, je ne veux rien"
data modify storage tdh:dialogue options append value '[{"text":""},{"text":"En fait, je ne veux rien.","clickEvent":{"action":"run_command","value":"/trigger answer set 1"},"hoverEvent":{"action":"show_text","value":[{"text":"Changer d\'avis."}]}}]'