# Selon notre type de panneau choisi, on définit un score temporaire qui nous servira à calculer le CustomModelData
# La valeur de départ est l'idLine correspondant à cette direction
tellraw @s [{"text":"\u1a20","color":"gray"},{"text":"\u1a27","color":"#60bb39"},{"text":" → "},{"text":"Toutes directions","color":"#60bb39"}]
scoreboard players set @s idPanneau 60
# On ajoute la valeur correspondant à notre type de panneau
function tch:give/acces_quais/_choix_type/_id_panneau

# On affiche ensuite l'écran de sélection de la direction
function tch:give/acces_quais/_choix_fleche