{
	"values": [
		"minecraft:copper_block",
		"minecraft:exposed_copper",
		"minecraft:weathered_copper",
		"minecraft:oxidized_copper",
		"minecraft:cut_copper",
		"minecraft:exposed_cut_copper",
		"minecraft:weathered_cut_copper",
		"minecraft:oxidized_cut_copper",
		"minecraft:waxed_copper_block",
		"minecraft:waxed_exposed_copper",
		"minecraft:waxed_weathered_copper",
		"minecraft:waxed_oxidized_copper",
		"minecraft:waxed_cut_copper",
		"minecraft:waxed_exposed_cut_copper",
		"minecraft:waxed_weathered_cut_copper",
		"minecraft:waxed_oxidized_cut_copper"
	]
}