scoreboard players set #meteoActuAuto playersOnline 0
scoreboard players set #meteoActuAuto nombre 3
scoreboard players set #meteoActuAuto duree 10
scoreboard players set #meteoActuAuto xMin -16
scoreboard players set #meteoActuAuto xMax 16
scoreboard players set #meteoActuAuto zMin -16
scoreboard players set #meteoActuAuto zMax 16

function tdh:meteo/config/actu_auto