## SÉLECTION DE LA DURÉE DE LA JOURNÉE

# On calcule la valeur actuelle
scoreboard players operation #store currentHour = #temps fullDayTicks
function tdh:store/realtime

# On active l'objectif de configuration à trigger
scoreboard players operation @s configID = @s config
scoreboard players set @s config 0
scoreboard players enable @s config


tellraw @s [{"text":"CONFIGURATEUR TDH-TIME","color":"gold"}]
tellraw @s [{"text":"——————————————————————————\nChoisissez la durée d'une journée (24h ingame, en temps IRL) :","color":"gray"}]
tellraw @s [{"text":"","color":"gray"},{"text":"30mn","color":"gold","clickEvent":{"action":"run_command","value":"/trigger config set 36000"},"hoverEvent":{"action":"show_text","contents":[{"text":"[Attention]","color":"red"},{"text":" Il n'est pas recommandé de choisir une valeur aussi basse que ","color":"gray"},{"text":"30mn","color":"yellow"},{"text":" ; la variation saisonnière de la durée des journées sera moins importante.","color":"gray"}]}},{"text":" ● "},{"text":"35mn","color":"yellow","clickEvent":{"action":"run_command","value":"/trigger config set 42000"},"hoverEvent":{"action":"show_text","contents":[{"text":"[Attention]","color":"red"},{"text":" Il n'est pas recommandé de choisir une valeur aussi basse que ","color":"gray"},{"text":"35mn","color":"yellow"},{"text":" ; la variation saisonnière de la durée des journées sera moins importante.","color":"gray"}]}},{"text":" ● "},{"text":"40mn","color":"gold","clickEvent":{"action":"run_command","value":"/trigger config set 48000"},"hoverEvent":{"action":"show_text","value":"40mn (48000t)"}},{"text":" ● "},{"text":"45mn","color":"yellow","clickEvent":{"action":"run_command","value":"/trigger config set 54000"},"hoverEvent":{"action":"show_text","value":"45mn (54000t)"}},{"text":" ● "},{"text":"50mn","color":"gold","clickEvent":{"action":"run_command","value":"/trigger config set 60000"},"hoverEvent":{"action":"show_text","value":"50mn (60000t)"}},{"text":" ● "},{"text":"55mn","color":"yellow","clickEvent":{"action":"run_command","value":"/trigger config set 66000"},"hoverEvent":{"action":"show_text","value":"55mn (66000t)"}}]
tellraw @s [{"text":"","color":"gray"},{"text":"1h","color":"gold","clickEvent":{"action":"run_command","value":"/trigger config set 72000"},"hoverEvent":{"action":"show_text","value":"1h00 (72000t)"}},{"text":" ● "},{"text":"1h10","color":"yellow","clickEvent":{"action":"run_command","value":"/trigger config set 84000"},"hoverEvent":{"action":"show_text","value":"1h10 (84000t)"}},{"text":" ● "},{"text":"1h20","color":"gold","clickEvent":{"action":"run_command","value":"/trigger config set 96000"},"hoverEvent":{"action":"show_text","value":"1h20 (96000t)"}},{"text":" ● "},{"text":"1h30","color":"yellow","clickEvent":{"action":"run_command","value":"/trigger config set 108000"},"hoverEvent":{"action":"show_text","value":"1h30 (108000t)"}},{"text":" ● "},{"text":"1h45","color":"gold","clickEvent":{"action":"run_command","value":"/trigger config set 126000"},"hoverEvent":{"action":"show_text","value":"1h45 (126000t)"}},{"text":" ● "},{"text":"2h","color":"yellow","clickEvent":{"action":"run_command","value":"/trigger config set 144000"},"hoverEvent":{"action":"show_text","value":"2h00 (144000t)"}}]
tellraw @s [{"text":"Entrer une valeur précise (en ticks)","color":"#ff7738","hoverEvent":{"action":"show_text","value":"Le minimum est de 30mn (36'000 ticks). La valeur sera arrondie au multiple de 24 inférieur, pour permettre d'avoir un nombre entier et fixe de ticks par heure."},"clickEvent":{"action":"suggest_command","value":"/trigger config set "}}]
tellraw @s [{"text":"Conserver le réglage actuel (","color":"red","clickEvent":{"action":"run_command","value":"/trigger config set -120047"}},{"nbt":"time","storage":"tdh:store","interpret":"true"},{"text":")"}]