## DÉFINITION DES MOIS DE L'ANNÉE

# On enregistre l'état original de la config des mois
#  (sauf si on en a déjà sauvegardé un sans le supprimer)
execute unless data storage tdh:datetime index_backup.mois run data modify storage tdh:datetime index_backup.mois set from storage tdh:datetime index.mois

# On active l'objectif de configuration à trigger
scoreboard players set @s configID 40000
scoreboard players set @s config 0
scoreboard players enable @s config

# On (re)calcule la durée actuelle des mois
function tdh:time/init/subdivisions/calcul_mois


# On s'excuse pour la taille colossale de ce fichier
# mais on ne peut toujours pas spécifier une variable dans un tag NBT donc il faut une ligne par valeur possible :)
tellraw @s [{"text":"CONFIGURATEUR TDH-TIME","color":"gold"}]
tellraw @s [{"text":"——————————————————————————\nVoici la configuration actuelle des mois :","color":"gray"},{"text":"\n[Afficher l'aide]","color":"yellow","italic":"true","hoverEvent":{"action":"show_text","contents":[{"text":"Tous les champs du mois sont à spécifier. Voici à quoi chacun d'entre eux correspond :\n - ","color":"gray"},{"text":"min","color":"gold"},{"text":" = nom complet, en minuscules ("},{"text":"janvier","color":"gold","italic":"true"},{"text":")\n - "},{"text":"maj","color":"yellow"},{"text":" = nom complet, avec majuscule ("},{"text":"Janvier","color":"yellow","italic":"true"},{"text":")\n - "},{"text":"minS","color":"gold"},{"text":" = nom court, en minuscules ("},{"text":"jan.","color":"gold","italic":"true"},{"text":")\n - "},{"text":"majS","color":"yellow"},{"text":" = nom court, avec majuscule ("},{"text":"Jan.","color":"yellow","italic":"true"},{"text":")\n - "},{"text":"deDu","color":"gold"},{"text":" = article type 'de' utilisé avant ce nom (ex: "},{"text":"le mois ","italic":"true"},{"text":"de_","color":"gold","italic":"true"},{"text":"janvier","italic":"true"},{"text":", espace éventuel inclus)\n - "},{"text":"jours","color":"yellow"},{"text":" = nombre de jours les années non-bissextiles ("},{"text":"31","color":"yellow","italic":"true"},{"text":")\n - "},{"text":"joursBis","color":"gold"},{"text":" = nombre de jours les années bissextiles ("},{"text":"31","color":"gold","italic":"true"},{"text":")"}]}}]

execute if score #temps dateMoisMax matches 1.. run tellraw @s [{"text":"1 — ","color":"gray","hoverEvent":{"action":"show_text","contents":[{"text":"Modifier le nom/la durée du mois n°1."}]},"clickEvent":{"action":"suggest_command","value":"/data modify storage tdh:datetime index.mois[0] set value {deDu:\"\",min:\"\",maj:\"\",minS:\"\",majS:\"\",jours:0,joursBis:0}"}},{"storage":"tdh:datetime","nbt":"index.mois[0].maj","color":"gold"},{"text":"/"},{"storage":"tdh:datetime","nbt":"index.mois[0].min","color":"gold"},{"text":" ("},{"storage":"tdh:datetime","nbt":"index.mois[0].majS"},{"text":"/"},{"storage":"tdh:datetime","nbt":"index.mois[0].minS"},{"text":") : dure "},{"storage":"tdh:datetime","nbt":"index.mois[0].jours","color":"yellow"},{"text":" ou "},{"storage":"tdh:datetime","nbt":"index.mois[0].joursBis","color":"yellow"},{"text":" jours."},{"text":" [X]","color":"red","hoverEvent":{"action":"show_text","contents":"Supprimer le mois n°1"},"clickEvent":{"action":"run_command","value":"/data remove storage tdh:datetime index.mois[0]"}}]
execute if score #temps dateMoisMax matches 2.. run tellraw @s [{"text":"2 — ","color":"gray","hoverEvent":{"action":"show_text","contents":[{"text":"Modifier le nom/la durée du mois n°2."}]},"clickEvent":{"action":"suggest_command","value":"/data modify storage tdh:datetime index.mois[1] set value {deDu:\"\",min:\"\",maj:\"\",minS:\"\",majS:\"\",jours:0,joursBis:0}"}},{"storage":"tdh:datetime","nbt":"index.mois[1].maj","color":"yellow"},{"text":"/"},{"storage":"tdh:datetime","nbt":"index.mois[1].min","color":"yellow"},{"text":" ("},{"storage":"tdh:datetime","nbt":"index.mois[1].majS"},{"text":"/"},{"storage":"tdh:datetime","nbt":"index.mois[1].minS"},{"text":") : dure "},{"storage":"tdh:datetime","nbt":"index.mois[1].jours","color":"gold"},{"text":" ou "},{"storage":"tdh:datetime","nbt":"index.mois[1].joursBis","color":"gold"},{"text":" jours."},{"text":" [X]","color":"red","hoverEvent":{"action":"show_text","contents":"Supprimer le mois n°2"},"clickEvent":{"action":"run_command","value":"/data remove storage tdh:datetime index.mois[1]"}}]
execute if score #temps dateMoisMax matches 3.. run tellraw @s [{"text":"3 — ","color":"gray","hoverEvent":{"action":"show_text","contents":[{"text":"Modifier le nom/la durée du mois n°3."}]},"clickEvent":{"action":"suggest_command","value":"/data modify storage tdh:datetime index.mois[2] set value {deDu:\"\",min:\"\",maj:\"\",minS:\"\",majS:\"\",jours:0,joursBis:0}"}},{"storage":"tdh:datetime","nbt":"index.mois[2].maj","color":"gold"},{"text":"/"},{"storage":"tdh:datetime","nbt":"index.mois[2].min","color":"gold"},{"text":" ("},{"storage":"tdh:datetime","nbt":"index.mois[2].majS"},{"text":"/"},{"storage":"tdh:datetime","nbt":"index.mois[2].minS"},{"text":") : dure "},{"storage":"tdh:datetime","nbt":"index.mois[2].jours","color":"yellow"},{"text":" ou "},{"storage":"tdh:datetime","nbt":"index.mois[2].joursBis","color":"yellow"},{"text":" jours."},{"text":" [X]","color":"red","hoverEvent":{"action":"show_text","contents":"Supprimer le mois n°3"},"clickEvent":{"action":"run_command","value":"/data remove storage tdh:datetime index.mois[2]"}}]
execute if score #temps dateMoisMax matches 4.. run tellraw @s [{"text":"4 — ","color":"gray","hoverEvent":{"action":"show_text","contents":[{"text":"Modifier le nom/la durée du mois n°4."}]},"clickEvent":{"action":"suggest_command","value":"/data modify storage tdh:datetime index.mois[3] set value {deDu:\"\",min:\"\",maj:\"\",minS:\"\",majS:\"\",jours:0,joursBis:0}"}},{"storage":"tdh:datetime","nbt":"index.mois[3].maj","color":"yellow"},{"text":"/"},{"storage":"tdh:datetime","nbt":"index.mois[3].min","color":"yellow"},{"text":" ("},{"storage":"tdh:datetime","nbt":"index.mois[3].majS"},{"text":"/"},{"storage":"tdh:datetime","nbt":"index.mois[3].minS"},{"text":") : dure "},{"storage":"tdh:datetime","nbt":"index.mois[3].jours","color":"gold"},{"text":" ou "},{"storage":"tdh:datetime","nbt":"index.mois[3].joursBis","color":"gold"},{"text":" jours."},{"text":" [X]","color":"red","hoverEvent":{"action":"show_text","contents":"Supprimer le mois n°4"},"clickEvent":{"action":"run_command","value":"/data remove storage tdh:datetime index.mois[3]"}}]
execute if score #temps dateMoisMax matches 5.. run tellraw @s [{"text":"5 — ","color":"gray","hoverEvent":{"action":"show_text","contents":[{"text":"Modifier le nom/la durée du mois n°5."}]},"clickEvent":{"action":"suggest_command","value":"/data modify storage tdh:datetime index.mois[4] set value {deDu:\"\",min:\"\",maj:\"\",minS:\"\",majS:\"\",jours:0,joursBis:0}"}},{"storage":"tdh:datetime","nbt":"index.mois[4].maj","color":"gold"},{"text":"/"},{"storage":"tdh:datetime","nbt":"index.mois[4].min","color":"gold"},{"text":" ("},{"storage":"tdh:datetime","nbt":"index.mois[4].majS"},{"text":"/"},{"storage":"tdh:datetime","nbt":"index.mois[4].minS"},{"text":") : dure "},{"storage":"tdh:datetime","nbt":"index.mois[4].jours","color":"yellow"},{"text":" ou "},{"storage":"tdh:datetime","nbt":"index.mois[4].joursBis","color":"yellow"},{"text":" jours."},{"text":" [X]","color":"red","hoverEvent":{"action":"show_text","contents":"Supprimer le mois n°5"},"clickEvent":{"action":"run_command","value":"/data remove storage tdh:datetime index.mois[4]"}}]
execute if score #temps dateMoisMax matches 6.. run tellraw @s [{"text":"6 — ","color":"gray","hoverEvent":{"action":"show_text","contents":[{"text":"Modifier le nom/la durée du mois n°6."}]},"clickEvent":{"action":"suggest_command","value":"/data modify storage tdh:datetime index.mois[5] set value {deDu:\"\",min:\"\",maj:\"\",minS:\"\",majS:\"\",jours:0,joursBis:0}"}},{"storage":"tdh:datetime","nbt":"index.mois[5].maj","color":"yellow"},{"text":"/"},{"storage":"tdh:datetime","nbt":"index.mois[5].min","color":"yellow"},{"text":" ("},{"storage":"tdh:datetime","nbt":"index.mois[5].majS"},{"text":"/"},{"storage":"tdh:datetime","nbt":"index.mois[5].minS"},{"text":") : dure "},{"storage":"tdh:datetime","nbt":"index.mois[5].jours","color":"gold"},{"text":" ou "},{"storage":"tdh:datetime","nbt":"index.mois[5].joursBis","color":"gold"},{"text":" jours."},{"text":" [X]","color":"red","hoverEvent":{"action":"show_text","contents":"Supprimer le mois n°6"},"clickEvent":{"action":"run_command","value":"/data remove storage tdh:datetime index.mois[5]"}}]
execute if score #temps dateMoisMax matches 7.. run tellraw @s [{"text":"7 — ","color":"gray","hoverEvent":{"action":"show_text","contents":[{"text":"Modifier le nom/la durée du mois n°7."}]},"clickEvent":{"action":"suggest_command","value":"/data modify storage tdh:datetime index.mois[6] set value {deDu:\"\",min:\"\",maj:\"\",minS:\"\",majS:\"\",jours:0,joursBis:0}"}},{"storage":"tdh:datetime","nbt":"index.mois[6].maj","color":"gold"},{"text":"/"},{"storage":"tdh:datetime","nbt":"index.mois[6].min","color":"gold"},{"text":" ("},{"storage":"tdh:datetime","nbt":"index.mois[6].majS"},{"text":"/"},{"storage":"tdh:datetime","nbt":"index.mois[6].minS"},{"text":") : dure "},{"storage":"tdh:datetime","nbt":"index.mois[6].jours","color":"yellow"},{"text":" ou "},{"storage":"tdh:datetime","nbt":"index.mois[6].joursBis","color":"yellow"},{"text":" jours."},{"text":" [X]","color":"red","hoverEvent":{"action":"show_text","contents":"Supprimer le mois n°7"},"clickEvent":{"action":"run_command","value":"/data remove storage tdh:datetime index.mois[6]"}}]
execute if score #temps dateMoisMax matches 8.. run tellraw @s [{"text":"8 — ","color":"gray","hoverEvent":{"action":"show_text","contents":[{"text":"Modifier le nom/la durée du mois n°8."}]},"clickEvent":{"action":"suggest_command","value":"/data modify storage tdh:datetime index.mois[7] set value {deDu:\"\",min:\"\",maj:\"\",minS:\"\",majS:\"\",jours:0,joursBis:0}"}},{"storage":"tdh:datetime","nbt":"index.mois[7].maj","color":"yellow"},{"text":"/"},{"storage":"tdh:datetime","nbt":"index.mois[7].min","color":"yellow"},{"text":" ("},{"storage":"tdh:datetime","nbt":"index.mois[7].majS"},{"text":"/"},{"storage":"tdh:datetime","nbt":"index.mois[7].minS"},{"text":") : dure "},{"storage":"tdh:datetime","nbt":"index.mois[7].jours","color":"gold"},{"text":" ou "},{"storage":"tdh:datetime","nbt":"index.mois[7].joursBis","color":"gold"},{"text":" jours."},{"text":" [X]","color":"red","hoverEvent":{"action":"show_text","contents":"Supprimer le mois n°8"},"clickEvent":{"action":"run_command","value":"/data remove storage tdh:datetime index.mois[7]"}}]
execute if score #temps dateMoisMax matches 9.. run tellraw @s [{"text":"9 — ","color":"gray","hoverEvent":{"action":"show_text","contents":[{"text":"Modifier le nom/la durée du mois n°9."}]},"clickEvent":{"action":"suggest_command","value":"/data modify storage tdh:datetime index.mois[8] set value {deDu:\"\",min:\"\",maj:\"\",minS:\"\",majS:\"\",jours:0,joursBis:0}"}},{"storage":"tdh:datetime","nbt":"index.mois[8].maj","color":"gold"},{"text":"/"},{"storage":"tdh:datetime","nbt":"index.mois[8].min","color":"gold"},{"text":" ("},{"storage":"tdh:datetime","nbt":"index.mois[8].majS"},{"text":"/"},{"storage":"tdh:datetime","nbt":"index.mois[8].minS"},{"text":") : dure "},{"storage":"tdh:datetime","nbt":"index.mois[8].jours","color":"yellow"},{"text":" ou "},{"storage":"tdh:datetime","nbt":"index.mois[8].joursBis","color":"yellow"},{"text":" jours."},{"text":" [X]","color":"red","hoverEvent":{"action":"show_text","contents":"Supprimer le mois n°9"},"clickEvent":{"action":"run_command","value":"/data remove storage tdh:datetime index.mois[8]"}}]
execute if score #temps dateMoisMax matches 10.. run tellraw @s [{"text":"10 — ","color":"gray","hoverEvent":{"action":"show_text","contents":[{"text":"Modifier le nom/la durée du mois n°10."}]},"clickEvent":{"action":"suggest_command","value":"/data modify storage tdh:datetime index.mois[9] set value {deDu:\"\",min:\"\",maj:\"\",minS:\"\",majS:\"\",jours:0,joursBis:0}"}},{"storage":"tdh:datetime","nbt":"index.mois[9].maj","color":"yellow"},{"text":"/"},{"storage":"tdh:datetime","nbt":"index.mois[9].min","color":"yellow"},{"text":" ("},{"storage":"tdh:datetime","nbt":"index.mois[9].majS"},{"text":"/"},{"storage":"tdh:datetime","nbt":"index.mois[9].minS"},{"text":") : dure "},{"storage":"tdh:datetime","nbt":"index.mois[9].jours","color":"gold"},{"text":" ou "},{"storage":"tdh:datetime","nbt":"index.mois[9].joursBis","color":"gold"},{"text":" jours."},{"text":" [X]","color":"red","hoverEvent":{"action":"show_text","contents":"Supprimer le mois n°10"},"clickEvent":{"action":"run_command","value":"/data remove storage tdh:datetime index.mois[9]"}}]
execute if score #temps dateMoisMax matches 11.. run tellraw @s [{"text":"11 — ","color":"gray","hoverEvent":{"action":"show_text","contents":[{"text":"Modifier le nom/la durée du mois n°11."}]},"clickEvent":{"action":"suggest_command","value":"/data modify storage tdh:datetime index.mois[10] set value {deDu:\"\",min:\"\",maj:\"\",minS:\"\",majS:\"\",jours:0,joursBis:0}"}},{"storage":"tdh:datetime","nbt":"index.mois[10].maj","color":"gold"},{"text":"/"},{"storage":"tdh:datetime","nbt":"index.mois[10].min","color":"gold"},{"text":" ("},{"storage":"tdh:datetime","nbt":"index.mois[10].majS"},{"text":"/"},{"storage":"tdh:datetime","nbt":"index.mois[10].minS"},{"text":") : dure "},{"storage":"tdh:datetime","nbt":"index.mois[10].jours","color":"yellow"},{"text":" ou "},{"storage":"tdh:datetime","nbt":"index.mois[10].joursBis","color":"yellow"},{"text":" jours."},{"text":" [X]","color":"red","hoverEvent":{"action":"show_text","contents":"Supprimer le mois n°11"},"clickEvent":{"action":"run_command","value":"/data remove storage tdh:datetime index.mois[10]"}}]
execute if score #temps dateMoisMax matches 12.. run tellraw @s [{"text":"12 — ","color":"gray","hoverEvent":{"action":"show_text","contents":[{"text":"Modifier le nom/la durée du mois n°12."}]},"clickEvent":{"action":"suggest_command","value":"/data modify storage tdh:datetime index.mois[11] set value {deDu:\"\",min:\"\",maj:\"\",minS:\"\",majS:\"\",jours:0,joursBis:0}"}},{"storage":"tdh:datetime","nbt":"index.mois[11].maj","color":"yellow"},{"text":"/"},{"storage":"tdh:datetime","nbt":"index.mois[11].min","color":"yellow"},{"text":" ("},{"storage":"tdh:datetime","nbt":"index.mois[11].majS"},{"text":"/"},{"storage":"tdh:datetime","nbt":"index.mois[11].minS"},{"text":") : dure "},{"storage":"tdh:datetime","nbt":"index.mois[11].jours","color":"gold"},{"text":" ou "},{"storage":"tdh:datetime","nbt":"index.mois[11].joursBis","color":"gold"},{"text":" jours."},{"text":" [X]","color":"red","hoverEvent":{"action":"show_text","contents":"Supprimer le mois n°12"},"clickEvent":{"action":"run_command","value":"/data remove storage tdh:datetime index.mois[11]"}}]
execute if score #temps dateMoisMax matches 13.. run tellraw @s [{"text":"13 — ","color":"gray","hoverEvent":{"action":"show_text","contents":[{"text":"Modifier le nom/la durée du mois n°13."}]},"clickEvent":{"action":"suggest_command","value":"/data modify storage tdh:datetime index.mois[12] set value {deDu:\"\",min:\"\",maj:\"\",minS:\"\",majS:\"\",jours:0,joursBis:0}"}},{"storage":"tdh:datetime","nbt":"index.mois[12].maj","color":"gold"},{"text":"/"},{"storage":"tdh:datetime","nbt":"index.mois[12].min","color":"gold"},{"text":" ("},{"storage":"tdh:datetime","nbt":"index.mois[12].majS"},{"text":"/"},{"storage":"tdh:datetime","nbt":"index.mois[12].minS"},{"text":") : dure "},{"storage":"tdh:datetime","nbt":"index.mois[12].jours","color":"yellow"},{"text":" ou "},{"storage":"tdh:datetime","nbt":"index.mois[12].joursBis","color":"yellow"},{"text":" jours."},{"text":" [X]","color":"red","hoverEvent":{"action":"show_text","contents":"Supprimer le mois n°13"},"clickEvent":{"action":"run_command","value":"/data remove storage tdh:datetime index.mois[12]"}}]
execute if score #temps dateMoisMax matches 14.. run tellraw @s [{"text":"14 — ","color":"gray","hoverEvent":{"action":"show_text","contents":[{"text":"Modifier le nom/la durée du mois n°14."}]},"clickEvent":{"action":"suggest_command","value":"/data modify storage tdh:datetime index.mois[13] set value {deDu:\"\",min:\"\",maj:\"\",minS:\"\",majS:\"\",jours:0,joursBis:0}"}},{"storage":"tdh:datetime","nbt":"index.mois[13].maj","color":"yellow"},{"text":"/"},{"storage":"tdh:datetime","nbt":"index.mois[13].min","color":"yellow"},{"text":" ("},{"storage":"tdh:datetime","nbt":"index.mois[13].majS"},{"text":"/"},{"storage":"tdh:datetime","nbt":"index.mois[13].minS"},{"text":") : dure "},{"storage":"tdh:datetime","nbt":"index.mois[13].jours","color":"gold"},{"text":" ou "},{"storage":"tdh:datetime","nbt":"index.mois[13].joursBis","color":"gold"},{"text":" jours."},{"text":" [X]","color":"red","hoverEvent":{"action":"show_text","contents":"Supprimer le mois n°14"},"clickEvent":{"action":"run_command","value":"/data remove storage tdh:datetime index.mois[13]"}}]
execute if score #temps dateMoisMax matches 15.. run tellraw @s [{"text":"15 — ","color":"gray","hoverEvent":{"action":"show_text","contents":[{"text":"Modifier le nom/la durée du mois n°15."}]},"clickEvent":{"action":"suggest_command","value":"/data modify storage tdh:datetime index.mois[14] set value {deDu:\"\",min:\"\",maj:\"\",minS:\"\",majS:\"\",jours:0,joursBis:0}"}},{"storage":"tdh:datetime","nbt":"index.mois[14].maj","color":"gold"},{"text":"/"},{"storage":"tdh:datetime","nbt":"index.mois[14].min","color":"gold"},{"text":" ("},{"storage":"tdh:datetime","nbt":"index.mois[14].majS"},{"text":"/"},{"storage":"tdh:datetime","nbt":"index.mois[14].minS"},{"text":") : dure "},{"storage":"tdh:datetime","nbt":"index.mois[14].jours","color":"yellow"},{"text":" ou "},{"storage":"tdh:datetime","nbt":"index.mois[14].joursBis","color":"yellow"},{"text":" jours."},{"text":" [X]","color":"red","hoverEvent":{"action":"show_text","contents":"Supprimer le mois n°15"},"clickEvent":{"action":"run_command","value":"/data remove storage tdh:datetime index.mois[14]"}}]
execute if score #temps dateMoisMax matches 16.. run tellraw @s [{"text":"16 — ","color":"gray","hoverEvent":{"action":"show_text","contents":[{"text":"Modifier le nom/la durée du mois n°16."}]},"clickEvent":{"action":"suggest_command","value":"/data modify storage tdh:datetime index.mois[15] set value {deDu:\"\",min:\"\",maj:\"\",minS:\"\",majS:\"\",jours:0,joursBis:0}"}},{"storage":"tdh:datetime","nbt":"index.mois[15].maj","color":"yellow"},{"text":"/"},{"storage":"tdh:datetime","nbt":"index.mois[15].min","color":"yellow"},{"text":" ("},{"storage":"tdh:datetime","nbt":"index.mois[15].majS"},{"text":"/"},{"storage":"tdh:datetime","nbt":"index.mois[15].minS"},{"text":") : dure "},{"storage":"tdh:datetime","nbt":"index.mois[15].jours","color":"gold"},{"text":" ou "},{"storage":"tdh:datetime","nbt":"index.mois[15].joursBis","color":"gold"},{"text":" jours."},{"text":" [X]","color":"red","hoverEvent":{"action":"show_text","contents":"Supprimer le mois n°16"},"clickEvent":{"action":"run_command","value":"/data remove storage tdh:datetime index.mois[15]"}}]
execute if score #temps dateMoisMax matches 17.. run tellraw @s [{"text":"17 — ","color":"gray","hoverEvent":{"action":"show_text","contents":[{"text":"Modifier le nom/la durée du mois n°17."}]},"clickEvent":{"action":"suggest_command","value":"/data modify storage tdh:datetime index.mois[16] set value {deDu:\"\",min:\"\",maj:\"\",minS:\"\",majS:\"\",jours:0,joursBis:0}"}},{"storage":"tdh:datetime","nbt":"index.mois[16].maj","color":"gold"},{"text":"/"},{"storage":"tdh:datetime","nbt":"index.mois[16].min","color":"gold"},{"text":" ("},{"storage":"tdh:datetime","nbt":"index.mois[16].majS"},{"text":"/"},{"storage":"tdh:datetime","nbt":"index.mois[16].minS"},{"text":") : dure "},{"storage":"tdh:datetime","nbt":"index.mois[16].jours","color":"yellow"},{"text":" ou "},{"storage":"tdh:datetime","nbt":"index.mois[16].joursBis","color":"yellow"},{"text":" jours."},{"text":" [X]","color":"red","hoverEvent":{"action":"show_text","contents":"Supprimer le mois n°17"},"clickEvent":{"action":"run_command","value":"/data remove storage tdh:datetime index.mois[16]"}}]
execute if score #temps dateMoisMax matches 18.. run tellraw @s [{"text":"18 — ","color":"gray","hoverEvent":{"action":"show_text","contents":[{"text":"Modifier le nom/la durée du mois n°18."}]},"clickEvent":{"action":"suggest_command","value":"/data modify storage tdh:datetime index.mois[17] set value {deDu:\"\",min:\"\",maj:\"\",minS:\"\",majS:\"\",jours:0,joursBis:0}"}},{"storage":"tdh:datetime","nbt":"index.mois[17].maj","color":"yellow"},{"text":"/"},{"storage":"tdh:datetime","nbt":"index.mois[17].min","color":"yellow"},{"text":" ("},{"storage":"tdh:datetime","nbt":"index.mois[17].majS"},{"text":"/"},{"storage":"tdh:datetime","nbt":"index.mois[17].minS"},{"text":") : dure "},{"storage":"tdh:datetime","nbt":"index.mois[17].jours","color":"gold"},{"text":" ou "},{"storage":"tdh:datetime","nbt":"index.mois[17].joursBis","color":"gold"},{"text":" jours."},{"text":" [X]","color":"red","hoverEvent":{"action":"show_text","contents":"Supprimer le mois n°18"},"clickEvent":{"action":"run_command","value":"/data remove storage tdh:datetime index.mois[17]"}}]
execute if score #temps dateMoisMax matches 19.. run tellraw @s [{"text":"19 — ","color":"gray","hoverEvent":{"action":"show_text","contents":[{"text":"Modifier le nom/la durée du mois n°19."}]},"clickEvent":{"action":"suggest_command","value":"/data modify storage tdh:datetime index.mois[18] set value {deDu:\"\",min:\"\",maj:\"\",minS:\"\",majS:\"\",jours:0,joursBis:0}"}},{"storage":"tdh:datetime","nbt":"index.mois[18].maj","color":"gold"},{"text":"/"},{"storage":"tdh:datetime","nbt":"index.mois[18].min","color":"gold"},{"text":" ("},{"storage":"tdh:datetime","nbt":"index.mois[18].majS"},{"text":"/"},{"storage":"tdh:datetime","nbt":"index.mois[18].minS"},{"text":") : dure "},{"storage":"tdh:datetime","nbt":"index.mois[18].jours","color":"yellow"},{"text":" ou "},{"storage":"tdh:datetime","nbt":"index.mois[18].joursBis","color":"yellow"},{"text":" jours."},{"text":" [X]","color":"red","hoverEvent":{"action":"show_text","contents":"Supprimer le mois n°19"},"clickEvent":{"action":"run_command","value":"/data remove storage tdh:datetime index.mois[18]"}}]
execute if score #temps dateMoisMax matches 20.. run tellraw @s [{"text":"20 — ","color":"gray","hoverEvent":{"action":"show_text","contents":[{"text":"Modifier le nom/la durée du mois n°20."}]},"clickEvent":{"action":"suggest_command","value":"/data modify storage tdh:datetime index.mois[19] set value {deDu:\"\",min:\"\",maj:\"\",minS:\"\",majS:\"\",jours:0,joursBis:0}"}},{"storage":"tdh:datetime","nbt":"index.mois[19].maj","color":"yellow"},{"text":"/"},{"storage":"tdh:datetime","nbt":"index.mois[19].min","color":"yellow"},{"text":" ("},{"storage":"tdh:datetime","nbt":"index.mois[19].majS"},{"text":"/"},{"storage":"tdh:datetime","nbt":"index.mois[19].minS"},{"text":") : dure "},{"storage":"tdh:datetime","nbt":"index.mois[19].jours","color":"gold"},{"text":" ou "},{"storage":"tdh:datetime","nbt":"index.mois[19].joursBis","color":"gold"},{"text":" jours."},{"text":" [X]","color":"red","hoverEvent":{"action":"show_text","contents":"Supprimer le mois n°20"},"clickEvent":{"action":"run_command","value":"/data remove storage tdh:datetime index.mois[19]"}}]
execute if score #temps dateMoisMax matches 21.. run tellraw @s [{"text":"21 — ","color":"gray","hoverEvent":{"action":"show_text","contents":[{"text":"Modifier le nom/la durée du mois n°21."}]},"clickEvent":{"action":"suggest_command","value":"/data modify storage tdh:datetime index.mois[20] set value {deDu:\"\",min:\"\",maj:\"\",minS:\"\",majS:\"\",jours:0,joursBis:0}"}},{"storage":"tdh:datetime","nbt":"index.mois[20].maj","color":"gold"},{"text":"/"},{"storage":"tdh:datetime","nbt":"index.mois[20].min","color":"gold"},{"text":" ("},{"storage":"tdh:datetime","nbt":"index.mois[20].majS"},{"text":"/"},{"storage":"tdh:datetime","nbt":"index.mois[20].minS"},{"text":") : dure "},{"storage":"tdh:datetime","nbt":"index.mois[20].jours","color":"yellow"},{"text":" ou "},{"storage":"tdh:datetime","nbt":"index.mois[20].joursBis","color":"yellow"},{"text":" jours."},{"text":" [X]","color":"red","hoverEvent":{"action":"show_text","contents":"Supprimer le mois n°21"},"clickEvent":{"action":"run_command","value":"/data remove storage tdh:datetime index.mois[20]"}}]
execute if score #temps dateMoisMax matches 22.. run tellraw @s [{"text":"22 — ","color":"gray","hoverEvent":{"action":"show_text","contents":[{"text":"Modifier le nom/la durée du mois n°22."}]},"clickEvent":{"action":"suggest_command","value":"/data modify storage tdh:datetime index.mois[21] set value {deDu:\"\",min:\"\",maj:\"\",minS:\"\",majS:\"\",jours:0,joursBis:0}"}},{"storage":"tdh:datetime","nbt":"index.mois[21].maj","color":"yellow"},{"text":"/"},{"storage":"tdh:datetime","nbt":"index.mois[21].min","color":"yellow"},{"text":" ("},{"storage":"tdh:datetime","nbt":"index.mois[21].majS"},{"text":"/"},{"storage":"tdh:datetime","nbt":"index.mois[21].minS"},{"text":") : dure "},{"storage":"tdh:datetime","nbt":"index.mois[21].jours","color":"gold"},{"text":" ou "},{"storage":"tdh:datetime","nbt":"index.mois[21].joursBis","color":"gold"},{"text":" jours."},{"text":" [X]","color":"red","hoverEvent":{"action":"show_text","contents":"Supprimer le mois n°22"},"clickEvent":{"action":"run_command","value":"/data remove storage tdh:datetime index.mois[21]"}}]
execute if score #temps dateMoisMax matches 23.. run tellraw @s [{"text":"23 — ","color":"gray","hoverEvent":{"action":"show_text","contents":[{"text":"Modifier le nom/la durée du mois n°23."}]},"clickEvent":{"action":"suggest_command","value":"/data modify storage tdh:datetime index.mois[22] set value {deDu:\"\",min:\"\",maj:\"\",minS:\"\",majS:\"\",jours:0,joursBis:0}"}},{"storage":"tdh:datetime","nbt":"index.mois[22].maj","color":"gold"},{"text":"/"},{"storage":"tdh:datetime","nbt":"index.mois[22].min","color":"gold"},{"text":" ("},{"storage":"tdh:datetime","nbt":"index.mois[22].majS"},{"text":"/"},{"storage":"tdh:datetime","nbt":"index.mois[22].minS"},{"text":") : dure "},{"storage":"tdh:datetime","nbt":"index.mois[22].jours","color":"yellow"},{"text":" ou "},{"storage":"tdh:datetime","nbt":"index.mois[22].joursBis","color":"yellow"},{"text":" jours."},{"text":" [X]","color":"red","hoverEvent":{"action":"show_text","contents":"Supprimer le mois n°23"},"clickEvent":{"action":"run_command","value":"/data remove storage tdh:datetime index.mois[22]"}}]
execute if score #temps dateMoisMax matches 24.. run tellraw @s [{"text":"24 — ","color":"gray","hoverEvent":{"action":"show_text","contents":[{"text":"Modifier le nom/la durée du mois n°24."}]},"clickEvent":{"action":"suggest_command","value":"/data modify storage tdh:datetime index.mois[23] set value {deDu:\"\",min:\"\",maj:\"\",minS:\"\",majS:\"\",jours:0,joursBis:0}"}},{"storage":"tdh:datetime","nbt":"index.mois[23].maj","color":"yellow"},{"text":"/"},{"storage":"tdh:datetime","nbt":"index.mois[23].min","color":"yellow"},{"text":" ("},{"storage":"tdh:datetime","nbt":"index.mois[23].majS"},{"text":"/"},{"storage":"tdh:datetime","nbt":"index.mois[23].minS"},{"text":") : dure "},{"storage":"tdh:datetime","nbt":"index.mois[23].jours","color":"gold"},{"text":" ou "},{"storage":"tdh:datetime","nbt":"index.mois[23].joursBis","color":"gold"},{"text":" jours."},{"text":" [X]","color":"red","hoverEvent":{"action":"show_text","contents":"Supprimer le mois n°24"},"clickEvent":{"action":"run_command","value":"/data remove storage tdh:datetime index.mois[23]"}}]

# On propose à la toute fin la possibilité d'ajouter un mois supplémentaire (sauf si on est déjà à 24)
scoreboard players operation #temps temp = #temps dateMoisMax
scoreboard players add #temps temp 1
execute if score #temps dateMoisMax matches ..23 run tellraw @s [{"score":{"name":"#temps","objective":"temp"},"color":"gray","hoverEvent":{"action":"show_text","contents":[{"text":"Ajouter un mois supplémentaire."}]},"clickEvent":{"action":"suggest_command","value":"/data modify storage tdh:datetime index.mois append value {deDu:\"\",min:\"\",maj:\"\",minS:\"\",majS:\"\",jours:0,joursBis:0}"}},{"text":" — Nouveau mois ","italic":"true"},{"text":"(aide)","color":"green","hoverEvent":{"action":"show_text","contents":[{"text":"Valeurs d'exemple pour les différents champs :\n"},{"text":"min","color":"gold"},{"text":" = "},{"text":"janvier\n","color":"gold"},{"text":"maj","color":"yellow"},{"text":" = "},{"text":"Janvier\n","color":"yellow"},{"text":"minS","color":"gold"},{"text":" = "},{"text":"jan.\n","color":"gold"},{"text":"maj","color":"yellow"},{"text":" = "},{"text":"Jan.\n","color":"yellow"},{"text":"deDu","color":"gold"},{"text":" = "},{"text":"le mois "},{"text":"de ","color":"gold"},{"text":"janvier\n"},{"text":"Pour deDu, penser à ajouter un espace à la fin\ns'il doit y en avoir un : par exemple, pour le mois de février, on écrirait «de »,\ntandis que pour octobre on écrirait «d'» sans espace.","color":"red","italic":"true"}]}}]
scoreboard players reset #temps temp

# On propose également de supprimer tout
execute if score #temps dateMoisMax matches 2.. run tellraw @s [{"text":"Tout supprimer","color":"red","italic":"true","hoverEvent":{"action":"show_text","contents":[{"text":"Supprime tous les mois."}]},"clickEvent":{"action":"run_command","value":"/data modify storage tdh:datetime index.mois set value []"}}]

tellraw @s [{"text":"——————————————————————————","color":"gray"}]

tellraw @s [{"text":"Actualiser l'affichage","color":"yellow","hoverEvent":{"action":"show_text","contents":"Actualise ce menu, pour afficher les modifications éventuelles."},"clickEvent":{"action":"run_command","value":"/trigger config set 1"}}]
tellraw @s [{"text":"Valider la configuration actuelle","color":"gold","hoverEvent":{"action":"show_text","contents":"Sauvegarde toutes les modifications apportées aux mois, et retourne au menu principal."},"clickEvent":{"action":"run_command","value":"/trigger config set 2"}}]
tellraw @s [{"text":"Annuler toutes les modifications","color":"red","hoverEvent":{"action":"show_text","contents":"Annule toutes les modifications apportées aux mois, et retourne au menu principal."},"clickEvent":{"action":"run_command","value":"/trigger config set 3"}}]