## DÉFINITION DES SEMAINES

# On enregistre l'état original de la config des semaines
#  (sauf si on en a déjà sauvegardé une sans la supprimer)
execute unless data storage tdh:datetime index_backup.jour_semaine run data modify storage tdh:datetime index_backup.jour_semaine set from storage tdh:datetime index.jour_semaine

# On active l'objectif de configuration à trigger
scoreboard players set @s configID 50000
scoreboard players set @s config 0
scoreboard players enable @s config

# On (re)calcule la durée actuelle des semaines
function tdh:time/init/subdivisions/calcul_semaine


# On s'excuse pour la taille colossale de ce fichier
# mais on ne peut toujours pas spécifier une variable dans un tag NBT donc il faut une ligne par valeur possible :)
tellraw @s [{"text":"CONFIGURATEUR TDH-TIME","color":"gold"}]
tellraw @s [{"text":"——————————————————————————\nVoici la configuration actuelle des semaines :","color":"gray"},{"text":"\n[Afficher l'aide]","color":"yellow","italic":"true","hoverEvent":{"action":"show_text","contents":[{"text":"Tous les champs du jour sont à spécifier. Voici à quoi chacun d'entre eux correspond :\n - ","color":"gray"},{"text":"min","color":"gold"},{"text":" = nom complet, en minuscules ("},{"text":"mercredi","color":"gold","italic":"true"},{"text":")\n - "},{"text":"maj","color":"yellow"},{"text":" = nom complet, avec majuscule ("},{"text":"Mercredi","color":"yellow","italic":"true"},{"text":")\n - "},{"text":"minS","color":"gold"},{"text":" = nom court, en minuscules ("},{"text":"mer.","color":"gold","italic":"true"},{"text":")\n - "},{"text":"majS","color":"yellow"},{"text":" = nom court, avec majuscule ("},{"text":"Mer.","color":"yellow","italic":"true"},{"text":")\n - "}]}}]

execute if score #temps jourSemaineMax matches 1.. run tellraw @s [{"text":"1 — ","color":"gray","hoverEvent":{"action":"show_text","contents":[{"text":"Modifier le nom/la durée du jour n°1."}]},"clickEvent":{"action":"suggest_command","value":"/data modify storage tdh:datetime index.jour_semaine[0] set value {min:\"\",maj:\"\",minS:\"\",majS:\"\"}"}},{"storage":"tdh:datetime","nbt":"index.jour_semaine[0].maj","color":"gold"},{"text":"/"},{"storage":"tdh:datetime","nbt":"index.jour_semaine[0].min","color":"gold"},{"text":" ("},{"storage":"tdh:datetime","nbt":"index.jour_semaine[0].majS"},{"text":"/"},{"storage":"tdh:datetime","nbt":"index.jour_semaine[0].minS"},{"text":")"},{"text":" [X]","color":"red","hoverEvent":{"action":"show_text","contents":"Supprimer le jour n°1"},"clickEvent":{"action":"run_command","value":"/data remove storage tdh:datetime index.jour_semaine[0]"}}]
execute if score #temps jourSemaineMax matches 2.. run tellraw @s [{"text":"2 — ","color":"gray","hoverEvent":{"action":"show_text","contents":[{"text":"Modifier le nom/la durée du jour n°2."}]},"clickEvent":{"action":"suggest_command","value":"/data modify storage tdh:datetime index.jour_semaine[1] set value {min:\"\",maj:\"\",minS:\"\",majS:\"\"}"}},{"storage":"tdh:datetime","nbt":"index.jour_semaine[1].maj","color":"yellow"},{"text":"/"},{"storage":"tdh:datetime","nbt":"index.jour_semaine[1].min","color":"yellow"},{"text":" ("},{"storage":"tdh:datetime","nbt":"index.jour_semaine[1].majS"},{"text":"/"},{"storage":"tdh:datetime","nbt":"index.jour_semaine[1].minS"},{"text":")"},{"text":" [X]","color":"red","hoverEvent":{"action":"show_text","contents":"Supprimer le jour n°2"},"clickEvent":{"action":"run_command","value":"/data remove storage tdh:datetime index.jour_semaine[1]"}}]
execute if score #temps jourSemaineMax matches 3.. run tellraw @s [{"text":"3 — ","color":"gray","hoverEvent":{"action":"show_text","contents":[{"text":"Modifier le nom/la durée du jour n°3."}]},"clickEvent":{"action":"suggest_command","value":"/data modify storage tdh:datetime index.jour_semaine[2] set value {min:\"\",maj:\"\",minS:\"\",majS:\"\"}"}},{"storage":"tdh:datetime","nbt":"index.jour_semaine[2].maj","color":"gold"},{"text":"/"},{"storage":"tdh:datetime","nbt":"index.jour_semaine[2].min","color":"gold"},{"text":" ("},{"storage":"tdh:datetime","nbt":"index.jour_semaine[2].majS"},{"text":"/"},{"storage":"tdh:datetime","nbt":"index.jour_semaine[2].minS"},{"text":")"},{"text":" [X]","color":"red","hoverEvent":{"action":"show_text","contents":"Supprimer le jour n°3"},"clickEvent":{"action":"run_command","value":"/data remove storage tdh:datetime index.jour_semaine[2]"}}]
execute if score #temps jourSemaineMax matches 4.. run tellraw @s [{"text":"4 — ","color":"gray","hoverEvent":{"action":"show_text","contents":[{"text":"Modifier le nom/la durée du jour n°4."}]},"clickEvent":{"action":"suggest_command","value":"/data modify storage tdh:datetime index.jour_semaine[3] set value {min:\"\",maj:\"\",minS:\"\",majS:\"\"}"}},{"storage":"tdh:datetime","nbt":"index.jour_semaine[3].maj","color":"yellow"},{"text":"/"},{"storage":"tdh:datetime","nbt":"index.jour_semaine[3].min","color":"yellow"},{"text":" ("},{"storage":"tdh:datetime","nbt":"index.jour_semaine[3].majS"},{"text":"/"},{"storage":"tdh:datetime","nbt":"index.jour_semaine[3].minS"},{"text":")"},{"text":" [X]","color":"red","hoverEvent":{"action":"show_text","contents":"Supprimer le jour n°4"},"clickEvent":{"action":"run_command","value":"/data remove storage tdh:datetime index.jour_semaine[3]"}}]
execute if score #temps jourSemaineMax matches 5.. run tellraw @s [{"text":"5 — ","color":"gray","hoverEvent":{"action":"show_text","contents":[{"text":"Modifier le nom/la durée du jour n°5."}]},"clickEvent":{"action":"suggest_command","value":"/data modify storage tdh:datetime index.jour_semaine[4] set value {min:\"\",maj:\"\",minS:\"\",majS:\"\"}"}},{"storage":"tdh:datetime","nbt":"index.jour_semaine[4].maj","color":"gold"},{"text":"/"},{"storage":"tdh:datetime","nbt":"index.jour_semaine[4].min","color":"gold"},{"text":" ("},{"storage":"tdh:datetime","nbt":"index.jour_semaine[4].majS"},{"text":"/"},{"storage":"tdh:datetime","nbt":"index.jour_semaine[4].minS"},{"text":")"},{"text":" [X]","color":"red","hoverEvent":{"action":"show_text","contents":"Supprimer le jour n°5"},"clickEvent":{"action":"run_command","value":"/data remove storage tdh:datetime index.jour_semaine[4]"}}]
execute if score #temps jourSemaineMax matches 6.. run tellraw @s [{"text":"6 — ","color":"gray","hoverEvent":{"action":"show_text","contents":[{"text":"Modifier le nom/la durée du jour n°6."}]},"clickEvent":{"action":"suggest_command","value":"/data modify storage tdh:datetime index.jour_semaine[5] set value {min:\"\",maj:\"\",minS:\"\",majS:\"\"}"}},{"storage":"tdh:datetime","nbt":"index.jour_semaine[5].maj","color":"yellow"},{"text":"/"},{"storage":"tdh:datetime","nbt":"index.jour_semaine[5].min","color":"yellow"},{"text":" ("},{"storage":"tdh:datetime","nbt":"index.jour_semaine[5].majS"},{"text":"/"},{"storage":"tdh:datetime","nbt":"index.jour_semaine[5].minS"},{"text":")"},{"text":" [X]","color":"red","hoverEvent":{"action":"show_text","contents":"Supprimer le jour n°6"},"clickEvent":{"action":"run_command","value":"/data remove storage tdh:datetime index.jour_semaine[5]"}}]
execute if score #temps jourSemaineMax matches 7.. run tellraw @s [{"text":"7 — ","color":"gray","hoverEvent":{"action":"show_text","contents":[{"text":"Modifier le nom/la durée du jour n°7."}]},"clickEvent":{"action":"suggest_command","value":"/data modify storage tdh:datetime index.jour_semaine[6] set value {min:\"\",maj:\"\",minS:\"\",majS:\"\"}"}},{"storage":"tdh:datetime","nbt":"index.jour_semaine[6].maj","color":"gold"},{"text":"/"},{"storage":"tdh:datetime","nbt":"index.jour_semaine[6].min","color":"gold"},{"text":" ("},{"storage":"tdh:datetime","nbt":"index.jour_semaine[6].majS"},{"text":"/"},{"storage":"tdh:datetime","nbt":"index.jour_semaine[6].minS"},{"text":")"},{"text":" [X]","color":"red","hoverEvent":{"action":"show_text","contents":"Supprimer le jour n°7"},"clickEvent":{"action":"run_command","value":"/data remove storage tdh:datetime index.jour_semaine[6]"}}]
execute if score #temps jourSemaineMax matches 8.. run tellraw @s [{"text":"8 — ","color":"gray","hoverEvent":{"action":"show_text","contents":[{"text":"Modifier le nom/la durée du jour n°8."}]},"clickEvent":{"action":"suggest_command","value":"/data modify storage tdh:datetime index.jour_semaine[7] set value {min:\"\",maj:\"\",minS:\"\",majS:\"\"}"}},{"storage":"tdh:datetime","nbt":"index.jour_semaine[7].maj","color":"yellow"},{"text":"/"},{"storage":"tdh:datetime","nbt":"index.jour_semaine[7].min","color":"yellow"},{"text":" ("},{"storage":"tdh:datetime","nbt":"index.jour_semaine[7].majS"},{"text":"/"},{"storage":"tdh:datetime","nbt":"index.jour_semaine[7].minS"},{"text":")"},{"text":" [X]","color":"red","hoverEvent":{"action":"show_text","contents":"Supprimer le jour n°8"},"clickEvent":{"action":"run_command","value":"/data remove storage tdh:datetime index.jour_semaine[7]"}}]
execute if score #temps jourSemaineMax matches 9.. run tellraw @s [{"text":"9 — ","color":"gray","hoverEvent":{"action":"show_text","contents":[{"text":"Modifier le nom/la durée du jour n°9."}]},"clickEvent":{"action":"suggest_command","value":"/data modify storage tdh:datetime index.jour_semaine[8] set value {min:\"\",maj:\"\",minS:\"\",majS:\"\"}"}},{"storage":"tdh:datetime","nbt":"index.jour_semaine[8].maj","color":"gold"},{"text":"/"},{"storage":"tdh:datetime","nbt":"index.jour_semaine[8].min","color":"gold"},{"text":" ("},{"storage":"tdh:datetime","nbt":"index.jour_semaine[8].majS"},{"text":"/"},{"storage":"tdh:datetime","nbt":"index.jour_semaine[8].minS"},{"text":")"},{"text":" [X]","color":"red","hoverEvent":{"action":"show_text","contents":"Supprimer le jour n°9"},"clickEvent":{"action":"run_command","value":"/data remove storage tdh:datetime index.jour_semaine[8]"}}]
execute if score #temps jourSemaineMax matches 10.. run tellraw @s [{"text":"10 — ","color":"gray","hoverEvent":{"action":"show_text","contents":[{"text":"Modifier le nom/la durée du jour n°10."}]},"clickEvent":{"action":"suggest_command","value":"/data modify storage tdh:datetime index.jour_semaine[9] set value {min:\"\",maj:\"\",minS:\"\",majS:\"\"}"}},{"storage":"tdh:datetime","nbt":"index.jour_semaine[9].maj","color":"yellow"},{"text":"/"},{"storage":"tdh:datetime","nbt":"index.jour_semaine[9].min","color":"yellow"},{"text":" ("},{"storage":"tdh:datetime","nbt":"index.jour_semaine[9].majS"},{"text":"/"},{"storage":"tdh:datetime","nbt":"index.jour_semaine[9].minS"},{"text":")"},{"text":" [X]","color":"red","hoverEvent":{"action":"show_text","contents":"Supprimer le jour n°10"},"clickEvent":{"action":"run_command","value":"/data remove storage tdh:datetime index.jour_semaine[9]"}}]
execute if score #temps jourSemaineMax matches 11.. run tellraw @s [{"text":"11 — ","color":"gray","hoverEvent":{"action":"show_text","contents":[{"text":"Modifier le nom/la durée du jour n°11."}]},"clickEvent":{"action":"suggest_command","value":"/data modify storage tdh:datetime index.jour_semaine[10] set value {min:\"\",maj:\"\",minS:\"\",majS:\"\"}"}},{"storage":"tdh:datetime","nbt":"index.jour_semaine[10].maj","color":"gold"},{"text":"/"},{"storage":"tdh:datetime","nbt":"index.jour_semaine[10].min","color":"gold"},{"text":" ("},{"storage":"tdh:datetime","nbt":"index.jour_semaine[10].majS"},{"text":"/"},{"storage":"tdh:datetime","nbt":"index.jour_semaine[10].minS"},{"text":")"},{"text":" [X]","color":"red","hoverEvent":{"action":"show_text","contents":"Supprimer le jour n°11"},"clickEvent":{"action":"run_command","value":"/data remove storage tdh:datetime index.jour_semaine[10]"}}]
execute if score #temps jourSemaineMax matches 12.. run tellraw @s [{"text":"12 — ","color":"gray","hoverEvent":{"action":"show_text","contents":[{"text":"Modifier le nom/la durée du jour n°12."}]},"clickEvent":{"action":"suggest_command","value":"/data modify storage tdh:datetime index.jour_semaine[11] set value {min:\"\",maj:\"\",minS:\"\",majS:\"\"}"}},{"storage":"tdh:datetime","nbt":"index.jour_semaine[11].maj","color":"yellow"},{"text":"/"},{"storage":"tdh:datetime","nbt":"index.jour_semaine[11].min","color":"yellow"},{"text":" ("},{"storage":"tdh:datetime","nbt":"index.jour_semaine[11].majS"},{"text":"/"},{"storage":"tdh:datetime","nbt":"index.jour_semaine[11].minS"},{"text":")"},{"text":" [X]","color":"red","hoverEvent":{"action":"show_text","contents":"Supprimer le jour n°12"},"clickEvent":{"action":"run_command","value":"/data remove storage tdh:datetime index.jour_semaine[11]"}}]
execute if score #temps jourSemaineMax matches 13.. run tellraw @s [{"text":"13 — ","color":"gray","hoverEvent":{"action":"show_text","contents":[{"text":"Modifier le nom/la durée du jour n°13."}]},"clickEvent":{"action":"suggest_command","value":"/data modify storage tdh:datetime index.jour_semaine[12] set value {min:\"\",maj:\"\",minS:\"\",majS:\"\"}"}},{"storage":"tdh:datetime","nbt":"index.jour_semaine[12].maj","color":"gold"},{"text":"/"},{"storage":"tdh:datetime","nbt":"index.jour_semaine[12].min","color":"gold"},{"text":" ("},{"storage":"tdh:datetime","nbt":"index.jour_semaine[12].majS"},{"text":"/"},{"storage":"tdh:datetime","nbt":"index.jour_semaine[12].minS"},{"text":")"},{"text":" [X]","color":"red","hoverEvent":{"action":"show_text","contents":"Supprimer le jour n°13"},"clickEvent":{"action":"run_command","value":"/data remove storage tdh:datetime index.jour_semaine[12]"}}]
execute if score #temps jourSemaineMax matches 14.. run tellraw @s [{"text":"14 — ","color":"gray","hoverEvent":{"action":"show_text","contents":[{"text":"Modifier le nom/la durée du jour n°14."}]},"clickEvent":{"action":"suggest_command","value":"/data modify storage tdh:datetime index.jour_semaine[13] set value {min:\"\",maj:\"\",minS:\"\",majS:\"\"}"}},{"storage":"tdh:datetime","nbt":"index.jour_semaine[13].maj","color":"yellow"},{"text":"/"},{"storage":"tdh:datetime","nbt":"index.jour_semaine[13].min","color":"yellow"},{"text":" ("},{"storage":"tdh:datetime","nbt":"index.jour_semaine[13].majS"},{"text":"/"},{"storage":"tdh:datetime","nbt":"index.jour_semaine[13].minS"},{"text":")"},{"text":" [X]","color":"red","hoverEvent":{"action":"show_text","contents":"Supprimer le jour n°14"},"clickEvent":{"action":"run_command","value":"/data remove storage tdh:datetime index.jour_semaine[13]"}}]
execute if score #temps jourSemaineMax matches 15.. run tellraw @s [{"text":"15 — ","color":"gray","hoverEvent":{"action":"show_text","contents":[{"text":"Modifier le nom/la durée du jour n°15."}]},"clickEvent":{"action":"suggest_command","value":"/data modify storage tdh:datetime index.jour_semaine[14] set value {min:\"\",maj:\"\",minS:\"\",majS:\"\"}"}},{"storage":"tdh:datetime","nbt":"index.jour_semaine[14].maj","color":"gold"},{"text":"/"},{"storage":"tdh:datetime","nbt":"index.jour_semaine[14].min","color":"gold"},{"text":" ("},{"storage":"tdh:datetime","nbt":"index.jour_semaine[14].majS"},{"text":"/"},{"storage":"tdh:datetime","nbt":"index.jour_semaine[14].minS"},{"text":")"},{"text":" [X]","color":"red","hoverEvent":{"action":"show_text","contents":"Supprimer le jour n°15"},"clickEvent":{"action":"run_command","value":"/data remove storage tdh:datetime index.jour_semaine[14]"}}]

# On propose à la toute fin la possibilité d'ajouter un jour supplémentaire (sauf si on est déjà à 15)
scoreboard players operation #temps temp = #temps jourSemaineMax
scoreboard players add #temps temp 1
execute if score #temps jourSemaineMax matches ..14 run tellraw @s [{"score":{"name":"#temps","objective":"temp"},"color":"gray","hoverEvent":{"action":"show_text","contents":[{"text":"Ajouter un jour supplémentaire."}]},"clickEvent":{"action":"suggest_command","value":"/data modify storage tdh:datetime index.jour_semaine append value {min:\"\",maj:\"\",minS:\"\",majS:\"\"}"}},{"text":" — Nouveau jour de la semaine","italic":"true"}]
scoreboard players reset #temps temp

# On propose également de supprimer tout
execute if score #temps jourSemaineMax matches 2.. run tellraw @s [{"text":"Tout supprimer","color":"red","italic":"true","hoverEvent":{"action":"show_text","contents":[{"text":"Supprime tous les jours de la semaine."}]},"clickEvent":{"action":"run_command","value":"/data modify storage tdh:datetime index.jour_semaine set value []"}}]

tellraw @s [{"text":"——————————————————————————","color":"gray"}]

tellraw @s [{"text":"Actualiser l'affichage","color":"yellow","hoverEvent":{"action":"show_text","contents":"Actualise ce menu, pour afficher les modifications éventuelles."},"clickEvent":{"action":"run_command","value":"/trigger config set 1"}}]
tellraw @s [{"text":"Valider la configuration actuelle","color":"gold","hoverEvent":{"action":"show_text","contents":"Sauvegarde toutes les modifications apportées aux semaines, et retourne au menu principal."},"clickEvent":{"action":"run_command","value":"/trigger config set 2"}}]
tellraw @s [{"text":"Annuler toutes les modifications","color":"red","hoverEvent":{"action":"show_text","contents":"Annule toutes les modifications apportées aux semaines, et retourne au menu principal."},"clickEvent":{"action":"run_command","value":"/trigger config set 3"}}]