# On stocke la date de l'équinoxe d'automne pour affichage
scoreboard players operation #store dateJour = #equinoxePrintemps dateJour
scoreboard players operation #store dateMois = #equinoxePrintemps dateMois
function tdh:store/mois