# On stocke la date de l'équinoxe d'automne pour affichage
scoreboard players operation #store dateJour = #equinoxeAutomne dateJour
scoreboard players operation #store dateMois = #equinoxeAutomne dateMois
function tdh:store/mois