# On stocke la date de l'équinoxe d'automne pour affichage
scoreboard players operation #store dateJour = #solsticeEte dateJour
scoreboard players operation #store dateMois = #solsticeEte dateMois
function tdh:store/mois