# On stocke la date de l'équinoxe d'automne pour affichage
scoreboard players operation #store dateJour = #solsticeHiver dateJour
scoreboard players operation #store dateMois = #solsticeHiver dateMois
function tdh:store/mois