# On augmentera currentTick d'une valeur de :
# 100 * (defaultDayBegin - currentTick) / (dayBegin - previousTdhTick)

# temp = dayBegin
# temp2 = defaultDayBegin
scoreboard players operation #temps temp = #temps dayBegin
scoreboard players operation #temps temp2 = #tempsOriginal dayBegin

# temp = (dayBegin - previousTdhTick)
# temp2 = (defaultDayBegin - currentTick)
scoreboard players operation #temps temp -= #temps previousTdhTick
scoreboard players operation #temps temp2 -= #temps currentTick

# temp2 = 200 * (defaultDayBegin - currentTick) / (dayBegin - previousTdhTick)
scoreboard players set #temps temp3 100
scoreboard players operation #temps temp2 *= #temps temp3
scoreboard players operation #temps temp2 /= #temps temp

# On incrémente currentTick temp2 fois
function tdh:time/tdh_tick/sleep/increment

# On affiche à tous les joueurs l'heure actuelle
function tdh:time/tdh_tick/sleep/display

# On réinitialise les variables temporaires
scoreboard players reset #temps temp
scoreboard players reset #temps temp2
scoreboard players reset #temps temp3