# On appelle cette fonction à la position d'un joueur (pas en spectateur) qui a gagné un niveau d'agilité

# On a déjà #xp max = le palier d'XP pour ce niveau
# On le retranche à nos points d'XP
scoreboard players operation @p[gamemode=!spectator,distance=0] agiliteXp -= #xp max
# On gagne un niveau
scoreboard players add @p[gamemode=!spectator,distance=0] agilite 1

# On modifie les attributs correspondants
function tdh:player/xp/agilite/maj_attribut

# On se tag si on a gagné un niveau
tag @p[gamemode=!spectator,distance=0] add GainNiveau

# S'il nous reste des points d'XP, on vérifie si on a gagné d'autres niveaux
execute if score @p[gamemode=!spectator,distance=0] agiliteXp matches 1.. run function tdh:player/xp/agilite/calcul_xp