{
	"condition": "minecraft:alternative",
	"terms": [
		{
			"condition": "minecraft:entity_properties",
			"entity": "this",
			"predicate": {
				"nbt": "{data:{contenu:{combustible:{item:{id:\"minecraft:air\"}}}}}"
			}
		},
		{
			"condition": "minecraft:entity_properties",
			"entity": "this",
			"predicate": {
				"nbt": "{data:{contenu:{combustible:{item:{Count:0b}}}}}"
			}
		},
		{
			"condition": "minecraft:inverted",
			"term": {
				"condition": "minecraft:entity_properties",
				"entity": "this",
				"predicate": {
					"nbt": "{data:{contenu:{combustible:{}}}}"
				}
			}
		}
	]
}