{
	"condition": "minecraft:alternative",
	"terms": [
		{
			"condition": "minecraft:entity_properties",
			"entity": "this",
			"predicate": {
				"nbt": "{data:{contenu:{slots:[{Slot:4b,id:\"minecraft:air\"}]}}}"
			}
		},
		{
			"condition": "minecraft:inverted",
			"term": {
				"condition": "minecraft:entity_properties",
				"entity": "this",
				"predicate": {
					"nbt": "{data:{contenu:{}}}"
				}
			}
		}
	]
}