# On affiche les effets visuels
function tch:rer/rame/mouvement/ecrasement_particules

# On se déplace dans la direction de déplacement du train
tp @s ^ ^.35 ^1

# On se tue
execute at @s run function tdh:kill_lootless