# On enregistre la seconde phrase (Proposer de la boisson)
scoreboard players set #random min 0
scoreboard players set #random max 100
function tdh:random

execute if score #random temp matches 0..24 run data modify storage tdh:dialogue extra.boire set value {basique:'"Vous consommez ?"',cliquable:'[{"text":"Vous "},{"text":"consommez","color":"gold","clickEvent":{"action":"run_command","value":"/trigger topic set 381"},"hoverEvent":{"action":"show_text","value":{"text":"Demander de la boisson"}}},{"text":" ?"}]'}
execute if score #random temp matches 25..49 run data modify storage tdh:dialogue extra.boire set value {basique:'"Je vous sers quelque chose à boire ?"',cliquable:'[{"text":"Je vous sers quelque chose à "},{"text":"boire","color":"gold","clickEvent":{"action":"run_command","value":"/trigger topic set 381"},"hoverEvent":{"action":"show_text","value":{"text":"Demander de la boisson"}}},{"text":" ?"}]'}
execute if score #random temp matches 50..74 run data modify storage tdh:dialogue extra.boire set value {basique:'"Vous m\'avez l\'air d\'avoir bien besoin d\'un petit verre !"',cliquable:'[{"text":"Vous m\'avez l\'air d\'avoir bien besoin d\'un petit "},{"text":"verre","color":"gold","clickEvent":{"action":"run_command","value":"/trigger topic set 381"},"hoverEvent":{"action":"show_text","value":{"text":"Demander de la boisson"}}},{"text":" !"}]'}
execute if score #random temp matches 75..99 run data modify storage tdh:dialogue extra.boire set value {basique:'"Vous désirez boire quelque chose ?"',cliquable:'[{"text":"Vous désirez "},{"text":"boire","color":"gold","clickEvent":{"action":"run_command","value":"/trigger topic set 381"},"hoverEvent":{"action":"show_text","value":{"text":"Demander de la boisson"}}},{"text":" quelque chose ?"}]'}