function tdh:ambient/procyon/gare/horloge/clear

execute if score #temps currentTdhTick matches 0 run function tdh:ambient/procyon/gare/horloge/12h
execute if score #temps currentTdhTick matches 1000 run function tdh:ambient/procyon/gare/horloge/12h30
execute if score #temps currentTdhTick matches 2000 run function tdh:ambient/procyon/gare/horloge/1h
execute if score #temps currentTdhTick matches 3000 run function tdh:ambient/procyon/gare/horloge/1h30
execute if score #temps currentTdhTick matches 4000 run function tdh:ambient/procyon/gare/horloge/2h
execute if score #temps currentTdhTick matches 5000 run function tdh:ambient/procyon/gare/horloge/2h30
execute if score #temps currentTdhTick matches 6000 run function tdh:ambient/procyon/gare/horloge/3h
execute if score #temps currentTdhTick matches 7000 run function tdh:ambient/procyon/gare/horloge/3h30
execute if score #temps currentTdhTick matches 8000 run function tdh:ambient/procyon/gare/horloge/4h
execute if score #temps currentTdhTick matches 9000 run function tdh:ambient/procyon/gare/horloge/4h30
execute if score #temps currentTdhTick matches 10000 run function tdh:ambient/procyon/gare/horloge/5h
execute if score #temps currentTdhTick matches 11000 run function tdh:ambient/procyon/gare/horloge/5h30
execute if score #temps currentTdhTick matches 12000 run function tdh:ambient/procyon/gare/horloge/6h
execute if score #temps currentTdhTick matches 13000 run function tdh:ambient/procyon/gare/horloge/6h30
execute if score #temps currentTdhTick matches 14000 run function tdh:ambient/procyon/gare/horloge/7h
execute if score #temps currentTdhTick matches 15000 run function tdh:ambient/procyon/gare/horloge/7h30
execute if score #temps currentTdhTick matches 16000 run function tdh:ambient/procyon/gare/horloge/8h
execute if score #temps currentTdhTick matches 17000 run function tdh:ambient/procyon/gare/horloge/8h30
execute if score #temps currentTdhTick matches 18000 run function tdh:ambient/procyon/gare/horloge/9h
execute if score #temps currentTdhTick matches 19000 run function tdh:ambient/procyon/gare/horloge/9h30
execute if score #temps currentTdhTick matches 20000 run function tdh:ambient/procyon/gare/horloge/10h
execute if score #temps currentTdhTick matches 21000 run function tdh:ambient/procyon/gare/horloge/10h30
execute if score #temps currentTdhTick matches 22000 run function tdh:ambient/procyon/gare/horloge/11h
execute if score #temps currentTdhTick matches 23000 run function tdh:ambient/procyon/gare/horloge/11h30
execute if score #temps currentTdhTick matches 24000 run function tdh:ambient/procyon/gare/horloge/12h
execute if score #temps currentTdhTick matches 25000 run function tdh:ambient/procyon/gare/horloge/12h30
execute if score #temps currentTdhTick matches 26000 run function tdh:ambient/procyon/gare/horloge/1h
execute if score #temps currentTdhTick matches 27000 run function tdh:ambient/procyon/gare/horloge/1h30
execute if score #temps currentTdhTick matches 28000 run function tdh:ambient/procyon/gare/horloge/2h
execute if score #temps currentTdhTick matches 29000 run function tdh:ambient/procyon/gare/horloge/2h30
execute if score #temps currentTdhTick matches 30000 run function tdh:ambient/procyon/gare/horloge/3h
execute if score #temps currentTdhTick matches 31000 run function tdh:ambient/procyon/gare/horloge/3h30
execute if score #temps currentTdhTick matches 32000 run function tdh:ambient/procyon/gare/horloge/4h
execute if score #temps currentTdhTick matches 33000 run function tdh:ambient/procyon/gare/horloge/4h30
execute if score #temps currentTdhTick matches 34000 run function tdh:ambient/procyon/gare/horloge/5h
execute if score #temps currentTdhTick matches 35000 run function tdh:ambient/procyon/gare/horloge/5h30
execute if score #temps currentTdhTick matches 36000 run function tdh:ambient/procyon/gare/horloge/6h
execute if score #temps currentTdhTick matches 37000 run function tdh:ambient/procyon/gare/horloge/6h30
execute if score #temps currentTdhTick matches 38000 run function tdh:ambient/procyon/gare/horloge/7h
execute if score #temps currentTdhTick matches 39000 run function tdh:ambient/procyon/gare/horloge/7h30
execute if score #temps currentTdhTick matches 40000 run function tdh:ambient/procyon/gare/horloge/8h
execute if score #temps currentTdhTick matches 41000 run function tdh:ambient/procyon/gare/horloge/8h30
execute if score #temps currentTdhTick matches 42000 run function tdh:ambient/procyon/gare/horloge/9h
execute if score #temps currentTdhTick matches 43000 run function tdh:ambient/procyon/gare/horloge/9h30
execute if score #temps currentTdhTick matches 44000 run function tdh:ambient/procyon/gare/horloge/10h
execute if score #temps currentTdhTick matches 45000 run function tdh:ambient/procyon/gare/horloge/10h30
execute if score #temps currentTdhTick matches 46000 run function tdh:ambient/procyon/gare/horloge/11h
execute if score #temps currentTdhTick matches 47000 run function tdh:ambient/procyon/gare/horloge/11h30
execute if score #temps currentTdhTick matches 48000 run function tdh:ambient/procyon/gare/horloge/12h