# Selon notre type de panneau choisi, on définit un score temporaire qui nous servira à calculer le CustomModelData
# La valeur de départ est l'idLine correspondant à cette direction
tellraw @s [{"text":"","color":"#345663"},{"text":"\u1a20","color":"gray"},{"text":"\u1a2b"},{"text":" → ","color":"gray"},{"entity":"@e[type=item_frame,tag=tchQuaiPC,scores={idTerminus=83},limit=1]","nbt":"Item.tag.display.station.prefixe"},{"entity":"@e[type=item_frame,tag=tchQuaiPC,scores={idTerminus=83},limit=1]","nbt":"Item.tag.display.station.nom"}]
scoreboard players set @s idPanneau 83
# On ajoute la valeur correspondant à notre type de panneau
function tch:give/acces_quais/_choix_type/_id_panneau

# On affiche ensuite l'écran de sélection de la direction
function tch:give/acces_quais/_choix_fleche