

execute positioned -745.5 54.0 167.5 run tellraw @a[dx=6,dy=4,dz=6] [{"text":"Les aventuriers précédents se sont fait écraser. D'autres plus valeureux veulent-ils tenter leur chance ?","color":"gold"}]
function tdh:donjon/illysia/salle1/reset