{
    "pools": [
        {
            "rolls": {
                "min": 1,
                "max": 3
            },
            "entries": [
                {
                    "type": "item",
                    "weight": 1,
                    "name": "minecraft:iron_chestplate",
                    "quality": 3
                },
                {
                    "type": "item",
                    "weight": 2,
                    "name": "minecraft:iron_boots",
                    "quality": 2
                },
                {
                    "type": "item",
                    "weight": 2,
                    "name": "minecraft:stone_sword"
                },
                {
                    "type": "item",
                    "weight": 3,
                    "name": "minecraft:leather_chestplate",
                    "functions": [
                        {
                            "function": "enchant_with_levels",
                            "levels": {
                                "min": 11,
                                "max": 17
                            }
                        }
                    ]
                }
            ]
        },
        {
            "rolls": {
                "min": 2,
                "max": 4
            },
            "entries": [
                {
                    "type": "item",
                    "weight": 5,
                    "name": "minecraft:bread",
                    "quality": 2,
                    "functions": [
                        {
                            "function": "set_count",
                            "count": {
                                "min": 3,
                                "max": 14
                            }
                        }
                    ]
                },
                {
                    "type": "item",
                    "weight": 3,
                    "name": "minecraft:baked_potato",
                    "functions": [
                        {
                            "function": "set_count",
                            "count": {
                                "min": 8,
                                "max": 18
                            }
                        }
                    ]
                },
                {
                    "type": "item",
                    "weight": 1,
                    "name": "minecraft:cooked_beef",
                    "quality": 5,
                    "functions": [
                        {
                            "function": "set_count",
                            "count": {
                                "min": 2,
                                "max": 5
                            }
                        }
                    ]
                },
                {
                    "type": "item",
                    "weight": 1,
                    "name": "minecraft:cooked_salmon",
                    "quality": 4,
                    "functions": [
                        {
                            "function": "set_count",
                            "count": {
                                "min": 3,
                                "max": 6
                            }
                        }
                    ]
                },
                {
                    "type": "item",
                    "weight": 3,
                    "name": "minecraft:rotten_flesh",
                    "functions": [
                        {
                            "function": "set_count",
                            "count": {
                                "min": 12,
                                "max": 20
                            }
                        }
                    ]
                }
            ]
        },
        {
            "rolls": {
                "min": 4,
                "max": 6
            },
            "entries": [
                {
                    "type": "item",
                    "weight": 3,
                    "name": "minecraft:arrow",
                    "functions": [
                        {
                            "function": "set_count",
                            "count": {
                                "min": 16,
                                "max": 32
                            }
                        }
                    ]
                },
                {
                    "type": "item",
                    "weight": 2,
                    "name": "minecraft:tipped_arrow",
                    "quality": 2,
                    "functions": [
                        {
                            "function": "set_count",
                            "count": {
                                "min": 8,
                                "max": 16
                            }
                        },
                        {
                            "function": "set_nbt",
                            "tag": "{Potion:\"minecraft:long_weakness\"}"
                        }
                    ]
                },
                {
                    "type": "item",
                    "weight": 1,
                    "name": "minecraft:tipped_arrow",
                    "quality": 5,
                    "functions": [
                        {
                            "function": "set_count",
                            "count": {
                                "min": 6,
                                "max": 13
                            }
                        },
                        {
                            "function": "set_nbt",
                            "tag": "{CustomPotionEffects:[{Id:2,Amplifier:1,Duration:1600}],CustomPotionColor:13954143,display:{Name:\"\\\"Flèche ralentissante\\\"\"}}"
                        }
                    ]
                },
                {
                    "type": "item",
                    "weight": 1,
                    "name": "minecraft:tipped_arrow",
                    "quality": 4,
                    "functions": [
                        {
                            "function": "set_count",
                            "count": {
                                "min": 7,
                                "max": 13
                            }
                        },
                        {
                            "function": "set_nbt",
                            "tag": "{CustomPotionEffects:[{Id:9,Duration:1920},{Id:17,Amplifier:1,Duration:1120}],CustomPotionColor:8567435,display:{Name:\"\\\"Flèche empoisonnée\\\"\"}}"
                        }
                    ]
                }
            ]
        }
    ]
}