{
	"condition": "minecraft:alternative",
	"terms": [
		{
			"condition": "minecraft:location_check",
			"predicate": {
				"biome": "minecraft:old_growth_spruce_taiga",
				"position": {
					"y": {
						"min": 128
					}
				}
			}
		},
		{
			"condition": "minecraft:location_check",
			"predicate": {
				"biome": "minecraft:taiga",
				"position": {
					"y": {
						"min": 128
					}
				}
			}
		}
	]
}