function tdh:ambient/horloge/clear
scoreboard players operation @s currentHalfHour = #temps currentHalfHour

execute unless score #temps currentTdhTick matches 1000..47999 run function tdh:ambient/horloge/12h
execute if score #temps currentTdhTick matches 1000..1999 run function tdh:ambient/horloge/12h30
execute if score #temps currentTdhTick matches 2000..2999 run function tdh:ambient/horloge/1h
execute if score #temps currentTdhTick matches 3000..3999 run function tdh:ambient/horloge/1h30
execute if score #temps currentTdhTick matches 4000..4999 run function tdh:ambient/horloge/2h
execute if score #temps currentTdhTick matches 5000..5999 run function tdh:ambient/horloge/2h30
execute if score #temps currentTdhTick matches 6000..6999 run function tdh:ambient/horloge/3h
execute if score #temps currentTdhTick matches 7000..7999 run function tdh:ambient/horloge/3h30
execute if score #temps currentTdhTick matches 8000..8999 run function tdh:ambient/horloge/4h
execute if score #temps currentTdhTick matches 9000..9999 run function tdh:ambient/horloge/4h30
execute if score #temps currentTdhTick matches 10000..10999 run function tdh:ambient/horloge/5h
execute if score #temps currentTdhTick matches 11000..11999 run function tdh:ambient/horloge/5h30
execute if score #temps currentTdhTick matches 12000..12999 run function tdh:ambient/horloge/6h
execute if score #temps currentTdhTick matches 13000..13999 run function tdh:ambient/horloge/6h30
execute if score #temps currentTdhTick matches 14000..14999 run function tdh:ambient/horloge/7h
execute if score #temps currentTdhTick matches 15000..15999 run function tdh:ambient/horloge/7h30
execute if score #temps currentTdhTick matches 16000..16999 run function tdh:ambient/horloge/8h
execute if score #temps currentTdhTick matches 17000..17999 run function tdh:ambient/horloge/8h30
execute if score #temps currentTdhTick matches 18000..18999 run function tdh:ambient/horloge/9h
execute if score #temps currentTdhTick matches 19000..19999 run function tdh:ambient/horloge/9h30
execute if score #temps currentTdhTick matches 20000..20999 run function tdh:ambient/horloge/10h
execute if score #temps currentTdhTick matches 21000..21999 run function tdh:ambient/horloge/10h30
execute if score #temps currentTdhTick matches 22000..22999 run function tdh:ambient/horloge/11h
execute if score #temps currentTdhTick matches 23000..23999 run function tdh:ambient/horloge/11h30
execute if score #temps currentTdhTick matches 24000..24999 run function tdh:ambient/horloge/12h
execute if score #temps currentTdhTick matches 25000..25999 run function tdh:ambient/horloge/12h30
execute if score #temps currentTdhTick matches 26000..26999 run function tdh:ambient/horloge/1h
execute if score #temps currentTdhTick matches 27000..27999 run function tdh:ambient/horloge/1h30
execute if score #temps currentTdhTick matches 28000..28999 run function tdh:ambient/horloge/2h
execute if score #temps currentTdhTick matches 29000..29999 run function tdh:ambient/horloge/2h30
execute if score #temps currentTdhTick matches 30000..30999 run function tdh:ambient/horloge/3h
execute if score #temps currentTdhTick matches 31000..31999 run function tdh:ambient/horloge/3h30
execute if score #temps currentTdhTick matches 32000..32999 run function tdh:ambient/horloge/4h
execute if score #temps currentTdhTick matches 33000..33999 run function tdh:ambient/horloge/4h30
execute if score #temps currentTdhTick matches 34000..34999 run function tdh:ambient/horloge/5h
execute if score #temps currentTdhTick matches 35000..35999 run function tdh:ambient/horloge/5h30
execute if score #temps currentTdhTick matches 36000..36999 run function tdh:ambient/horloge/6h
execute if score #temps currentTdhTick matches 37000..37999 run function tdh:ambient/horloge/6h30
execute if score #temps currentTdhTick matches 38000..38999 run function tdh:ambient/horloge/7h
execute if score #temps currentTdhTick matches 39000..39999 run function tdh:ambient/horloge/7h30
execute if score #temps currentTdhTick matches 40000..40999 run function tdh:ambient/horloge/8h
execute if score #temps currentTdhTick matches 41000..41999 run function tdh:ambient/horloge/8h30
execute if score #temps currentTdhTick matches 42000..42999 run function tdh:ambient/horloge/9h
execute if score #temps currentTdhTick matches 43000..43999 run function tdh:ambient/horloge/9h30
execute if score #temps currentTdhTick matches 44000..44999 run function tdh:ambient/horloge/10h
execute if score #temps currentTdhTick matches 45000..45999 run function tdh:ambient/horloge/10h30
execute if score #temps currentTdhTick matches 46000..46999 run function tdh:ambient/horloge/11h
execute if score #temps currentTdhTick matches 47000..47999 run function tdh:ambient/horloge/11h30