{
	"parent": "tdh:dialogue/lieux/procyon",
	"display": {
		"frame": "goal",
		"hidden": true,
		"show_toast": true,
		"announce_to_chat": false,
		"title": [{"text":"Découvert:","color":"green"},{"text":" Aulnoy","color":"gold"}],
		"description": [{"text":"Aulnoy étant en banlieue immédiate de ","color":"gold"},{"text":"Procyon","color":"red"},{"text":", c'est naturellement cette dernière qui achète la majorité de sa production de "},{"text":"bois","color":"yellow"},{"text":". Les Aulnoisiens critiquent régulièrement les choix d'urbanisme de leur voisine, qui fait qu'elle leur paie leur marchandise au prix du "},{"text":"bois de chauffage","color":"yellow"},{"text":" plutôt qu'à celui, bien plus intéressant, du bois destiné à la construction."}],
		"icon": {
			"item": "minecraft:spruce_planks"
		}
	},
	"requirements": [
		[
			"centreville",
			"est"
		]
	],
    "criteria": {
        "centreville": {
            "trigger": "location",
			"conditions": {
				"dimension": "overworld",
				"position": {
					"x": {
						"min": 206,
						"max": 244
					},
					"y": {
						"min": 62,
						"max": 92
					},
					"z": {
						"min": 6139,
						"max": 6210
					}
				}
			}
        },
        "est": {
            "trigger": "location",
			"conditions": {
				"dimension": "overworld",
				"position": {
					"x": {
						"min": 244,
						"max": 292
					},
					"y": {
						"min": 62,
						"max": 92
					},
					"z": {
						"min": 6156,
						"max": 6178
					}
				}
			}
        }
    }
}