{
	"parent": "tdh:dialogue/lieux/milloreau",
	"display": {
		"frame": "goal",
		"hidden": true,
		"show_toast": true,
		"announce_to_chat": false,
		"title": [{"text":"Découvert:","color":"green"},{"text":" Calmeflot-les-Deux-Berges","color":"gold"}],
		"description": [{"text":"","color":"gold"},{"text":"","color":"red"},{"text":""}],
		"icon": {
			"item": "minecraft:stripped_spruce_log"
		}
	},
	"requirements": [
		[
			"centreville",
			"ouest"
		]
	],
    "criteria": {
        "centreville": {
            "trigger": "location",
			"conditions": {
				"dimension": "overworld",
				"position": {
					"x": {
						"min": 2367,
						"max": 2425
					},
					"y": {
						"min": 62,
						"max": 92
					},
					"z": {
						"min": 6628,
						"max": 6695
					}
				}
			}
        },
        "ouest": {
            "trigger": "location",
			"conditions": {
				"dimension": "overworld",
				"position": {
					"x": {
						"min": 2307,
						"max": 2367
					},
					"y": {
						"min": 62,
						"max": 92
					},
					"z": {
						"min": 6655,
						"max": 6684
					}
				}
			}
        }
    }
}