{
	"parent": "tdh:dialogue/lieux/neronil",
	"display": {
		"frame": "goal",
		"hidden": true,
		"show_toast": true,
		"announce_to_chat": false,
		"title": [{"text":"Découvert:","color":"green"},{"text":" Eïdin-la-Vallée","color":"gold"}],
		"description": [{"text":"Eïdin, blottie dans une ","color":"gold"},{"text":"vallée accidentée","color":"yellow"},{"text":" entre deux chaînes de montagnes, subit des "},{"text":"hivers très rigoureux","color":"yellow"},{"text":", que les habitants occupent en produisant à l'envi des "},{"text":"fromages à pâte cuite","color":"yellow"},{"text":" et de l'"},{"text":"eau-de-vie d'airelle","color":"yellow"},{"text":"."}],
		"icon": {
			"item": "minecraft:sweet_berries"
		}
	},
	"requirements": [
		[
			"centreville",
			"ouest"
		]
	],
    "criteria": {
        "centreville": {
            "trigger": "location",
			"conditions": {
				"dimension": "overworld",
				"position": {
					"x": {
						"min": 2754,
						"max": 2807
					},
					"y": {
						"min": 62,
						"max": 92
					},
					"z": {
						"min": 1338,
						"max": 1406
					}
				}
			}
        },
        "ouest": {
            "trigger": "location",
			"conditions": {
				"dimension": "overworld",
				"position": {
					"x": {
						"min": 2704,
						"max": 2754
					},
					"y": {
						"min": 62,
						"max": 92
					},
					"z": {
						"min": 1355,
						"max": 1375
					}
				}
			}
        }
    }
}