{
	"parent": "tdh:dialogue/lieux/root_procyon",
	"display": {
		"frame": "challenge",
		"hidden": true,
		"show_toast": true,
		"announce_to_chat": false,
		"title": [{"text":"Découvert:","color":"green"},{"text":" Évrocq","color":"gold"}],
		"description": [{"text":"Bâtie contre le massif des ","color":"gold"},{"text":"Fourgus","color":"red"},{"text":", Évrocq est coupée en deux : une partie de la ville se trouve en altitude, tandis que l'autre est dans la vallée en contrebas. Les deux moitiés sont reliées par un "},{"text":"téléphérique","color":"yellow"},{"text":", et par un vaste réseau de "},{"text":"galeries","color":"yellow"},{"text":" creusées dans la montagne."}],
		"icon": {
			"item": "minecraft:iron_bars"
		}
	},
	"requirements": [
		[
			"haut",
			"bas"
		]
	],
    "criteria": {
        "haut": {
            "trigger": "location",
			"conditions": {
				"dimension": "overworld",
				"position": {
					"x": {
						"min": 1573,
						"max": 1612
					},
					"y": {
						"min": 101,
						"max": 131
					},
					"z": {
						"min": 4382,
						"max": 4471
					}
				}
			}
        },
        "bas": {
            "trigger": "location",
			"conditions": {
				"dimension": "overworld",
				"position": {
					"x": {
						"min": 1612,
						"max": 1686
					},
					"y": {
						"min": 62,
						"max": 92
					},
					"z": {
						"min": 4376,
						"max": 4471
					}
				}
			}
        }
    }
}