{
	"parent": "tdh:dialogue/lieux/ternelieu",
	"display": {
		"frame": "task",
		"hidden": true,
		"show_toast": true,
		"announce_to_chat": false,
		"title": [{"text":"Découvert:","color":"green"},{"text":" Gare de Frambourg–Ternelieu","color":"yellow"}],
		"description": [{"text":"","color":"gold"},{"text":"","color":"red"},{"text":""}],
		"icon": {
			"item": "minecraft:paper",
			"nbt": "{CustomModelData:100}"
		}
	},
    "criteria": {
        "surface": {
            "trigger": "location",
			"conditions": {
				"dimension": "overworld",
				"position": {
					"x": {
						"min": 2974,
						"max": 3016
					},
					"y": {
						"min": 62,
						"max": 82
					},
					"z": {
						"min": 5918,
						"max": 5971
					}
				}
			}
        }
    }
}