{
	"parent": "tdh:dialogue/lieux/grenat",
	"display": {
		"frame": "task",
		"hidden": true,
		"show_toast": true,
		"announce_to_chat": false,
		"title": [{"text":"Découvert:","color":"green"},{"text":" Grenat Méridional","color":"yellow"}],
		"description": [{"text":"La région du ","color":"gold"},{"text":"Grenat Méridional","color":"red"},{"text":" est une zone contestée, revendiquée par "},{"text":"Procyon","color":"yellow"},{"text":" au titre de sa proximité et de sa mainmise sur le commerce local, mais appartenant de facto à la "},{"text":"Compagnie du Grenat Méridional","color":"red"},{"text":", qui administre les principales villes de la région."}],
		"icon": {
			"item": "minecraft:emerald"
		}
	},
    "criteria": {
        "recif": {
            "trigger": "location",
			"conditions": {
				"dimension": "overworld",
				"position": {
					"x": {
						"min": -2100,
						"max": -225
					},
					"y": {
						"min": 62,
						"max": 122
					},
					"z": {
						"min": 3600,
						"max": 5000
					}
				}
			}
        }
    }
}