{
	"parent": "tdh:dialogue/lieux/hameau_totem",
	"display": {
		"frame": "task",
		"hidden": true,
		"show_toast": true,
		"announce_to_chat": false,
		"title": [{"text":"Découvert:","color":"green"},{"text":" Camps miniers du Hameau","color":"yellow"}],
		"description": [{"text":"Fermés en l'an ","color":"gold"},{"text":"-25","color":"yellow"},{"text":", les camps miniers sont aujourd'hui "},{"text":"désaffectés","color":"yellow"},{"text":", mais l'idée de les transformer en "},{"text":"musée éducatif","color":"yellow"},{"text":" a déjà été évoquée par le "},{"text":"Conseil du Hameau","color":"yellow"},{"text":"."}],
		"icon": {
			"item": "minecraft:golden_pickaxe"
		}
	},
	"requirements": [
		[
			"cmp",
			"cms"
		]
	],
    "criteria": {
        "cmp": {
            "trigger": "location",
			"conditions": {
				"dimension": "overworld",
				"position": {
					"x": {
						"min": 529,
						"max": 546
					},
					"y": {
						"min": 62,
						"max": 82
					},
					"z": {
						"min": 414,
						"max": 428
					}
				}
			}
        },
        "cms": {
            "trigger": "location",
			"conditions": {
				"dimension": "overworld",
				"position": {
					"x": {
						"min": 607,
						"max": 621
					},
					"y": {
						"min": 62,
						"max": 82
					},
					"z": {
						"min": 525,
						"max": 534
					}
				}
			}
        }
    }
}