{
	"parent": "tdh:dialogue/lieux/root_hameau",
	"display": {
		"frame": "challenge",
		"hidden": true,
		"show_toast": true,
		"announce_to_chat": false,
		"title": [{"text":"Découvert:","color":"green"},{"text":" Le Hameau","color":"gold"}],
		"description": [{"text":"Capitale administrative inconstestable, ","color":"gold"},{"text":"Le Hameau","color":"red"},{"text":" est à la fois une plaque tournante du "},{"text":"commerce","color":"yellow"},{"text":", des "},{"text":"transports","color":"yellow"},{"text":", et plus généralement de tous types de services."}],
		"icon": {
			"item": "minecraft:black_banner",
			"nbt": "{BlockEntityTag:{Patterns:[{Pattern:\"ms\",Color:12},{Pattern:\"drs\",Color:12},{Pattern:\"dls\",Color:12},{Pattern:\"mc\",Color:15},{Pattern:\"bo\",Color:15},{Pattern:\"ms\",Color:12}]}}"
		}
	},
	"requirements": [
		[
			"centre",
			"ouest",
			"portsud"
		]
	],
    "criteria": {
        "centre": {
            "trigger": "location",
			"conditions": {
				"dimension": "overworld",
				"position": {
					"x": {
						"min": 0,
						"max": 232
					},
					"y": {
						"min": 62,
						"max": 92
					},
					"z": {
						"min": 10,
						"max": 199
					}
				}
			}
        },
        "ouest": {
            "trigger": "location",
			"conditions": {
				"dimension": "overworld",
				"position": {
					"x": {
						"min": -31,
						"max": 120
					},
					"y": {
						"min": 62,
						"max": 92
					},
					"z": {
						"min": 72,
						"max": 252
					}
				}
			}
        },
        "portsud": {
            "trigger": "location",
			"conditions": {
				"dimension": "overworld",
				"position": {
					"x": {
						"min": -80,
						"max": 63
					},
					"y": {
						"min": 62,
						"max": 92
					},
					"z": {
						"min": 190,
						"max": 339
					}
				}
			}
        }
    }
}