{
	"parent": "tdh:dialogue/lieux/evrocq",
	"display": {
		"frame": "task",
		"hidden": true,
		"show_toast": true,
		"announce_to_chat": false,
		"title": [{"text":"Découvert:","color":"green"},{"text":" Île du Singe","color":"yellow"}],
		"description": [{"text":"","color":"gold"},{"text":"","color":"red"},{"text":""}],
		"icon": {
			"item": "minecraft:birch_boat"
		}
	},
    "criteria": {
        "surface": {
            "trigger": "location",
			"conditions": {
				"dimension": "overworld",
				"position": {
					"x": {
						"min": 920,
						"max": 1234
					},
					"y": {
						"min": 62,
						"max": 126
					},
					"z": {
						"min": 3650,
						"max": 3960
					}
				}
			}
        }
    }
}