{
	"parent": "tdh:dialogue/lieux/villonne",
	"display": {
		"frame": "task",
		"hidden": true,
		"show_toast": true,
		"announce_to_chat": false,
		"title": [{"text":"Découvert:","color":"green"},{"text":" Base nautique de Jëej","color":"yellow"}],
		"description": [{"text":"Sous l'autorité de ","color":"gold"},{"text":"Villonne","color":"red"},{"text":", la base nautique de Jëej propose aux "},{"text":"vacanciers","color":"yellow"},{"text":" des excursions en barque, des randonnées dans la forêt, et des spécialités de "},{"text":"saumon","color":"yellow"},{"text":" très appréciées."}],
		"icon": {
			"item": "minecraft:salmon"
		}
	},
    "criteria": {
        "lac": {
            "trigger": "location",
			"conditions": {
				"dimension": "overworld",
				"position": {
					"x": {
						"min": 91,
						"max": 118
					},
					"y": {
						"min": 52,
						"max": 72
					},
					"z": {
						"min": 772,
						"max": 798
					}
				}
			}
        }
    }
}