{
	"parent": "tdh:dialogue/lieux/grenat_meridional",
	"display": {
		"frame": "challenge",
		"hidden": true,
		"show_toast": true,
		"announce_to_chat": false,
		"title": [{"text":"Découvert:","color":"green"},{"text":" Oréa-sur-Mer","color":"gold"}],
		"description": [{"text":"Vieux ","color":"gold"},{"text":"comptoir commercial","color":"yellow"},{"text":" grenois, la ville d'"},{"text":"Oréa-sur-Mer","color":"red"},{"text":" est une plaque tournante du "},{"text":"commerce","color":"yellow"},{"text":" de la région. Elle est administrée par la "},{"text":"Compagnie du Grenat Méridional","color":"red"},{"text":"."}],
		"icon": {
			"item": "minecraft:dark_oak_boat"
		}
	},
	"requirements": [
		[
			"centreville",
			"portsud"
		]
	],
    "criteria": {
        "centreville": {
            "trigger": "location",
			"conditions": {
				"dimension": "overworld",
				"position": {
					"x": {
						"min": -1817,
						"max": -1699
					},
					"y": {
						"min": 62,
						"max": 92
					},
					"z": {
						"min": 4301,
						"max": 4344
					}
				}
			}
        },
        "portsud": {
            "trigger": "location",
			"conditions": {
				"dimension": "overworld",
				"position": {
					"x": {
						"min": -1786,
						"max": -1745
					},
					"y": {
						"min": 62,
						"max": 92
					},
					"z": {
						"min": 4344,
						"max": 4400
					}
				}
			}
        }
    }
}