{
	"parent": "tdh:dialogue/lieux",
	"display": {
		"frame": "task",
		"hidden": true,
		"show_toast": false,
		"announce_to_chat": false,
		"title": {"text":"Terres du Hameau","color":"yellow"},
		"description": [{"text":"Cette région s'étend tout autour de sa capitale, ","color":"gold"},{"text":"Le Hameau","color":"red"},{"text":", et constitue la zone la plus "},{"text":"densément peuplée","color":"yellow"},{"text":" de tout le monde connu."}],
		"icon": {
			"item": "minecraft:gold_block"
		}
	},
    "criteria": {
		"never": {
			"trigger": "impossible"
		}
    }
}