{
	"parent": "tdh:dialogue/lieux/hameau",
	"display": {
		"frame": "goal",
		"hidden": true,
		"show_toast": true,
		"announce_to_chat": false,
		"title": [{"text":"Découvert:","color":"green"},{"text":" Verchamps","color":"gold"}],
		"description": [{"text":"Situé en périphérie du ","color":"gold"},{"text":"Hameau","color":"red"},{"text":", le village de Verchamps abrite quelques fermiers et produit un "},{"text":"boudin","color":"yellow"},{"text":" très renommé."}],
		"icon": {
			"item": "minecraft:cooked_porkchop"
		}
	},
    "criteria": {
        "centreville": {
            "trigger": "location",
			"conditions": {
				"dimension": "overworld",
				"position": {
					"x": {
						"min": -210,
						"max": -108
					},
					"y": {
						"min": 62,
						"max": 92
					},
					"z": {
						"min": 42,
						"max": 99
					}
				}
			}
        }
    }
}