{
	"parent": "tdh:dialogue/lieux/cyseal",
	"display": {
		"frame": "goal",
		"hidden": true,
		"show_toast": true,
		"announce_to_chat": false,
		"title": [{"text":"Découvert:","color":"green"},{"text":" Vernoglie-les-Mines","color":"gold"}],
		"description": [{"text":"","color":"gold"},{"text":"","color":"red"},{"text":""}],
		"icon": {
			"item": "minecraft:stone_pickaxe"
		}
	},
    "criteria": {
        "centreville": {
            "trigger": "location",
			"conditions": {
				"dimension": "overworld",
				"position": {
					"x": {
						"min": -2057,
						"max": -1975
					},
					"y": {
						"min": 62,
						"max": 92
					},
					"z": {
						"min": 5722,
						"max": 5772
					}
				}
			}
        }
    }
}