{
	"parent": "tdh:dialogue/lieux/eveniseclesta",
	"display": {
		"frame": "task",
		"hidden": true,
		"show_toast": true,
		"announce_to_chat": false,
		"title": [{"text":"Découvert:","color":"green"},{"text":" Volcan d'Éclesta","color":"yellow"}],
		"description": [{"text":"","color":"gold"},{"text":"","color":"red"},{"text":""}],
		"icon": {
			"item": "minecraft:lava_bucket"
		}
	},
    "criteria": {
        "volcan": {
            "trigger": "location",
			"conditions": {
				"dimension": "overworld",
				"position": {
					"x": {
						"min": 1520,
						"max": 1572
					},
					"y": {
						"min": 77,
						"max": 107
					},
					"z": {
						"min": 404,
						"max": 444
					}
				}
			}
        }
    }
}