{
	"parent": "tdh:dialogue/lieux/dorlinor",
	"display": {
		"frame": "goal",
		"hidden": true,
		"show_toast": true,
		"announce_to_chat": false,
		"title": [{"text":"Découvert:","color":"green"},{"text":" Ygriak","color":"gold"}],
		"description": [{"text":"Un village proche de ","color":"gold"},{"text":"Dorlinor","color":"red"},{"text":", réputé tant pour sa production de "},{"text":"citrouilles","color":"yellow"},{"text":" que pour ses habitants clairement antipathiques."}],
		"icon": {
			"item": "minecraft:carved_pumpkin"
		}
	},
    "criteria": {
        "centreville": {
            "trigger": "location",
			"conditions": {
				"dimension": "overworld",
				"position": {
					"x": {
						"min": 1070,
						"max": 1120
					},
					"y": {
						"min": 62,
						"max": 92
					},
					"z": {
						"min": -288,
						"max": -237
					}
				}
			}
        }
    }
}