scoreboard players set #pluieParticules intensite 0
scoreboard players set #pluieParticules intensiteMin 2
scoreboard players set #pluieParticules_1 intensite 0
scoreboard players set #pluieParticules_2 intensite 4
scoreboard players set #pluieParticules_3 intensite 12
scoreboard players set #pluieParticules_4 intensite 20

function tdh:meteo/effects/pluie/intensite_changee
function tdh:meteo/config/particules_pluie