{
	"condition": "minecraft:alternative",
	"terms": [
		{
			"condition": "minecraft:reference",
			"name": "tdh:biome/neige_0"
		},
		{
			"condition": "minecraft:reference",
			"name": "tdh:biome/neige_96"
		},
		{
			"condition": "minecraft:reference",
			"name": "tdh:biome/neige_104"
		},
		{
			"condition": "minecraft:reference",
			"name": "tdh:biome/neige_112"
		},
		{
			"condition": "minecraft:reference",
			"name": "tdh:biome/neige_120"
		},
		{
			"condition": "minecraft:reference",
			"name": "tdh:biome/neige_136"
		},
		{
			"condition": "minecraft:reference",
			"name": "tdh:biome/neige_152"
		},
		{
			"condition": "minecraft:reference",
			"name": "tdh:biome/neige_160"
		},
		{
			"condition": "minecraft:reference",
			"name": "tdh:biome/neige_168"
		},
		{
			"condition": "minecraft:reference",
			"name": "tdh:biome/neige_192"
		},
		{
			"condition": "minecraft:reference",
			"name": "tdh:biome/neige_200"
		},
		{
			"condition": "minecraft:reference",
			"name": "tdh:biome/neige_216"
		},
		{
			"condition": "minecraft:reference",
			"name": "tdh:biome/neige_240"
		},
		{
			"condition": "minecraft:reference",
			"name": "tdh:biome/neige_272"
		}
	]
}