# On sortira une phrase modeste à tous les coups
function tdh:dialogue/answers/torche/aubergiste/bavarder/modeste/question

# 10 chances sur 10 d'avoir une réponse favorable (EN PAYANT!)
function tdh:dialogue/answers/torche/aubergiste/bavarder/modeste/reponse