# FOND

tellraw @s [{"text":"\n==== hgive ","color":"#cc4400","bold":"true"},{"text":"fond","color":"#d81d0c"},{"text":" ===="}]

# Détection automatique
# On propose les fonds pertinents
function tch:give/fond/_near