# On génère une bonne manière d'amadouer l'aubergiste
# On stocke une variable aléatoire entre 0 et 99
scoreboard players set #random min 0
scoreboard players set #random max 100
function tdh:random

# On stocke une phrase différente selon la valeur de cette variable
execute if score #random temp matches 0..19 run data modify storage tdh:dialogue question set value '"Mes enfants m\'attendent... Il faut que je rentre les nourrir et je ne pourrai pas le faire sans une torche... Si vous avez un coeur, laissez-moi retrouver mes enfants !"'
execute if score #random temp matches 20..39 run data modify storage tdh:dialogue question set value '"Mon cher, votre auberge est toujours un refuge dans lequel j\'aime à me plonger. On y trouve les mets les plus succulents des environs, de délicieuses boissons, des lits confortables, au point que je vous recommande à mes amis aux quatre coins des Terres du Hameau. Si j\'avais le temps de rester, pensez-vous seulement que j\'en ferais autrement ? Ce serait mal me connaître et surtout mal connaître mon adoration pour cet endroit... Je ne le quitte que lorsque c\'est absolument nécessaire, et même à ce moment cela me fait un pincement au coeur. Si je vous demande cette torche, c\'est à contrecoeur... et parce que je n\'ai pas le choix..."'
execute if score #random temp matches 40..59 run data modify storage tdh:dialogue question set value '{"text":"Sachez, "},{"selector":"@s"},{"text":", que ce n\'est pas de gaîté de coeur que je quitte votre établissement. Si je pars, c\'est parce que le devoir m\'appelle, et même si je ne compte pas passer l\'éternité à siroter de la bière accoudé à votre comptoir, j\'y consacrerai tout le temps disponible... Malheureusement, je n\'ai pas le choix ! Et si vous ne m\'aidez pas un peu, j\'ai peur de ne pas pouvoir aller secourir mon ami..."}'
execute if score #random temp matches 60..79 run data modify storage tdh:dialogue question set value '"Bien sûr que je vous prendrai une chambre ! Mais pas ce soir... Toute ma famille m\'attend, et j\'étais tellement bien ici que je n\'ai pas vu le temps passer ! Si vous m\'aidez aujourd\'hui, je reviendrai souvent, pour sûr ! Ce n\'est pas tous les jours qu\'on trouve un endroit aussi sympathique."'
execute if score #random temp matches 80..99 run data modify storage tdh:dialogue question set value '"Ce serait avec un immense plaisir, mais ce n\'est vraiment pas possible pour le moment. Je ne vais pas m\'étaler, je suis dans une situation assez difficile en ce moment, mais votre auberge... ça m\'aide vraiment à tenir le coup, c\'est incroyable ce qu\'un peu de bon pain et beaucoup de chaleur humaine peuvent faire au moral ! Vous n\'avez pas idée... Je ne prends pas assez le temps de vous remercier pour tout ce que vous faites, ça doit être un sacré boulot de faire tourner tout ça et d\'avoir encore le sourire ! Vous êtes un peu comme un phare dans l\'obscurité pour beaucoup d\'entre nous... et comme vous ne pouvez pas m\'accompagner dans mon urgente quête, je vous serais infiniment reconnaissant de me laisser emprunter un phare plus modeste pour éclairer un peu l\'autre obscurité, celle du dehors..."'

# On ne gagne pas davantage de points d'éloquence
